root://x509up_u129802@lhcbxrootd-kit.gridka.de//pnfs/gridka.de/lhcb/LHCb_USER/lhcb/user/t/tmcgrath/2023_10/806131/806131246/Bc2BsX_Bs2DsPi_2016_MC.root
root://x509up_u129802@lhcbxrootd-kit.gridka.de//pnfs/gridka.de/lhcb/LHCb_USER/lhcb/user/t/tmcgrath/2023_10/806131/806131251/Bc2BsX_Bs2DsPi_2016_MC.root
root://x509up_u129802@lhcbxrootd-kit.gridka.de//pnfs/gridka.de/lhcb/LHCb_USER/lhcb/user/t/tmcgrath/2023_10/806131/806131257/Bc2BsX_Bs2DsPi_2016_MC.root
root://x509up_u129802@eoslhcb.cern.ch//eos/lhcb/grid/user/lhcb/user/t/tmcgrath/2023_10/806131/806131248/Bc2BsX_Bs2DsPi_2016_MC.root
root://x509up_u129802@eoslhcb.cern.ch//eos/lhcb/grid/user/lhcb/user/t/tmcgrath/2023_10/806131/806131254/Bc2BsX_Bs2DsPi_2016_MC.root
root://x509up_u129802@eoslhcb.cern.ch//eos/lhcb/grid/user/lhcb/user/t/tmcgrath/2023_10/806131/806131263/Bc2BsX_Bs2DsPi_2016_MC.root
root://x509up_u129802@ccxrootdlhcb.in2p3.fr//pnfs/in2p3.fr/data/lhcb/LHCb_USER/lhcb/user/t/tmcgrath/2023_10/806131/806131259/Bc2BsX_Bs2DsPi_2016_MC.root
root://xrootd.echo.stfc.ac.uk//lhcb:user/lhcb/user/t/tmcgrath/2023_10/806131/806131261/Bc2BsX_Bs2DsPi_2016_MC.root
root://xrootd-lhcb.cr.cnaf.infn.it:1094//storage/gpfs_lhcb/lhcb/user/t/tmcgrath/2023_10/806131/806131266/Bc2BsX_Bs2DsPi_2016_MC.root
root://xrootd-lhcb.cr.cnaf.infn.it:1094//storage/gpfs_lhcb/lhcb/user/t/tmcgrath/2023_10/806131/806131268/Bc2BsX_Bs2DsPi_2016_MC.root
root://xrootd-lhcb.cr.cnaf.infn.it:1094//storage/gpfs_lhcb/lhcb/user/t/tmcgrath/2023_10/806131/806131270/Bc2BsX_Bs2DsPi_2016_MC.root
