root://x509up_u129802@xrootd.grid.surfsara.nl//pnfs/grid.sara.nl/data/lhcb/LHCb_USER/lhcb/user/t/tmcgrath/2023_03/729014/729014330/Bc2BsRho_Bs2JpsiPhi_2016_MC.root
root://x509up_u129802@ccxrootdlhcb.in2p3.fr//pnfs/in2p3.fr/data/lhcb/LHCb_USER/lhcb/user/t/tmcgrath/2023_03/729014/729014331/Bc2BsRho_Bs2JpsiPhi_2016_MC.root
root://xrootd-lhcb.cr.cnaf.infn.it:1094//storage/gpfs_lhcb/lhcb/user/t/tmcgrath/2023_03/729014/729014332/Bc2BsRho_Bs2JpsiPhi_2016_MC.root
root://x509up_u129802@eoslhcb.cern.ch//eos/lhcb/grid/user/lhcb/user/t/tmcgrath/2023_03/729014/729014333/Bc2BsRho_Bs2JpsiPhi_2016_MC.root
root://xrootd.echo.stfc.ac.uk/lhcb:user/lhcb/user/t/tmcgrath/2023_03/729014/729014334/Bc2BsRho_Bs2JpsiPhi_2016_MC.root
