root://xrootd.echo.stfc.ac.uk/lhcb:user/lhcb/user/t/tmcgrath/2022_12/687880/687880205/Bc2BsK_Bs2JpsiPhi_2018_MC.root
root://x509up_u129802@eoslhcb.cern.ch//eos/lhcb/grid/user/lhcb/user/t/tmcgrath/2022_12/687880/687880206/Bc2BsK_Bs2JpsiPhi_2018_MC.root
root://x509up_u129802@lhcbxrootd-kit.gridka.de//pnfs/gridka.de/lhcb/LHCb_USER/lhcb/user/t/tmcgrath/2022_12/687880/687880207/Bc2BsK_Bs2JpsiPhi_2018_MC.root
root://x509up_u129802@ccxrootdlhcb.in2p3.fr//pnfs/in2p3.fr/data/lhcb/LHCb_USER/lhcb/user/t/tmcgrath/2022_12/687880/687880208/Bc2BsK_Bs2JpsiPhi_2018_MC.root
root://xrootd-lhcb.cr.cnaf.infn.it:1094//storage/gpfs_lhcb/lhcb/user/t/tmcgrath/2022_12/687880/687880209/Bc2BsK_Bs2JpsiPhi_2018_MC.root
