root://x509up_u129802@eoslhcb.cern.ch//eos/lhcb/grid/user/lhcb/user/t/tmcgrath/2022_12/689379/689379498/Bc2BsKst_Bs2DsPi_2018_MC.root
root://x509up_u129802@eoslhcb.cern.ch//eos/lhcb/grid/user/lhcb/user/t/tmcgrath/2022_12/689379/689379501/Bc2BsKst_Bs2DsPi_2018_MC.root
root://x509up_u129802@ccxrootdlhcb.in2p3.fr//pnfs/in2p3.fr/data/lhcb/LHCb_USER/lhcb/user/t/tmcgrath/2022_12/689379/689379499/Bc2BsKst_Bs2DsPi_2018_MC.root
root://x509up_u129802@lhcbxrootd-kit.gridka.de//pnfs/gridka.de/lhcb/LHCb_USER/lhcb/user/t/tmcgrath/2022_12/689379/689379500/Bc2BsKst_Bs2DsPi_2018_MC.root
