root://x509up_u129802@eoslhcb.cern.ch//eos/lhcb/grid/user/lhcb/user/t/tmcgrath/2023_03/729014/729014296/Bc2BsKst_Bs2JpsiPhi_2016_MC.root
root://x509up_u129802@eoslhcb.cern.ch//eos/lhcb/grid/user/lhcb/user/t/tmcgrath/2023_03/729014/729014300/Bc2BsKst_Bs2JpsiPhi_2016_MC.root
root://x509up_u129802@lhcbxrootd-kit.gridka.de//pnfs/gridka.de/lhcb/LHCb_USER/lhcb/user/t/tmcgrath/2023_03/729014/729014297/Bc2BsKst_Bs2JpsiPhi_2016_MC.root
root://x509up_u129802@ccxrootdlhcb.in2p3.fr//pnfs/in2p3.fr/data/lhcb/LHCb_USER/lhcb/user/t/tmcgrath/2023_03/729014/729014298/Bc2BsKst_Bs2JpsiPhi_2016_MC.root
root://xrootd-lhcb.cr.cnaf.infn.it:1094//storage/gpfs_lhcb/lhcb/user/t/tmcgrath/2023_03/729014/729014299/Bc2BsKst_Bs2JpsiPhi_2016_MC.root
