root://xrootd.echo.stfc.ac.uk/lhcb:user/lhcb/user/t/tmcgrath/2023_01/706686/706686840/Bc2BsX_Bs2DsPi_2016_MC.root
root://xrootd.echo.stfc.ac.uk/lhcb:user/lhcb/user/t/tmcgrath/2023_01/706686/706686849/Bc2BsX_Bs2DsPi_2016_MC.root
root://xrootd.echo.stfc.ac.uk/lhcb:user/lhcb/user/t/tmcgrath/2023_01/706686/706686851/Bc2BsX_Bs2DsPi_2016_MC.root
root://xrootd.echo.stfc.ac.uk/lhcb:user/lhcb/user/t/tmcgrath/2023_01/706686/706686853/Bc2BsX_Bs2DsPi_2016_MC.root
root://xrootd.echo.stfc.ac.uk/lhcb:user/lhcb/user/t/tmcgrath/2023_01/706686/706686860/Bc2BsX_Bs2DsPi_2016_MC.root
root://xrootd.echo.stfc.ac.uk/lhcb:user/lhcb/user/t/tmcgrath/2023_01/706686/706686863/Bc2BsX_Bs2DsPi_2016_MC.root
root://x509up_u129802@eoslhcb.cern.ch//eos/lhcb/grid/user/lhcb/user/t/tmcgrath/2023_01/706686/706686842/Bc2BsX_Bs2DsPi_2016_MC.root
root://x509up_u129802@eoslhcb.cern.ch//eos/lhcb/grid/user/lhcb/user/t/tmcgrath/2023_01/706686/706686843/Bc2BsX_Bs2DsPi_2016_MC.root
root://x509up_u129802@eoslhcb.cern.ch//eos/lhcb/grid/user/lhcb/user/t/tmcgrath/2023_01/706686/706686845/Bc2BsX_Bs2DsPi_2016_MC.root
root://x509up_u129802@eoslhcb.cern.ch//eos/lhcb/grid/user/lhcb/user/t/tmcgrath/2023_01/706686/706686847/Bc2BsX_Bs2DsPi_2016_MC.root
root://x509up_u129802@eoslhcb.cern.ch//eos/lhcb/grid/user/lhcb/user/t/tmcgrath/2023_01/706686/706686854/Bc2BsX_Bs2DsPi_2016_MC.root
root://xrootd-lhcb.cr.cnaf.infn.it:1094//storage/gpfs_lhcb/lhcb/user/t/tmcgrath/2023_01/706686/706686856/Bc2BsX_Bs2DsPi_2016_MC.root
root://x509up_u129802@ccxrootdlhcb.in2p3.fr//pnfs/in2p3.fr/data/lhcb/LHCb_USER/lhcb/user/t/tmcgrath/2023_01/706686/706686858/Bc2BsX_Bs2DsPi_2016_MC.root
root://x509up_u129802@lhcbxrootd-kit.gridka.de//pnfs/gridka.de/lhcb/LHCb_USER/lhcb/user/t/tmcgrath/2023_01/706686/706686862/Bc2BsX_Bs2DsPi_2016_MC.root
root://x509up_u129802@lhcbxrootd-kit.gridka.de//pnfs/gridka.de/lhcb/LHCb_USER/lhcb/user/t/tmcgrath/2023_01/706686/706686865/Bc2BsX_Bs2DsPi_2016_MC.root
