root://xrootd.echo.stfc.ac.uk/lhcb:user/lhcb/user/t/tmcgrath/2023_01/707156/707156211/Bc2BsKst_Bs2JpsiPhi_2017_MC.root
root://x509up_u129802@ccxrootdlhcb.in2p3.fr//pnfs/in2p3.fr/data/lhcb/LHCb_USER/lhcb/user/t/tmcgrath/2023_01/707156/707156212/Bc2BsKst_Bs2JpsiPhi_2017_MC.root
root://x509up_u129802@xrootd.pic.es//pnfs/pic.es/data/lhcb/LHCb_USER/lhcb/user/t/tmcgrath/2023_01/707156/707156213/Bc2BsKst_Bs2JpsiPhi_2017_MC.root
root://x509up_u129802@eoslhcb.cern.ch//eos/lhcb/grid/user/lhcb/user/t/tmcgrath/2023_01/710622/710622171/Bc2BsKst_Bs2JpsiPhi_2017_MC.root
root://x509up_u129802@eoslhcb.cern.ch//eos/lhcb/grid/user/lhcb/user/t/tmcgrath/2023_01/710622/710622190/Bc2BsKst_Bs2JpsiPhi_2017_MC.root
