root://xrootd-lhcb.cr.cnaf.infn.it:1094//storage/gpfs_lhcb/lhcb/user/t/tmcgrath/2022_12/689053/689053650/Bc2BsK_Bs2DsPi_2017_MC.root
root://xrootd-lhcb.cr.cnaf.infn.it:1094//storage/gpfs_lhcb/lhcb/user/t/tmcgrath/2022_12/689053/689053655/Bc2BsK_Bs2DsPi_2017_MC.root
root://xrootd-lhcb.cr.cnaf.infn.it:1094//storage/gpfs_lhcb/lhcb/user/t/tmcgrath/2022_12/689053/689053658/Bc2BsK_Bs2DsPi_2017_MC.root
root://xrootd-lhcb.cr.cnaf.infn.it:1094//storage/gpfs_lhcb/lhcb/user/t/tmcgrath/2022_12/689053/689053668/Bc2BsK_Bs2DsPi_2017_MC.root
root://xrootd-lhcb.cr.cnaf.infn.it:1094//storage/gpfs_lhcb/lhcb/user/t/tmcgrath/2022_12/689053/689053675/Bc2BsK_Bs2DsPi_2017_MC.root
root://xrootd-lhcb.cr.cnaf.infn.it:1094//storage/gpfs_lhcb/lhcb/user/t/tmcgrath/2022_12/689053/689053681/Bc2BsK_Bs2DsPi_2017_MC.root
root://xrootd-lhcb.cr.cnaf.infn.it:1094//storage/gpfs_lhcb/lhcb/user/t/tmcgrath/2022_12/689053/689053683/Bc2BsK_Bs2DsPi_2017_MC.root
root://xrootd-lhcb.cr.cnaf.infn.it:1094//storage/gpfs_lhcb/lhcb/user/t/tmcgrath/2022_12/689053/689053690/Bc2BsK_Bs2DsPi_2017_MC.root
root://xrootd-lhcb.cr.cnaf.infn.it:1094//storage/gpfs_lhcb/lhcb/user/t/tmcgrath/2022_12/689053/689053693/Bc2BsK_Bs2DsPi_2017_MC.root
root://xrootd-lhcb.cr.cnaf.infn.it:1094//storage/gpfs_lhcb/lhcb/user/t/tmcgrath/2022_12/689053/689053700/Bc2BsK_Bs2DsPi_2017_MC.root
root://x509up_u129802@lhcbxrootd-kit.gridka.de//pnfs/gridka.de/lhcb/LHCb_USER/lhcb/user/t/tmcgrath/2022_12/689053/689053651/Bc2BsK_Bs2DsPi_2017_MC.root
root://x509up_u129802@lhcbxrootd-kit.gridka.de//pnfs/gridka.de/lhcb/LHCb_USER/lhcb/user/t/tmcgrath/2022_12/689053/689053652/Bc2BsK_Bs2DsPi_2017_MC.root
root://x509up_u129802@lhcbxrootd-kit.gridka.de//pnfs/gridka.de/lhcb/LHCb_USER/lhcb/user/t/tmcgrath/2022_12/689053/689053657/Bc2BsK_Bs2DsPi_2017_MC.root
root://x509up_u129802@lhcbxrootd-kit.gridka.de//pnfs/gridka.de/lhcb/LHCb_USER/lhcb/user/t/tmcgrath/2022_12/689053/689053667/Bc2BsK_Bs2DsPi_2017_MC.root
root://x509up_u129802@lhcbxrootd-kit.gridka.de//pnfs/gridka.de/lhcb/LHCb_USER/lhcb/user/t/tmcgrath/2022_12/689053/689053669/Bc2BsK_Bs2DsPi_2017_MC.root
root://x509up_u129802@lhcbxrootd-kit.gridka.de//pnfs/gridka.de/lhcb/LHCb_USER/lhcb/user/t/tmcgrath/2022_12/689053/689053678/Bc2BsK_Bs2DsPi_2017_MC.root
root://x509up_u129802@lhcbxrootd-kit.gridka.de//pnfs/gridka.de/lhcb/LHCb_USER/lhcb/user/t/tmcgrath/2022_12/689053/689053686/Bc2BsK_Bs2DsPi_2017_MC.root
root://x509up_u129802@lhcbxrootd-kit.gridka.de//pnfs/gridka.de/lhcb/LHCb_USER/lhcb/user/t/tmcgrath/2022_12/689053/689053691/Bc2BsK_Bs2DsPi_2017_MC.root
root://x509up_u129802@lhcbxrootd-kit.gridka.de//pnfs/gridka.de/lhcb/LHCb_USER/lhcb/user/t/tmcgrath/2022_12/689053/689053699/Bc2BsK_Bs2DsPi_2017_MC.root
root://x509up_u129802@lhcbxrootd-kit.gridka.de//pnfs/gridka.de/lhcb/LHCb_USER/lhcb/user/t/tmcgrath/2022_12/689053/689053702/Bc2BsK_Bs2DsPi_2017_MC.root
root://x509up_u129802@xrootd.grid.surfsara.nl//pnfs/grid.sara.nl/data/lhcb/LHCb_USER/lhcb/user/t/tmcgrath/2022_12/689053/689053653/Bc2BsK_Bs2DsPi_2017_MC.root
root://x509up_u129802@xrootd.grid.surfsara.nl//pnfs/grid.sara.nl/data/lhcb/LHCb_USER/lhcb/user/t/tmcgrath/2022_12/689053/689053671/Bc2BsK_Bs2DsPi_2017_MC.root
root://x509up_u129802@xrootd.grid.surfsara.nl//pnfs/grid.sara.nl/data/lhcb/LHCb_USER/lhcb/user/t/tmcgrath/2022_12/689053/689053701/Bc2BsK_Bs2DsPi_2017_MC.root
root://x509up_u129802@xrootd.grid.surfsara.nl//pnfs/grid.sara.nl/data/lhcb/LHCb_USER/lhcb/user/t/tmcgrath/2022_12/689053/689053705/Bc2BsK_Bs2DsPi_2017_MC.root
root://x509up_u129802@ccxrootdlhcb.in2p3.fr//pnfs/in2p3.fr/data/lhcb/LHCb_USER/lhcb/user/t/tmcgrath/2022_12/689053/689053654/Bc2BsK_Bs2DsPi_2017_MC.root
root://x509up_u129802@ccxrootdlhcb.in2p3.fr//pnfs/in2p3.fr/data/lhcb/LHCb_USER/lhcb/user/t/tmcgrath/2022_12/689053/689053660/Bc2BsK_Bs2DsPi_2017_MC.root
root://x509up_u129802@ccxrootdlhcb.in2p3.fr//pnfs/in2p3.fr/data/lhcb/LHCb_USER/lhcb/user/t/tmcgrath/2022_12/689053/689053672/Bc2BsK_Bs2DsPi_2017_MC.root
root://x509up_u129802@ccxrootdlhcb.in2p3.fr//pnfs/in2p3.fr/data/lhcb/LHCb_USER/lhcb/user/t/tmcgrath/2022_12/689053/689053684/Bc2BsK_Bs2DsPi_2017_MC.root
root://x509up_u129802@ccxrootdlhcb.in2p3.fr//pnfs/in2p3.fr/data/lhcb/LHCb_USER/lhcb/user/t/tmcgrath/2022_12/689053/689053694/Bc2BsK_Bs2DsPi_2017_MC.root
root://x509up_u129802@ccxrootdlhcb.in2p3.fr//pnfs/in2p3.fr/data/lhcb/LHCb_USER/lhcb/user/t/tmcgrath/2022_12/689053/689053698/Bc2BsK_Bs2DsPi_2017_MC.root
root://x509up_u129802@ccxrootdlhcb.in2p3.fr//pnfs/in2p3.fr/data/lhcb/LHCb_USER/lhcb/user/t/tmcgrath/2022_12/689053/689053704/Bc2BsK_Bs2DsPi_2017_MC.root
root://x509up_u129802@eoslhcb.cern.ch//eos/lhcb/grid/user/lhcb/user/t/tmcgrath/2022_12/689053/689053656/Bc2BsK_Bs2DsPi_2017_MC.root
root://x509up_u129802@eoslhcb.cern.ch//eos/lhcb/grid/user/lhcb/user/t/tmcgrath/2022_12/689053/689053659/Bc2BsK_Bs2DsPi_2017_MC.root
root://x509up_u129802@eoslhcb.cern.ch//eos/lhcb/grid/user/lhcb/user/t/tmcgrath/2022_12/689053/689053661/Bc2BsK_Bs2DsPi_2017_MC.root
root://x509up_u129802@eoslhcb.cern.ch//eos/lhcb/grid/user/lhcb/user/t/tmcgrath/2022_12/689053/689053662/Bc2BsK_Bs2DsPi_2017_MC.root
root://x509up_u129802@eoslhcb.cern.ch//eos/lhcb/grid/user/lhcb/user/t/tmcgrath/2022_12/689053/689053663/Bc2BsK_Bs2DsPi_2017_MC.root
root://x509up_u129802@eoslhcb.cern.ch//eos/lhcb/grid/user/lhcb/user/t/tmcgrath/2022_12/689053/689053664/Bc2BsK_Bs2DsPi_2017_MC.root
root://x509up_u129802@eoslhcb.cern.ch//eos/lhcb/grid/user/lhcb/user/t/tmcgrath/2022_12/689053/689053665/Bc2BsK_Bs2DsPi_2017_MC.root
root://x509up_u129802@eoslhcb.cern.ch//eos/lhcb/grid/user/lhcb/user/t/tmcgrath/2022_12/689053/689053666/Bc2BsK_Bs2DsPi_2017_MC.root
root://x509up_u129802@eoslhcb.cern.ch//eos/lhcb/grid/user/lhcb/user/t/tmcgrath/2022_12/689053/689053670/Bc2BsK_Bs2DsPi_2017_MC.root
root://x509up_u129802@eoslhcb.cern.ch//eos/lhcb/grid/user/lhcb/user/t/tmcgrath/2022_12/689053/689053673/Bc2BsK_Bs2DsPi_2017_MC.root
root://x509up_u129802@eoslhcb.cern.ch//eos/lhcb/grid/user/lhcb/user/t/tmcgrath/2022_12/689053/689053674/Bc2BsK_Bs2DsPi_2017_MC.root
root://x509up_u129802@eoslhcb.cern.ch//eos/lhcb/grid/user/lhcb/user/t/tmcgrath/2022_12/689053/689053677/Bc2BsK_Bs2DsPi_2017_MC.root
root://x509up_u129802@eoslhcb.cern.ch//eos/lhcb/grid/user/lhcb/user/t/tmcgrath/2022_12/689053/689053679/Bc2BsK_Bs2DsPi_2017_MC.root
root://x509up_u129802@eoslhcb.cern.ch//eos/lhcb/grid/user/lhcb/user/t/tmcgrath/2022_12/689053/689053682/Bc2BsK_Bs2DsPi_2017_MC.root
root://x509up_u129802@eoslhcb.cern.ch//eos/lhcb/grid/user/lhcb/user/t/tmcgrath/2022_12/689053/689053685/Bc2BsK_Bs2DsPi_2017_MC.root
root://x509up_u129802@eoslhcb.cern.ch//eos/lhcb/grid/user/lhcb/user/t/tmcgrath/2022_12/689053/689053687/Bc2BsK_Bs2DsPi_2017_MC.root
root://x509up_u129802@eoslhcb.cern.ch//eos/lhcb/grid/user/lhcb/user/t/tmcgrath/2022_12/689053/689053688/Bc2BsK_Bs2DsPi_2017_MC.root
root://x509up_u129802@eoslhcb.cern.ch//eos/lhcb/grid/user/lhcb/user/t/tmcgrath/2022_12/689053/689053692/Bc2BsK_Bs2DsPi_2017_MC.root
root://x509up_u129802@eoslhcb.cern.ch//eos/lhcb/grid/user/lhcb/user/t/tmcgrath/2022_12/689053/689053695/Bc2BsK_Bs2DsPi_2017_MC.root
root://x509up_u129802@eoslhcb.cern.ch//eos/lhcb/grid/user/lhcb/user/t/tmcgrath/2022_12/689053/689053697/Bc2BsK_Bs2DsPi_2017_MC.root
root://x509up_u129802@eoslhcb.cern.ch//eos/lhcb/grid/user/lhcb/user/t/tmcgrath/2022_12/689053/689053703/Bc2BsK_Bs2DsPi_2017_MC.root
root://x509up_u129802@eoslhcb.cern.ch//eos/lhcb/grid/user/lhcb/user/t/tmcgrath/2022_12/689053/689053706/Bc2BsK_Bs2DsPi_2017_MC.root
root://x509up_u129802@xrootd.pic.es//pnfs/pic.es/data/lhcb/LHCb_USER/lhcb/user/t/tmcgrath/2022_12/689053/689053676/Bc2BsK_Bs2DsPi_2017_MC.root
root://x509up_u129802@xrootd.pic.es//pnfs/pic.es/data/lhcb/LHCb_USER/lhcb/user/t/tmcgrath/2022_12/689053/689053689/Bc2BsK_Bs2DsPi_2017_MC.root
root://x509up_u129802@xrootd.pic.es//pnfs/pic.es/data/lhcb/LHCb_USER/lhcb/user/t/tmcgrath/2022_12/689053/689053696/Bc2BsK_Bs2DsPi_2017_MC.root
root://xrootd.echo.stfc.ac.uk/lhcb:user/lhcb/user/t/tmcgrath/2022_12/689053/689053680/Bc2BsK_Bs2DsPi_2017_MC.root
