root://xrootd-lhcb.cr.cnaf.infn.it:1094//storage/gpfs_lhcb/lhcb/user/t/tmcgrath/2022_12/687880/687880345/Bc2BsRho_Bs2DsPi_2018_MC.root
root://x509up_u129802@eoslhcb.cern.ch//eos/lhcb/grid/user/lhcb/user/t/tmcgrath/2022_12/687880/687880347/Bc2BsRho_Bs2DsPi_2018_MC.root
root://x509up_u129802@lhcbxrootd-kit.gridka.de//pnfs/gridka.de/lhcb/LHCb_USER/lhcb/user/t/tmcgrath/2022_12/687880/687880348/Bc2BsRho_Bs2DsPi_2018_MC.root
root://x509up_u129802@ccxrootdlhcb.in2p3.fr//pnfs/in2p3.fr/data/lhcb/LHCb_USER/lhcb/user/t/tmcgrath/2022_12/687880/687880349/Bc2BsRho_Bs2DsPi_2018_MC.root
