root://x509up_u129802@eoslhcb.cern.ch//eos/lhcb/grid/user/lhcb/user/t/tmcgrath/2022_12/689053/689053914/Bc2BsstMuNu_Bs2JpsiPhi_2017_MC.root
root://x509up_u129802@eoslhcb.cern.ch//eos/lhcb/grid/user/lhcb/user/t/tmcgrath/2022_12/689053/689053920/Bc2BsstMuNu_Bs2JpsiPhi_2017_MC.root
root://x509up_u129802@ccxrootdlhcb.in2p3.fr//pnfs/in2p3.fr/data/lhcb/LHCb_USER/lhcb/user/t/tmcgrath/2022_12/689053/689053915/Bc2BsstMuNu_Bs2JpsiPhi_2017_MC.root
root://x509up_u129802@ccxrootdlhcb.in2p3.fr//pnfs/in2p3.fr/data/lhcb/LHCb_USER/lhcb/user/t/tmcgrath/2022_12/689053/689053919/Bc2BsstMuNu_Bs2JpsiPhi_2017_MC.root
root://xrootd-lhcb.cr.cnaf.infn.it:1094//storage/gpfs_lhcb/lhcb/user/t/tmcgrath/2022_12/689053/689053916/Bc2BsstMuNu_Bs2JpsiPhi_2017_MC.root
root://x509up_u129802@xrootd.pic.es//pnfs/pic.es/data/lhcb/LHCb_USER/lhcb/user/t/tmcgrath/2022_12/689053/689053917/Bc2BsstMuNu_Bs2JpsiPhi_2017_MC.root
root://x509up_u129802@lhcbxrootd-kit.gridka.de//pnfs/gridka.de/lhcb/LHCb_USER/lhcb/user/t/tmcgrath/2022_12/689053/689053918/Bc2BsstMuNu_Bs2JpsiPhi_2017_MC.root
