root://x509up_u129802@eoslhcb.cern.ch//eos/lhcb/grid/user/lhcb/user/t/tmcgrath/2023_10/806131/806131010/Bc2BsX_Bs2DsPi_2016_MC.root
root://x509up_u129802@eoslhcb.cern.ch//eos/lhcb/grid/user/lhcb/user/t/tmcgrath/2023_10/806131/806131028/Bc2BsX_Bs2DsPi_2016_MC.root
root://x509up_u129802@eoslhcb.cern.ch//eos/lhcb/grid/user/lhcb/user/t/tmcgrath/2023_10/806131/806131040/Bc2BsX_Bs2DsPi_2016_MC.root
root://x509up_u129802@ccxrootdlhcb.in2p3.fr//pnfs/in2p3.fr/data/lhcb/LHCb_USER/lhcb/user/t/tmcgrath/2023_10/806131/806131013/Bc2BsX_Bs2DsPi_2016_MC.root
root://x509up_u129802@ccxrootdlhcb.in2p3.fr//pnfs/in2p3.fr/data/lhcb/LHCb_USER/lhcb/user/t/tmcgrath/2023_10/806131/806131024/Bc2BsX_Bs2DsPi_2016_MC.root
root://x509up_u129802@ccxrootdlhcb.in2p3.fr//pnfs/in2p3.fr/data/lhcb/LHCb_USER/lhcb/user/t/tmcgrath/2023_10/806131/806131038/Bc2BsX_Bs2DsPi_2016_MC.root
root://xrootd.echo.stfc.ac.uk//lhcb:user/lhcb/user/t/tmcgrath/2023_10/806131/806131016/Bc2BsX_Bs2DsPi_2016_MC.root
root://x509up_u129802@lhcbxrootd-kit.gridka.de//pnfs/gridka.de/lhcb/LHCb_USER/lhcb/user/t/tmcgrath/2023_10/806131/806131019/Bc2BsX_Bs2DsPi_2016_MC.root
root://x509up_u129802@lhcbxrootd-kit.gridka.de//pnfs/gridka.de/lhcb/LHCb_USER/lhcb/user/t/tmcgrath/2023_10/806131/806131030/Bc2BsX_Bs2DsPi_2016_MC.root
root://xrootd-lhcb.cr.cnaf.infn.it:1094//storage/gpfs_lhcb/lhcb/user/t/tmcgrath/2023_10/806131/806131021/Bc2BsX_Bs2DsPi_2016_MC.root
root://xrootd-lhcb.cr.cnaf.infn.it:1094//storage/gpfs_lhcb/lhcb/user/t/tmcgrath/2023_10/806131/806131035/Bc2BsX_Bs2DsPi_2016_MC.root
root://x509up_u129802@xrootd.pic.es//pnfs/pic.es/data/lhcb/LHCb_USER/lhcb/user/t/tmcgrath/2023_10/806131/806131033/Bc2BsX_Bs2DsPi_2016_MC.root
