root://x509up_u129802@ccxrootdlhcb.in2p3.fr//pnfs/in2p3.fr/data/lhcb/LHCb_USER/lhcb/user/t/tmcgrath/2023_03/729014/729014308/Bc2BsRho_Bs2DsPi_2016_MC.root
root://xrootd-lhcb.cr.cnaf.infn.it:1094//storage/gpfs_lhcb/lhcb/user/t/tmcgrath/2023_03/729014/729014309/Bc2BsRho_Bs2DsPi_2016_MC.root
root://xrootd.echo.stfc.ac.uk/lhcb:user/lhcb/user/t/tmcgrath/2023_03/729014/729014310/Bc2BsRho_Bs2DsPi_2016_MC.root
root://x509up_u129802@xrootd.pic.es//pnfs/pic.es/data/lhcb/LHCb_USER/lhcb/user/t/tmcgrath/2023_03/729014/729014311/Bc2BsRho_Bs2DsPi_2016_MC.root
