root://xrootd.echo.stfc.ac.uk/lhcb:user/lhcb/user/t/tmcgrath/2023_03/729014/729014324/Bc2BsRho_Bs2JpsiPhi_2016_MC.root
root://x509up_u129802@eoslhcb.cern.ch//eos/lhcb/grid/user/lhcb/user/t/tmcgrath/2023_03/729014/729014325/Bc2BsRho_Bs2JpsiPhi_2016_MC.root
root://x509up_u129802@eoslhcb.cern.ch//eos/lhcb/grid/user/lhcb/user/t/tmcgrath/2023_03/729014/729014327/Bc2BsRho_Bs2JpsiPhi_2016_MC.root
root://xrootd-lhcb.cr.cnaf.infn.it:1094//storage/gpfs_lhcb/lhcb/user/t/tmcgrath/2023_03/729014/729014326/Bc2BsRho_Bs2JpsiPhi_2016_MC.root
root://x509up_u129802@ccxrootdlhcb.in2p3.fr//pnfs/in2p3.fr/data/lhcb/LHCb_USER/lhcb/user/t/tmcgrath/2023_03/729014/729014328/Bc2BsRho_Bs2JpsiPhi_2016_MC.root
