root://x509up_u129802@eoslhcb.cern.ch//eos/lhcb/grid/user/lhcb/user/t/tmcgrath/2022_12/689053/689053707/Bc2BsK_Bs2JpsiPhi_2017_MC.root
root://x509up_u129802@eoslhcb.cern.ch//eos/lhcb/grid/user/lhcb/user/t/tmcgrath/2022_12/689053/689053712/Bc2BsK_Bs2JpsiPhi_2017_MC.root
root://x509up_u129802@eoslhcb.cern.ch//eos/lhcb/grid/user/lhcb/user/t/tmcgrath/2022_12/689053/689053713/Bc2BsK_Bs2JpsiPhi_2017_MC.root
root://x509up_u129802@eoslhcb.cern.ch//eos/lhcb/grid/user/lhcb/user/t/tmcgrath/2022_12/689053/689053714/Bc2BsK_Bs2JpsiPhi_2017_MC.root
root://x509up_u129802@lhcbxrootd-kit.gridka.de//pnfs/gridka.de/lhcb/LHCb_USER/lhcb/user/t/tmcgrath/2022_12/689053/689053708/Bc2BsK_Bs2JpsiPhi_2017_MC.root
root://x509up_u129802@xrootd.pic.es//pnfs/pic.es/data/lhcb/LHCb_USER/lhcb/user/t/tmcgrath/2022_12/689053/689053709/Bc2BsK_Bs2JpsiPhi_2017_MC.root
root://xrootd-lhcb.cr.cnaf.infn.it:1094//storage/gpfs_lhcb/lhcb/user/t/tmcgrath/2022_12/689053/689053710/Bc2BsK_Bs2JpsiPhi_2017_MC.root
root://x509up_u129802@xrootd.grid.surfsara.nl//pnfs/grid.sara.nl/data/lhcb/LHCb_USER/lhcb/user/t/tmcgrath/2022_12/689053/689053711/Bc2BsK_Bs2JpsiPhi_2017_MC.root
