root://x509up_u129802@eoslhcb.cern.ch//eos/lhcb/grid/user/lhcb/user/t/tmcgrath/2023_10/805629/805629419/Prompt_Bs2DsPi_2017_MC_loose_cuts.root
root://x509up_u129802@eoslhcb.cern.ch//eos/lhcb/grid/user/lhcb/user/t/tmcgrath/2023_10/805629/805629422/Prompt_Bs2DsPi_2017_MC_loose_cuts.root
root://x509up_u129802@eoslhcb.cern.ch//eos/lhcb/grid/user/lhcb/user/t/tmcgrath/2023_10/805629/805629426/Prompt_Bs2DsPi_2017_MC_loose_cuts.root
root://x509up_u129802@eoslhcb.cern.ch//eos/lhcb/grid/user/lhcb/user/t/tmcgrath/2023_10/805629/805629427/Prompt_Bs2DsPi_2017_MC_loose_cuts.root
root://x509up_u129802@eoslhcb.cern.ch//eos/lhcb/grid/user/lhcb/user/t/tmcgrath/2023_10/805629/805629431/Prompt_Bs2DsPi_2017_MC_loose_cuts.root
root://x509up_u129802@eoslhcb.cern.ch//eos/lhcb/grid/user/lhcb/user/t/tmcgrath/2023_10/805629/805629432/Prompt_Bs2DsPi_2017_MC_loose_cuts.root
root://x509up_u129802@eoslhcb.cern.ch//eos/lhcb/grid/user/lhcb/user/t/tmcgrath/2023_10/805629/805629434/Prompt_Bs2DsPi_2017_MC_loose_cuts.root
root://x509up_u129802@eoslhcb.cern.ch//eos/lhcb/grid/user/lhcb/user/t/tmcgrath/2023_10/805629/805629435/Prompt_Bs2DsPi_2017_MC_loose_cuts.root
root://x509up_u129802@eoslhcb.cern.ch//eos/lhcb/grid/user/lhcb/user/t/tmcgrath/2023_10/805629/805629437/Prompt_Bs2DsPi_2017_MC_loose_cuts.root
root://x509up_u129802@eoslhcb.cern.ch//eos/lhcb/grid/user/lhcb/user/t/tmcgrath/2023_10/805629/805629438/Prompt_Bs2DsPi_2017_MC_loose_cuts.root
root://x509up_u129802@eoslhcb.cern.ch//eos/lhcb/grid/user/lhcb/user/t/tmcgrath/2023_10/805629/805629441/Prompt_Bs2DsPi_2017_MC_loose_cuts.root
root://x509up_u129802@eoslhcb.cern.ch//eos/lhcb/grid/user/lhcb/user/t/tmcgrath/2023_10/805629/805629442/Prompt_Bs2DsPi_2017_MC_loose_cuts.root
root://x509up_u129802@eoslhcb.cern.ch//eos/lhcb/grid/user/lhcb/user/t/tmcgrath/2023_10/805629/805629443/Prompt_Bs2DsPi_2017_MC_loose_cuts.root
root://x509up_u129802@eoslhcb.cern.ch//eos/lhcb/grid/user/lhcb/user/t/tmcgrath/2023_10/805629/805629444/Prompt_Bs2DsPi_2017_MC_loose_cuts.root
root://x509up_u129802@eoslhcb.cern.ch//eos/lhcb/grid/user/lhcb/user/t/tmcgrath/2023_10/805629/805629445/Prompt_Bs2DsPi_2017_MC_loose_cuts.root
root://x509up_u129802@eoslhcb.cern.ch//eos/lhcb/grid/user/lhcb/user/t/tmcgrath/2023_10/805629/805629446/Prompt_Bs2DsPi_2017_MC_loose_cuts.root
root://x509up_u129802@eoslhcb.cern.ch//eos/lhcb/grid/user/lhcb/user/t/tmcgrath/2023_10/805629/805629447/Prompt_Bs2DsPi_2017_MC_loose_cuts.root
root://x509up_u129802@eoslhcb.cern.ch//eos/lhcb/grid/user/lhcb/user/t/tmcgrath/2023_10/805629/805629448/Prompt_Bs2DsPi_2017_MC_loose_cuts.root
root://x509up_u129802@eoslhcb.cern.ch//eos/lhcb/grid/user/lhcb/user/t/tmcgrath/2023_10/805629/805629450/Prompt_Bs2DsPi_2017_MC_loose_cuts.root
root://x509up_u129802@eoslhcb.cern.ch//eos/lhcb/grid/user/lhcb/user/t/tmcgrath/2023_10/805629/805629451/Prompt_Bs2DsPi_2017_MC_loose_cuts.root
root://x509up_u129802@eoslhcb.cern.ch//eos/lhcb/grid/user/lhcb/user/t/tmcgrath/2023_10/805629/805629452/Prompt_Bs2DsPi_2017_MC_loose_cuts.root
root://x509up_u129802@eoslhcb.cern.ch//eos/lhcb/grid/user/lhcb/user/t/tmcgrath/2023_10/805629/805629454/Prompt_Bs2DsPi_2017_MC_loose_cuts.root
root://x509up_u129802@eoslhcb.cern.ch//eos/lhcb/grid/user/lhcb/user/t/tmcgrath/2023_10/805629/805629455/Prompt_Bs2DsPi_2017_MC_loose_cuts.root
root://x509up_u129802@eoslhcb.cern.ch//eos/lhcb/grid/user/lhcb/user/t/tmcgrath/2023_10/805629/805629456/Prompt_Bs2DsPi_2017_MC_loose_cuts.root
root://x509up_u129802@eoslhcb.cern.ch//eos/lhcb/grid/user/lhcb/user/t/tmcgrath/2023_10/805629/805629457/Prompt_Bs2DsPi_2017_MC_loose_cuts.root
root://x509up_u129802@eoslhcb.cern.ch//eos/lhcb/grid/user/lhcb/user/t/tmcgrath/2023_10/805629/805629460/Prompt_Bs2DsPi_2017_MC_loose_cuts.root
root://x509up_u129802@eoslhcb.cern.ch//eos/lhcb/grid/user/lhcb/user/t/tmcgrath/2023_10/805629/805629461/Prompt_Bs2DsPi_2017_MC_loose_cuts.root
root://x509up_u129802@eoslhcb.cern.ch//eos/lhcb/grid/user/lhcb/user/t/tmcgrath/2023_10/805629/805629465/Prompt_Bs2DsPi_2017_MC_loose_cuts.root
root://x509up_u129802@eoslhcb.cern.ch//eos/lhcb/grid/user/lhcb/user/t/tmcgrath/2023_10/805629/805629467/Prompt_Bs2DsPi_2017_MC_loose_cuts.root
root://x509up_u129802@eoslhcb.cern.ch//eos/lhcb/grid/user/lhcb/user/t/tmcgrath/2023_10/805629/805629468/Prompt_Bs2DsPi_2017_MC_loose_cuts.root
root://x509up_u129802@eoslhcb.cern.ch//eos/lhcb/grid/user/lhcb/user/t/tmcgrath/2023_10/805629/805629469/Prompt_Bs2DsPi_2017_MC_loose_cuts.root
root://x509up_u129802@eoslhcb.cern.ch//eos/lhcb/grid/user/lhcb/user/t/tmcgrath/2023_10/805629/805629472/Prompt_Bs2DsPi_2017_MC_loose_cuts.root
root://x509up_u129802@eoslhcb.cern.ch//eos/lhcb/grid/user/lhcb/user/t/tmcgrath/2023_10/805629/805629473/Prompt_Bs2DsPi_2017_MC_loose_cuts.root
root://x509up_u129802@eoslhcb.cern.ch//eos/lhcb/grid/user/lhcb/user/t/tmcgrath/2023_10/805629/805629474/Prompt_Bs2DsPi_2017_MC_loose_cuts.root
root://x509up_u129802@eoslhcb.cern.ch//eos/lhcb/grid/user/lhcb/user/t/tmcgrath/2023_10/805629/805629475/Prompt_Bs2DsPi_2017_MC_loose_cuts.root
root://x509up_u129802@eoslhcb.cern.ch//eos/lhcb/grid/user/lhcb/user/t/tmcgrath/2023_10/805629/805629476/Prompt_Bs2DsPi_2017_MC_loose_cuts.root
root://x509up_u129802@eoslhcb.cern.ch//eos/lhcb/grid/user/lhcb/user/t/tmcgrath/2023_10/805629/805629477/Prompt_Bs2DsPi_2017_MC_loose_cuts.root
root://x509up_u129802@eoslhcb.cern.ch//eos/lhcb/grid/user/lhcb/user/t/tmcgrath/2023_10/805629/805629478/Prompt_Bs2DsPi_2017_MC_loose_cuts.root
root://x509up_u129802@eoslhcb.cern.ch//eos/lhcb/grid/user/lhcb/user/t/tmcgrath/2023_10/805629/805629479/Prompt_Bs2DsPi_2017_MC_loose_cuts.root
root://x509up_u129802@eoslhcb.cern.ch//eos/lhcb/grid/user/lhcb/user/t/tmcgrath/2023_10/805629/805629480/Prompt_Bs2DsPi_2017_MC_loose_cuts.root
root://x509up_u129802@eoslhcb.cern.ch//eos/lhcb/grid/user/lhcb/user/t/tmcgrath/2023_10/805629/805629481/Prompt_Bs2DsPi_2017_MC_loose_cuts.root
root://x509up_u129802@eoslhcb.cern.ch//eos/lhcb/grid/user/lhcb/user/t/tmcgrath/2023_10/805629/805629484/Prompt_Bs2DsPi_2017_MC_loose_cuts.root
root://x509up_u129802@eoslhcb.cern.ch//eos/lhcb/grid/user/lhcb/user/t/tmcgrath/2023_10/805629/805629485/Prompt_Bs2DsPi_2017_MC_loose_cuts.root
root://x509up_u129802@eoslhcb.cern.ch//eos/lhcb/grid/user/lhcb/user/t/tmcgrath/2023_10/805629/805629487/Prompt_Bs2DsPi_2017_MC_loose_cuts.root
root://x509up_u129802@eoslhcb.cern.ch//eos/lhcb/grid/user/lhcb/user/t/tmcgrath/2023_10/805629/805629488/Prompt_Bs2DsPi_2017_MC_loose_cuts.root
root://x509up_u129802@eoslhcb.cern.ch//eos/lhcb/grid/user/lhcb/user/t/tmcgrath/2023_10/805629/805629491/Prompt_Bs2DsPi_2017_MC_loose_cuts.root
root://x509up_u129802@eoslhcb.cern.ch//eos/lhcb/grid/user/lhcb/user/t/tmcgrath/2023_10/805629/805629492/Prompt_Bs2DsPi_2017_MC_loose_cuts.root
root://x509up_u129802@eoslhcb.cern.ch//eos/lhcb/grid/user/lhcb/user/t/tmcgrath/2023_10/805629/805629493/Prompt_Bs2DsPi_2017_MC_loose_cuts.root
root://x509up_u129802@eoslhcb.cern.ch//eos/lhcb/grid/user/lhcb/user/t/tmcgrath/2023_10/805629/805629494/Prompt_Bs2DsPi_2017_MC_loose_cuts.root
root://x509up_u129802@eoslhcb.cern.ch//eos/lhcb/grid/user/lhcb/user/t/tmcgrath/2023_10/805629/805629495/Prompt_Bs2DsPi_2017_MC_loose_cuts.root
root://x509up_u129802@eoslhcb.cern.ch//eos/lhcb/grid/user/lhcb/user/t/tmcgrath/2023_10/805629/805629496/Prompt_Bs2DsPi_2017_MC_loose_cuts.root
root://x509up_u129802@eoslhcb.cern.ch//eos/lhcb/grid/user/lhcb/user/t/tmcgrath/2023_10/805629/805629497/Prompt_Bs2DsPi_2017_MC_loose_cuts.root
root://x509up_u129802@eoslhcb.cern.ch//eos/lhcb/grid/user/lhcb/user/t/tmcgrath/2023_10/805629/805629498/Prompt_Bs2DsPi_2017_MC_loose_cuts.root
root://x509up_u129802@eoslhcb.cern.ch//eos/lhcb/grid/user/lhcb/user/t/tmcgrath/2023_10/805629/805629502/Prompt_Bs2DsPi_2017_MC_loose_cuts.root
root://x509up_u129802@eoslhcb.cern.ch//eos/lhcb/grid/user/lhcb/user/t/tmcgrath/2023_10/805629/805629504/Prompt_Bs2DsPi_2017_MC_loose_cuts.root
root://x509up_u129802@eoslhcb.cern.ch//eos/lhcb/grid/user/lhcb/user/t/tmcgrath/2023_10/805629/805629505/Prompt_Bs2DsPi_2017_MC_loose_cuts.root
root://x509up_u129802@eoslhcb.cern.ch//eos/lhcb/grid/user/lhcb/user/t/tmcgrath/2023_10/805629/805629506/Prompt_Bs2DsPi_2017_MC_loose_cuts.root
root://x509up_u129802@eoslhcb.cern.ch//eos/lhcb/grid/user/lhcb/user/t/tmcgrath/2023_10/805629/805629507/Prompt_Bs2DsPi_2017_MC_loose_cuts.root
root://x509up_u129802@eoslhcb.cern.ch//eos/lhcb/grid/user/lhcb/user/t/tmcgrath/2023_10/805629/805629509/Prompt_Bs2DsPi_2017_MC_loose_cuts.root
root://x509up_u129802@eoslhcb.cern.ch//eos/lhcb/grid/user/lhcb/user/t/tmcgrath/2023_10/805629/805629510/Prompt_Bs2DsPi_2017_MC_loose_cuts.root
root://x509up_u129802@eoslhcb.cern.ch//eos/lhcb/grid/user/lhcb/user/t/tmcgrath/2023_10/805629/805629511/Prompt_Bs2DsPi_2017_MC_loose_cuts.root
root://x509up_u129802@eoslhcb.cern.ch//eos/lhcb/grid/user/lhcb/user/t/tmcgrath/2023_10/805629/805629513/Prompt_Bs2DsPi_2017_MC_loose_cuts.root
root://x509up_u129802@eoslhcb.cern.ch//eos/lhcb/grid/user/lhcb/user/t/tmcgrath/2023_10/805629/805629514/Prompt_Bs2DsPi_2017_MC_loose_cuts.root
root://x509up_u129802@eoslhcb.cern.ch//eos/lhcb/grid/user/lhcb/user/t/tmcgrath/2023_10/805629/805629516/Prompt_Bs2DsPi_2017_MC_loose_cuts.root
root://x509up_u129802@eoslhcb.cern.ch//eos/lhcb/grid/user/lhcb/user/t/tmcgrath/2023_10/805629/805629517/Prompt_Bs2DsPi_2017_MC_loose_cuts.root
root://x509up_u129802@eoslhcb.cern.ch//eos/lhcb/grid/user/lhcb/user/t/tmcgrath/2023_10/805629/805629518/Prompt_Bs2DsPi_2017_MC_loose_cuts.root
root://x509up_u129802@eoslhcb.cern.ch//eos/lhcb/grid/user/lhcb/user/t/tmcgrath/2023_10/805629/805629523/Prompt_Bs2DsPi_2017_MC_loose_cuts.root
root://x509up_u129802@eoslhcb.cern.ch//eos/lhcb/grid/user/lhcb/user/t/tmcgrath/2023_10/805629/805629525/Prompt_Bs2DsPi_2017_MC_loose_cuts.root
root://x509up_u129802@eoslhcb.cern.ch//eos/lhcb/grid/user/lhcb/user/t/tmcgrath/2023_10/805629/805629526/Prompt_Bs2DsPi_2017_MC_loose_cuts.root
root://x509up_u129802@eoslhcb.cern.ch//eos/lhcb/grid/user/lhcb/user/t/tmcgrath/2023_10/805629/805629527/Prompt_Bs2DsPi_2017_MC_loose_cuts.root
root://x509up_u129802@eoslhcb.cern.ch//eos/lhcb/grid/user/lhcb/user/t/tmcgrath/2023_10/805629/805629530/Prompt_Bs2DsPi_2017_MC_loose_cuts.root
root://x509up_u129802@eoslhcb.cern.ch//eos/lhcb/grid/user/lhcb/user/t/tmcgrath/2023_10/805629/805629531/Prompt_Bs2DsPi_2017_MC_loose_cuts.root
root://x509up_u129802@eoslhcb.cern.ch//eos/lhcb/grid/user/lhcb/user/t/tmcgrath/2023_10/805629/805629532/Prompt_Bs2DsPi_2017_MC_loose_cuts.root
root://x509up_u129802@eoslhcb.cern.ch//eos/lhcb/grid/user/lhcb/user/t/tmcgrath/2023_10/805629/805629533/Prompt_Bs2DsPi_2017_MC_loose_cuts.root
root://x509up_u129802@eoslhcb.cern.ch//eos/lhcb/grid/user/lhcb/user/t/tmcgrath/2023_10/805629/805629535/Prompt_Bs2DsPi_2017_MC_loose_cuts.root
root://x509up_u129802@eoslhcb.cern.ch//eos/lhcb/grid/user/lhcb/user/t/tmcgrath/2023_10/805629/805629536/Prompt_Bs2DsPi_2017_MC_loose_cuts.root
root://x509up_u129802@eoslhcb.cern.ch//eos/lhcb/grid/user/lhcb/user/t/tmcgrath/2023_10/805629/805629537/Prompt_Bs2DsPi_2017_MC_loose_cuts.root
root://x509up_u129802@eoslhcb.cern.ch//eos/lhcb/grid/user/lhcb/user/t/tmcgrath/2023_10/805629/805629538/Prompt_Bs2DsPi_2017_MC_loose_cuts.root
root://x509up_u129802@eoslhcb.cern.ch//eos/lhcb/grid/user/lhcb/user/t/tmcgrath/2023_10/805629/805629539/Prompt_Bs2DsPi_2017_MC_loose_cuts.root
root://x509up_u129802@eoslhcb.cern.ch//eos/lhcb/grid/user/lhcb/user/t/tmcgrath/2023_10/805629/805629540/Prompt_Bs2DsPi_2017_MC_loose_cuts.root
root://x509up_u129802@eoslhcb.cern.ch//eos/lhcb/grid/user/lhcb/user/t/tmcgrath/2023_10/805629/805629541/Prompt_Bs2DsPi_2017_MC_loose_cuts.root
root://x509up_u129802@eoslhcb.cern.ch//eos/lhcb/grid/user/lhcb/user/t/tmcgrath/2023_10/805629/805629544/Prompt_Bs2DsPi_2017_MC_loose_cuts.root
root://x509up_u129802@eoslhcb.cern.ch//eos/lhcb/grid/user/lhcb/user/t/tmcgrath/2023_10/805629/805629545/Prompt_Bs2DsPi_2017_MC_loose_cuts.root
root://x509up_u129802@eoslhcb.cern.ch//eos/lhcb/grid/user/lhcb/user/t/tmcgrath/2023_10/805629/805629548/Prompt_Bs2DsPi_2017_MC_loose_cuts.root
root://x509up_u129802@eoslhcb.cern.ch//eos/lhcb/grid/user/lhcb/user/t/tmcgrath/2023_10/805629/805629549/Prompt_Bs2DsPi_2017_MC_loose_cuts.root
root://x509up_u129802@eoslhcb.cern.ch//eos/lhcb/grid/user/lhcb/user/t/tmcgrath/2023_10/805629/805629550/Prompt_Bs2DsPi_2017_MC_loose_cuts.root
root://x509up_u129802@eoslhcb.cern.ch//eos/lhcb/grid/user/lhcb/user/t/tmcgrath/2023_10/805629/805629552/Prompt_Bs2DsPi_2017_MC_loose_cuts.root
root://x509up_u129802@eoslhcb.cern.ch//eos/lhcb/grid/user/lhcb/user/t/tmcgrath/2023_10/805629/805629553/Prompt_Bs2DsPi_2017_MC_loose_cuts.root
root://x509up_u129802@eoslhcb.cern.ch//eos/lhcb/grid/user/lhcb/user/t/tmcgrath/2023_10/805629/805629556/Prompt_Bs2DsPi_2017_MC_loose_cuts.root
root://x509up_u129802@eoslhcb.cern.ch//eos/lhcb/grid/user/lhcb/user/t/tmcgrath/2023_10/805629/805629557/Prompt_Bs2DsPi_2017_MC_loose_cuts.root
root://x509up_u129802@eoslhcb.cern.ch//eos/lhcb/grid/user/lhcb/user/t/tmcgrath/2023_10/805629/805629558/Prompt_Bs2DsPi_2017_MC_loose_cuts.root
root://x509up_u129802@eoslhcb.cern.ch//eos/lhcb/grid/user/lhcb/user/t/tmcgrath/2023_10/805629/805629559/Prompt_Bs2DsPi_2017_MC_loose_cuts.root
root://x509up_u129802@eoslhcb.cern.ch//eos/lhcb/grid/user/lhcb/user/t/tmcgrath/2023_10/805629/805629560/Prompt_Bs2DsPi_2017_MC_loose_cuts.root
root://x509up_u129802@eoslhcb.cern.ch//eos/lhcb/grid/user/lhcb/user/t/tmcgrath/2023_10/805629/805629561/Prompt_Bs2DsPi_2017_MC_loose_cuts.root
root://x509up_u129802@eoslhcb.cern.ch//eos/lhcb/grid/user/lhcb/user/t/tmcgrath/2023_10/805629/805629562/Prompt_Bs2DsPi_2017_MC_loose_cuts.root
root://x509up_u129802@eoslhcb.cern.ch//eos/lhcb/grid/user/lhcb/user/t/tmcgrath/2023_10/805629/805629563/Prompt_Bs2DsPi_2017_MC_loose_cuts.root
root://x509up_u129802@eoslhcb.cern.ch//eos/lhcb/grid/user/lhcb/user/t/tmcgrath/2023_10/805629/805629564/Prompt_Bs2DsPi_2017_MC_loose_cuts.root
root://x509up_u129802@eoslhcb.cern.ch//eos/lhcb/grid/user/lhcb/user/t/tmcgrath/2023_10/805629/805629567/Prompt_Bs2DsPi_2017_MC_loose_cuts.root
root://x509up_u129802@eoslhcb.cern.ch//eos/lhcb/grid/user/lhcb/user/t/tmcgrath/2023_10/805629/805629568/Prompt_Bs2DsPi_2017_MC_loose_cuts.root
root://x509up_u129802@eoslhcb.cern.ch//eos/lhcb/grid/user/lhcb/user/t/tmcgrath/2023_10/805629/805629569/Prompt_Bs2DsPi_2017_MC_loose_cuts.root
root://x509up_u129802@eoslhcb.cern.ch//eos/lhcb/grid/user/lhcb/user/t/tmcgrath/2023_10/805629/805629570/Prompt_Bs2DsPi_2017_MC_loose_cuts.root
root://x509up_u129802@eoslhcb.cern.ch//eos/lhcb/grid/user/lhcb/user/t/tmcgrath/2023_10/805629/805629571/Prompt_Bs2DsPi_2017_MC_loose_cuts.root
root://x509up_u129802@eoslhcb.cern.ch//eos/lhcb/grid/user/lhcb/user/t/tmcgrath/2023_10/805629/805629572/Prompt_Bs2DsPi_2017_MC_loose_cuts.root
root://x509up_u129802@eoslhcb.cern.ch//eos/lhcb/grid/user/lhcb/user/t/tmcgrath/2023_10/805629/805629573/Prompt_Bs2DsPi_2017_MC_loose_cuts.root
root://x509up_u129802@eoslhcb.cern.ch//eos/lhcb/grid/user/lhcb/user/t/tmcgrath/2023_10/805629/805629574/Prompt_Bs2DsPi_2017_MC_loose_cuts.root
root://x509up_u129802@eoslhcb.cern.ch//eos/lhcb/grid/user/lhcb/user/t/tmcgrath/2023_10/805629/805629576/Prompt_Bs2DsPi_2017_MC_loose_cuts.root
root://x509up_u129802@eoslhcb.cern.ch//eos/lhcb/grid/user/lhcb/user/t/tmcgrath/2023_10/805629/805629578/Prompt_Bs2DsPi_2017_MC_loose_cuts.root
root://x509up_u129802@eoslhcb.cern.ch//eos/lhcb/grid/user/lhcb/user/t/tmcgrath/2023_10/805629/805629579/Prompt_Bs2DsPi_2017_MC_loose_cuts.root
root://x509up_u129802@eoslhcb.cern.ch//eos/lhcb/grid/user/lhcb/user/t/tmcgrath/2023_10/805629/805629581/Prompt_Bs2DsPi_2017_MC_loose_cuts.root
root://x509up_u129802@eoslhcb.cern.ch//eos/lhcb/grid/user/lhcb/user/t/tmcgrath/2023_10/805629/805629582/Prompt_Bs2DsPi_2017_MC_loose_cuts.root
root://x509up_u129802@eoslhcb.cern.ch//eos/lhcb/grid/user/lhcb/user/t/tmcgrath/2023_10/805629/805629583/Prompt_Bs2DsPi_2017_MC_loose_cuts.root
root://x509up_u129802@eoslhcb.cern.ch//eos/lhcb/grid/user/lhcb/user/t/tmcgrath/2023_10/805629/805629584/Prompt_Bs2DsPi_2017_MC_loose_cuts.root
root://x509up_u129802@eoslhcb.cern.ch//eos/lhcb/grid/user/lhcb/user/t/tmcgrath/2023_10/805629/805629585/Prompt_Bs2DsPi_2017_MC_loose_cuts.root
root://x509up_u129802@eoslhcb.cern.ch//eos/lhcb/grid/user/lhcb/user/t/tmcgrath/2023_10/805629/805629586/Prompt_Bs2DsPi_2017_MC_loose_cuts.root
root://x509up_u129802@eoslhcb.cern.ch//eos/lhcb/grid/user/lhcb/user/t/tmcgrath/2023_10/805629/805629587/Prompt_Bs2DsPi_2017_MC_loose_cuts.root
root://x509up_u129802@eoslhcb.cern.ch//eos/lhcb/grid/user/lhcb/user/t/tmcgrath/2023_10/805629/805629588/Prompt_Bs2DsPi_2017_MC_loose_cuts.root
root://x509up_u129802@eoslhcb.cern.ch//eos/lhcb/grid/user/lhcb/user/t/tmcgrath/2023_10/805629/805629589/Prompt_Bs2DsPi_2017_MC_loose_cuts.root
root://x509up_u129802@eoslhcb.cern.ch//eos/lhcb/grid/user/lhcb/user/t/tmcgrath/2023_10/805629/805629590/Prompt_Bs2DsPi_2017_MC_loose_cuts.root
root://x509up_u129802@eoslhcb.cern.ch//eos/lhcb/grid/user/lhcb/user/t/tmcgrath/2023_10/805629/805629594/Prompt_Bs2DsPi_2017_MC_loose_cuts.root
root://x509up_u129802@eoslhcb.cern.ch//eos/lhcb/grid/user/lhcb/user/t/tmcgrath/2023_10/805629/805629599/Prompt_Bs2DsPi_2017_MC_loose_cuts.root
root://x509up_u129802@eoslhcb.cern.ch//eos/lhcb/grid/user/lhcb/user/t/tmcgrath/2023_10/805629/805629602/Prompt_Bs2DsPi_2017_MC_loose_cuts.root
root://x509up_u129802@eoslhcb.cern.ch//eos/lhcb/grid/user/lhcb/user/t/tmcgrath/2023_10/805629/805629608/Prompt_Bs2DsPi_2017_MC_loose_cuts.root
root://x509up_u129802@eoslhcb.cern.ch//eos/lhcb/grid/user/lhcb/user/t/tmcgrath/2023_10/805629/805629615/Prompt_Bs2DsPi_2017_MC_loose_cuts.root
root://x509up_u129802@eoslhcb.cern.ch//eos/lhcb/grid/user/lhcb/user/t/tmcgrath/2023_10/805629/805629745/Prompt_Bs2DsPi_2017_MC_loose_cuts.root
root://x509up_u129802@eoslhcb.cern.ch//eos/lhcb/grid/user/lhcb/user/t/tmcgrath/2023_10/805629/805629749/Prompt_Bs2DsPi_2017_MC_loose_cuts.root
root://x509up_u129802@lhcbxrootd-kit.gridka.de//pnfs/gridka.de/lhcb/LHCb_USER/lhcb/user/t/tmcgrath/2023_10/805629/805629420/Prompt_Bs2DsPi_2017_MC_loose_cuts.root
root://x509up_u129802@lhcbxrootd-kit.gridka.de//pnfs/gridka.de/lhcb/LHCb_USER/lhcb/user/t/tmcgrath/2023_10/805629/805629423/Prompt_Bs2DsPi_2017_MC_loose_cuts.root
root://x509up_u129802@lhcbxrootd-kit.gridka.de//pnfs/gridka.de/lhcb/LHCb_USER/lhcb/user/t/tmcgrath/2023_10/805629/805629439/Prompt_Bs2DsPi_2017_MC_loose_cuts.root
root://x509up_u129802@lhcbxrootd-kit.gridka.de//pnfs/gridka.de/lhcb/LHCb_USER/lhcb/user/t/tmcgrath/2023_10/805629/805629459/Prompt_Bs2DsPi_2017_MC_loose_cuts.root
root://x509up_u129802@lhcbxrootd-kit.gridka.de//pnfs/gridka.de/lhcb/LHCb_USER/lhcb/user/t/tmcgrath/2023_10/805629/805629489/Prompt_Bs2DsPi_2017_MC_loose_cuts.root
root://x509up_u129802@lhcbxrootd-kit.gridka.de//pnfs/gridka.de/lhcb/LHCb_USER/lhcb/user/t/tmcgrath/2023_10/805629/805629499/Prompt_Bs2DsPi_2017_MC_loose_cuts.root
root://x509up_u129802@lhcbxrootd-kit.gridka.de//pnfs/gridka.de/lhcb/LHCb_USER/lhcb/user/t/tmcgrath/2023_10/805629/805629520/Prompt_Bs2DsPi_2017_MC_loose_cuts.root
root://x509up_u129802@lhcbxrootd-kit.gridka.de//pnfs/gridka.de/lhcb/LHCb_USER/lhcb/user/t/tmcgrath/2023_10/805629/805629546/Prompt_Bs2DsPi_2017_MC_loose_cuts.root
root://x509up_u129802@lhcbxrootd-kit.gridka.de//pnfs/gridka.de/lhcb/LHCb_USER/lhcb/user/t/tmcgrath/2023_10/805629/805629565/Prompt_Bs2DsPi_2017_MC_loose_cuts.root
root://x509up_u129802@lhcbxrootd-kit.gridka.de//pnfs/gridka.de/lhcb/LHCb_USER/lhcb/user/t/tmcgrath/2023_10/805629/805629592/Prompt_Bs2DsPi_2017_MC_loose_cuts.root
root://x509up_u129802@lhcbxrootd-kit.gridka.de//pnfs/gridka.de/lhcb/LHCb_USER/lhcb/user/t/tmcgrath/2023_10/805629/805629598/Prompt_Bs2DsPi_2017_MC_loose_cuts.root
root://x509up_u129802@lhcbxrootd-kit.gridka.de//pnfs/gridka.de/lhcb/LHCb_USER/lhcb/user/t/tmcgrath/2023_10/805629/805629600/Prompt_Bs2DsPi_2017_MC_loose_cuts.root
root://x509up_u129802@lhcbxrootd-kit.gridka.de//pnfs/gridka.de/lhcb/LHCb_USER/lhcb/user/t/tmcgrath/2023_10/805629/805629609/Prompt_Bs2DsPi_2017_MC_loose_cuts.root
root://x509up_u129802@lhcbxrootd-kit.gridka.de//pnfs/gridka.de/lhcb/LHCb_USER/lhcb/user/t/tmcgrath/2023_10/805629/805629627/Prompt_Bs2DsPi_2017_MC_loose_cuts.root
root://xrootd-lhcb.cr.cnaf.infn.it:1094//storage/gpfs_lhcb/lhcb/user/t/tmcgrath/2023_10/805629/805629421/Prompt_Bs2DsPi_2017_MC_loose_cuts.root
root://xrootd-lhcb.cr.cnaf.infn.it:1094//storage/gpfs_lhcb/lhcb/user/t/tmcgrath/2023_10/805629/805629424/Prompt_Bs2DsPi_2017_MC_loose_cuts.root
root://xrootd-lhcb.cr.cnaf.infn.it:1094//storage/gpfs_lhcb/lhcb/user/t/tmcgrath/2023_10/805629/805629428/Prompt_Bs2DsPi_2017_MC_loose_cuts.root
root://xrootd-lhcb.cr.cnaf.infn.it:1094//storage/gpfs_lhcb/lhcb/user/t/tmcgrath/2023_10/805629/805629429/Prompt_Bs2DsPi_2017_MC_loose_cuts.root
root://xrootd-lhcb.cr.cnaf.infn.it:1094//storage/gpfs_lhcb/lhcb/user/t/tmcgrath/2023_10/805629/805629436/Prompt_Bs2DsPi_2017_MC_loose_cuts.root
root://xrootd-lhcb.cr.cnaf.infn.it:1094//storage/gpfs_lhcb/lhcb/user/t/tmcgrath/2023_10/805629/805629449/Prompt_Bs2DsPi_2017_MC_loose_cuts.root
root://xrootd-lhcb.cr.cnaf.infn.it:1094//storage/gpfs_lhcb/lhcb/user/t/tmcgrath/2023_10/805629/805629453/Prompt_Bs2DsPi_2017_MC_loose_cuts.root
root://xrootd-lhcb.cr.cnaf.infn.it:1094//storage/gpfs_lhcb/lhcb/user/t/tmcgrath/2023_10/805629/805629458/Prompt_Bs2DsPi_2017_MC_loose_cuts.root
root://xrootd-lhcb.cr.cnaf.infn.it:1094//storage/gpfs_lhcb/lhcb/user/t/tmcgrath/2023_10/805629/805629462/Prompt_Bs2DsPi_2017_MC_loose_cuts.root
root://xrootd-lhcb.cr.cnaf.infn.it:1094//storage/gpfs_lhcb/lhcb/user/t/tmcgrath/2023_10/805629/805629463/Prompt_Bs2DsPi_2017_MC_loose_cuts.root
root://xrootd-lhcb.cr.cnaf.infn.it:1094//storage/gpfs_lhcb/lhcb/user/t/tmcgrath/2023_10/805629/805629464/Prompt_Bs2DsPi_2017_MC_loose_cuts.root
root://xrootd-lhcb.cr.cnaf.infn.it:1094//storage/gpfs_lhcb/lhcb/user/t/tmcgrath/2023_10/805629/805629470/Prompt_Bs2DsPi_2017_MC_loose_cuts.root
root://xrootd-lhcb.cr.cnaf.infn.it:1094//storage/gpfs_lhcb/lhcb/user/t/tmcgrath/2023_10/805629/805629482/Prompt_Bs2DsPi_2017_MC_loose_cuts.root
root://xrootd-lhcb.cr.cnaf.infn.it:1094//storage/gpfs_lhcb/lhcb/user/t/tmcgrath/2023_10/805629/805629490/Prompt_Bs2DsPi_2017_MC_loose_cuts.root
root://xrootd-lhcb.cr.cnaf.infn.it:1094//storage/gpfs_lhcb/lhcb/user/t/tmcgrath/2023_10/805629/805629500/Prompt_Bs2DsPi_2017_MC_loose_cuts.root
root://xrootd-lhcb.cr.cnaf.infn.it:1094//storage/gpfs_lhcb/lhcb/user/t/tmcgrath/2023_10/805629/805629501/Prompt_Bs2DsPi_2017_MC_loose_cuts.root
root://xrootd-lhcb.cr.cnaf.infn.it:1094//storage/gpfs_lhcb/lhcb/user/t/tmcgrath/2023_10/805629/805629503/Prompt_Bs2DsPi_2017_MC_loose_cuts.root
root://xrootd-lhcb.cr.cnaf.infn.it:1094//storage/gpfs_lhcb/lhcb/user/t/tmcgrath/2023_10/805629/805629508/Prompt_Bs2DsPi_2017_MC_loose_cuts.root
root://xrootd-lhcb.cr.cnaf.infn.it:1094//storage/gpfs_lhcb/lhcb/user/t/tmcgrath/2023_10/805629/805629512/Prompt_Bs2DsPi_2017_MC_loose_cuts.root
root://xrootd-lhcb.cr.cnaf.infn.it:1094//storage/gpfs_lhcb/lhcb/user/t/tmcgrath/2023_10/805629/805629515/Prompt_Bs2DsPi_2017_MC_loose_cuts.root
root://xrootd-lhcb.cr.cnaf.infn.it:1094//storage/gpfs_lhcb/lhcb/user/t/tmcgrath/2023_10/805629/805629519/Prompt_Bs2DsPi_2017_MC_loose_cuts.root
root://xrootd-lhcb.cr.cnaf.infn.it:1094//storage/gpfs_lhcb/lhcb/user/t/tmcgrath/2023_10/805629/805629522/Prompt_Bs2DsPi_2017_MC_loose_cuts.root
root://xrootd-lhcb.cr.cnaf.infn.it:1094//storage/gpfs_lhcb/lhcb/user/t/tmcgrath/2023_10/805629/805629524/Prompt_Bs2DsPi_2017_MC_loose_cuts.root
root://xrootd-lhcb.cr.cnaf.infn.it:1094//storage/gpfs_lhcb/lhcb/user/t/tmcgrath/2023_10/805629/805629534/Prompt_Bs2DsPi_2017_MC_loose_cuts.root
root://xrootd-lhcb.cr.cnaf.infn.it:1094//storage/gpfs_lhcb/lhcb/user/t/tmcgrath/2023_10/805629/805629542/Prompt_Bs2DsPi_2017_MC_loose_cuts.root
root://xrootd-lhcb.cr.cnaf.infn.it:1094//storage/gpfs_lhcb/lhcb/user/t/tmcgrath/2023_10/805629/805629543/Prompt_Bs2DsPi_2017_MC_loose_cuts.root
root://xrootd-lhcb.cr.cnaf.infn.it:1094//storage/gpfs_lhcb/lhcb/user/t/tmcgrath/2023_10/805629/805629547/Prompt_Bs2DsPi_2017_MC_loose_cuts.root
root://xrootd-lhcb.cr.cnaf.infn.it:1094//storage/gpfs_lhcb/lhcb/user/t/tmcgrath/2023_10/805629/805629554/Prompt_Bs2DsPi_2017_MC_loose_cuts.root
root://xrootd-lhcb.cr.cnaf.infn.it:1094//storage/gpfs_lhcb/lhcb/user/t/tmcgrath/2023_10/805629/805629555/Prompt_Bs2DsPi_2017_MC_loose_cuts.root
root://xrootd-lhcb.cr.cnaf.infn.it:1094//storage/gpfs_lhcb/lhcb/user/t/tmcgrath/2023_10/805629/805629575/Prompt_Bs2DsPi_2017_MC_loose_cuts.root
root://xrootd-lhcb.cr.cnaf.infn.it:1094//storage/gpfs_lhcb/lhcb/user/t/tmcgrath/2023_10/805629/805629577/Prompt_Bs2DsPi_2017_MC_loose_cuts.root
root://xrootd-lhcb.cr.cnaf.infn.it:1094//storage/gpfs_lhcb/lhcb/user/t/tmcgrath/2023_10/805629/805629580/Prompt_Bs2DsPi_2017_MC_loose_cuts.root
root://xrootd-lhcb.cr.cnaf.infn.it:1094//storage/gpfs_lhcb/lhcb/user/t/tmcgrath/2023_10/805629/805629591/Prompt_Bs2DsPi_2017_MC_loose_cuts.root
root://xrootd-lhcb.cr.cnaf.infn.it:1094//storage/gpfs_lhcb/lhcb/user/t/tmcgrath/2023_10/805629/805629595/Prompt_Bs2DsPi_2017_MC_loose_cuts.root
root://xrootd-lhcb.cr.cnaf.infn.it:1094//storage/gpfs_lhcb/lhcb/user/t/tmcgrath/2023_10/805629/805629601/Prompt_Bs2DsPi_2017_MC_loose_cuts.root
root://xrootd-lhcb.cr.cnaf.infn.it:1094//storage/gpfs_lhcb/lhcb/user/t/tmcgrath/2023_10/805629/805629607/Prompt_Bs2DsPi_2017_MC_loose_cuts.root
root://xrootd-lhcb.cr.cnaf.infn.it:1094//storage/gpfs_lhcb/lhcb/user/t/tmcgrath/2023_10/805629/805629611/Prompt_Bs2DsPi_2017_MC_loose_cuts.root
root://xrootd-lhcb.cr.cnaf.infn.it:1094//storage/gpfs_lhcb/lhcb/user/t/tmcgrath/2023_10/805629/805629620/Prompt_Bs2DsPi_2017_MC_loose_cuts.root
root://xrootd-lhcb.cr.cnaf.infn.it:1094//storage/gpfs_lhcb/lhcb/user/t/tmcgrath/2023_10/805629/805629743/Prompt_Bs2DsPi_2017_MC_loose_cuts.root
root://xrootd.echo.stfc.ac.uk//lhcb:user/lhcb/user/t/tmcgrath/2023_10/805629/805629425/Prompt_Bs2DsPi_2017_MC_loose_cuts.root
root://xrootd.echo.stfc.ac.uk//lhcb:user/lhcb/user/t/tmcgrath/2023_10/805629/805629430/Prompt_Bs2DsPi_2017_MC_loose_cuts.root
root://xrootd.echo.stfc.ac.uk//lhcb:user/lhcb/user/t/tmcgrath/2023_10/805629/805629471/Prompt_Bs2DsPi_2017_MC_loose_cuts.root
root://xrootd.echo.stfc.ac.uk//lhcb:user/lhcb/user/t/tmcgrath/2023_10/805629/805629483/Prompt_Bs2DsPi_2017_MC_loose_cuts.root
root://xrootd.echo.stfc.ac.uk//lhcb:user/lhcb/user/t/tmcgrath/2023_10/805629/805629486/Prompt_Bs2DsPi_2017_MC_loose_cuts.root
root://xrootd.echo.stfc.ac.uk//lhcb:user/lhcb/user/t/tmcgrath/2023_10/805629/805629521/Prompt_Bs2DsPi_2017_MC_loose_cuts.root
root://xrootd.echo.stfc.ac.uk//lhcb:user/lhcb/user/t/tmcgrath/2023_10/805629/805629528/Prompt_Bs2DsPi_2017_MC_loose_cuts.root
root://xrootd.echo.stfc.ac.uk//lhcb:user/lhcb/user/t/tmcgrath/2023_10/805629/805629529/Prompt_Bs2DsPi_2017_MC_loose_cuts.root
root://xrootd.echo.stfc.ac.uk//lhcb:user/lhcb/user/t/tmcgrath/2023_10/805629/805629551/Prompt_Bs2DsPi_2017_MC_loose_cuts.root
root://xrootd.echo.stfc.ac.uk//lhcb:user/lhcb/user/t/tmcgrath/2023_10/805629/805629593/Prompt_Bs2DsPi_2017_MC_loose_cuts.root
root://xrootd.echo.stfc.ac.uk//lhcb:user/lhcb/user/t/tmcgrath/2023_10/805629/805629596/Prompt_Bs2DsPi_2017_MC_loose_cuts.root
root://xrootd.echo.stfc.ac.uk//lhcb:user/lhcb/user/t/tmcgrath/2023_10/805629/805629603/Prompt_Bs2DsPi_2017_MC_loose_cuts.root
root://xrootd.echo.stfc.ac.uk//lhcb:user/lhcb/user/t/tmcgrath/2023_10/805629/805629610/Prompt_Bs2DsPi_2017_MC_loose_cuts.root
root://xrootd.echo.stfc.ac.uk//lhcb:user/lhcb/user/t/tmcgrath/2023_10/805629/805629623/Prompt_Bs2DsPi_2017_MC_loose_cuts.root
root://xrootd.echo.stfc.ac.uk//lhcb:user/lhcb/user/t/tmcgrath/2023_10/805629/805629746/Prompt_Bs2DsPi_2017_MC_loose_cuts.root
root://x509up_u129802@xrootd.pic.es//pnfs/pic.es/data/lhcb/LHCb_USER/lhcb/user/t/tmcgrath/2023_10/805629/805629433/Prompt_Bs2DsPi_2017_MC_loose_cuts.root
root://x509up_u129802@xrootd.pic.es//pnfs/pic.es/data/lhcb/LHCb_USER/lhcb/user/t/tmcgrath/2023_10/805629/805629466/Prompt_Bs2DsPi_2017_MC_loose_cuts.root
root://x509up_u129802@xrootd.pic.es//pnfs/pic.es/data/lhcb/LHCb_USER/lhcb/user/t/tmcgrath/2023_10/805629/805629618/Prompt_Bs2DsPi_2017_MC_loose_cuts.root
root://x509up_u129802@xrootd.pic.es//pnfs/pic.es/data/lhcb/LHCb_USER/lhcb/user/t/tmcgrath/2023_10/805629/805629748/Prompt_Bs2DsPi_2017_MC_loose_cuts.root
root://x509up_u129802@xrootd.grid.surfsara.nl//pnfs/grid.sara.nl/data/lhcb/LHCb_USER/lhcb/user/t/tmcgrath/2023_10/805629/805629440/Prompt_Bs2DsPi_2017_MC_loose_cuts.root
root://x509up_u129802@xrootd.grid.surfsara.nl//pnfs/grid.sara.nl/data/lhcb/LHCb_USER/lhcb/user/t/tmcgrath/2023_10/805629/805629566/Prompt_Bs2DsPi_2017_MC_loose_cuts.root
root://x509up_u129802@xrootd.grid.surfsara.nl//pnfs/grid.sara.nl/data/lhcb/LHCb_USER/lhcb/user/t/tmcgrath/2023_10/805629/805629625/Prompt_Bs2DsPi_2017_MC_loose_cuts.root
root://x509up_u129802@ccxrootdlhcb.in2p3.fr//pnfs/in2p3.fr/data/lhcb/LHCb_USER/lhcb/user/t/tmcgrath/2023_10/805629/805629597/Prompt_Bs2DsPi_2017_MC_loose_cuts.root
root://x509up_u129802@ccxrootdlhcb.in2p3.fr//pnfs/in2p3.fr/data/lhcb/LHCb_USER/lhcb/user/t/tmcgrath/2023_10/805629/805629604/Prompt_Bs2DsPi_2017_MC_loose_cuts.root
root://x509up_u129802@ccxrootdlhcb.in2p3.fr//pnfs/in2p3.fr/data/lhcb/LHCb_USER/lhcb/user/t/tmcgrath/2023_10/805629/805629605/Prompt_Bs2DsPi_2017_MC_loose_cuts.root
root://x509up_u129802@ccxrootdlhcb.in2p3.fr//pnfs/in2p3.fr/data/lhcb/LHCb_USER/lhcb/user/t/tmcgrath/2023_10/805629/805629606/Prompt_Bs2DsPi_2017_MC_loose_cuts.root
root://x509up_u129802@ccxrootdlhcb.in2p3.fr//pnfs/in2p3.fr/data/lhcb/LHCb_USER/lhcb/user/t/tmcgrath/2023_10/805629/805629622/Prompt_Bs2DsPi_2017_MC_loose_cuts.root
