root://x509up_u129802@eoslhcb.cern.ch//eos/lhcb/grid/user/lhcb/user/t/tmcgrath/2023_02/711961/711961340/Prompt_Bs2JpsiPhi_2018_MC.root
root://x509up_u129802@eoslhcb.cern.ch//eos/lhcb/grid/user/lhcb/user/t/tmcgrath/2023_02/711961/711961344/Prompt_Bs2JpsiPhi_2018_MC.root
root://x509up_u129802@eoslhcb.cern.ch//eos/lhcb/grid/user/lhcb/user/t/tmcgrath/2023_02/711961/711961349/Prompt_Bs2JpsiPhi_2018_MC.root
root://x509up_u129802@eoslhcb.cern.ch//eos/lhcb/grid/user/lhcb/user/t/tmcgrath/2023_02/711961/711961353/Prompt_Bs2JpsiPhi_2018_MC.root
root://x509up_u129802@eoslhcb.cern.ch//eos/lhcb/grid/user/lhcb/user/t/tmcgrath/2023_02/711961/711961360/Prompt_Bs2JpsiPhi_2018_MC.root
root://x509up_u129802@eoslhcb.cern.ch//eos/lhcb/grid/user/lhcb/user/t/tmcgrath/2023_02/711961/711961362/Prompt_Bs2JpsiPhi_2018_MC.root
root://x509up_u129802@eoslhcb.cern.ch//eos/lhcb/grid/user/lhcb/user/t/tmcgrath/2023_02/711961/711961367/Prompt_Bs2JpsiPhi_2018_MC.root
root://x509up_u129802@eoslhcb.cern.ch//eos/lhcb/grid/user/lhcb/user/t/tmcgrath/2023_02/711961/711961369/Prompt_Bs2JpsiPhi_2018_MC.root
root://x509up_u129802@eoslhcb.cern.ch//eos/lhcb/grid/user/lhcb/user/t/tmcgrath/2023_02/711961/711961371/Prompt_Bs2JpsiPhi_2018_MC.root
root://x509up_u129802@eoslhcb.cern.ch//eos/lhcb/grid/user/lhcb/user/t/tmcgrath/2023_02/711961/711961373/Prompt_Bs2JpsiPhi_2018_MC.root
root://x509up_u129802@eoslhcb.cern.ch//eos/lhcb/grid/user/lhcb/user/t/tmcgrath/2023_02/711961/711961379/Prompt_Bs2JpsiPhi_2018_MC.root
root://x509up_u129802@eoslhcb.cern.ch//eos/lhcb/grid/user/lhcb/user/t/tmcgrath/2023_02/711961/711961386/Prompt_Bs2JpsiPhi_2018_MC.root
root://x509up_u129802@eoslhcb.cern.ch//eos/lhcb/grid/user/lhcb/user/t/tmcgrath/2023_02/711961/711961392/Prompt_Bs2JpsiPhi_2018_MC.root
root://x509up_u129802@eoslhcb.cern.ch//eos/lhcb/grid/user/lhcb/user/t/tmcgrath/2023_02/711961/711961396/Prompt_Bs2JpsiPhi_2018_MC.root
root://x509up_u129802@eoslhcb.cern.ch//eos/lhcb/grid/user/lhcb/user/t/tmcgrath/2023_02/711961/711961398/Prompt_Bs2JpsiPhi_2018_MC.root
root://x509up_u129802@eoslhcb.cern.ch//eos/lhcb/grid/user/lhcb/user/t/tmcgrath/2023_02/711961/711961401/Prompt_Bs2JpsiPhi_2018_MC.root
root://x509up_u129802@eoslhcb.cern.ch//eos/lhcb/grid/user/lhcb/user/t/tmcgrath/2023_02/711961/711961406/Prompt_Bs2JpsiPhi_2018_MC.root
root://x509up_u129802@eoslhcb.cern.ch//eos/lhcb/grid/user/lhcb/user/t/tmcgrath/2023_02/711961/711961409/Prompt_Bs2JpsiPhi_2018_MC.root
root://x509up_u129802@eoslhcb.cern.ch//eos/lhcb/grid/user/lhcb/user/t/tmcgrath/2023_02/711961/711961412/Prompt_Bs2JpsiPhi_2018_MC.root
root://x509up_u129802@eoslhcb.cern.ch//eos/lhcb/grid/user/lhcb/user/t/tmcgrath/2023_02/711961/711961414/Prompt_Bs2JpsiPhi_2018_MC.root
root://x509up_u129802@eoslhcb.cern.ch//eos/lhcb/grid/user/lhcb/user/t/tmcgrath/2023_02/711961/711961421/Prompt_Bs2JpsiPhi_2018_MC.root
root://x509up_u129802@eoslhcb.cern.ch//eos/lhcb/grid/user/lhcb/user/t/tmcgrath/2023_02/711961/711961422/Prompt_Bs2JpsiPhi_2018_MC.root
root://x509up_u129802@eoslhcb.cern.ch//eos/lhcb/grid/user/lhcb/user/t/tmcgrath/2023_02/711961/711961425/Prompt_Bs2JpsiPhi_2018_MC.root
root://x509up_u129802@eoslhcb.cern.ch//eos/lhcb/grid/user/lhcb/user/t/tmcgrath/2023_02/711961/711961429/Prompt_Bs2JpsiPhi_2018_MC.root
root://x509up_u129802@eoslhcb.cern.ch//eos/lhcb/grid/user/lhcb/user/t/tmcgrath/2023_02/711961/711961435/Prompt_Bs2JpsiPhi_2018_MC.root
root://x509up_u129802@eoslhcb.cern.ch//eos/lhcb/grid/user/lhcb/user/t/tmcgrath/2023_02/711961/711961439/Prompt_Bs2JpsiPhi_2018_MC.root
root://x509up_u129802@eoslhcb.cern.ch//eos/lhcb/grid/user/lhcb/user/t/tmcgrath/2023_02/711961/711961441/Prompt_Bs2JpsiPhi_2018_MC.root
root://x509up_u129802@eoslhcb.cern.ch//eos/lhcb/grid/user/lhcb/user/t/tmcgrath/2023_02/711961/711961446/Prompt_Bs2JpsiPhi_2018_MC.root
root://x509up_u129802@eoslhcb.cern.ch//eos/lhcb/grid/user/lhcb/user/t/tmcgrath/2023_02/711961/711961447/Prompt_Bs2JpsiPhi_2018_MC.root
root://x509up_u129802@eoslhcb.cern.ch//eos/lhcb/grid/user/lhcb/user/t/tmcgrath/2023_02/711961/711961451/Prompt_Bs2JpsiPhi_2018_MC.root
root://x509up_u129802@eoslhcb.cern.ch//eos/lhcb/grid/user/lhcb/user/t/tmcgrath/2023_02/711961/711961455/Prompt_Bs2JpsiPhi_2018_MC.root
root://x509up_u129802@eoslhcb.cern.ch//eos/lhcb/grid/user/lhcb/user/t/tmcgrath/2023_02/711961/711961470/Prompt_Bs2JpsiPhi_2018_MC.root
root://xrootd.echo.stfc.ac.uk/lhcb:user/lhcb/user/t/tmcgrath/2023_02/711961/711961342/Prompt_Bs2JpsiPhi_2018_MC.root
root://xrootd.echo.stfc.ac.uk/lhcb:user/lhcb/user/t/tmcgrath/2023_02/711961/711961351/Prompt_Bs2JpsiPhi_2018_MC.root
root://xrootd.echo.stfc.ac.uk/lhcb:user/lhcb/user/t/tmcgrath/2023_02/711961/711961358/Prompt_Bs2JpsiPhi_2018_MC.root
root://xrootd.echo.stfc.ac.uk/lhcb:user/lhcb/user/t/tmcgrath/2023_02/711961/711961375/Prompt_Bs2JpsiPhi_2018_MC.root
root://xrootd.echo.stfc.ac.uk/lhcb:user/lhcb/user/t/tmcgrath/2023_02/711961/711961394/Prompt_Bs2JpsiPhi_2018_MC.root
root://xrootd.echo.stfc.ac.uk/lhcb:user/lhcb/user/t/tmcgrath/2023_02/711961/711961405/Prompt_Bs2JpsiPhi_2018_MC.root
root://xrootd.echo.stfc.ac.uk/lhcb:user/lhcb/user/t/tmcgrath/2023_02/711961/711961408/Prompt_Bs2JpsiPhi_2018_MC.root
root://xrootd.echo.stfc.ac.uk/lhcb:user/lhcb/user/t/tmcgrath/2023_02/711961/711961411/Prompt_Bs2JpsiPhi_2018_MC.root
root://xrootd.echo.stfc.ac.uk/lhcb:user/lhcb/user/t/tmcgrath/2023_02/711961/711961416/Prompt_Bs2JpsiPhi_2018_MC.root
root://xrootd.echo.stfc.ac.uk/lhcb:user/lhcb/user/t/tmcgrath/2023_02/711961/711961433/Prompt_Bs2JpsiPhi_2018_MC.root
root://xrootd.echo.stfc.ac.uk/lhcb:user/lhcb/user/t/tmcgrath/2023_02/711961/711961436/Prompt_Bs2JpsiPhi_2018_MC.root
root://xrootd.echo.stfc.ac.uk/lhcb:user/lhcb/user/t/tmcgrath/2023_02/711961/711961449/Prompt_Bs2JpsiPhi_2018_MC.root
root://xrootd.echo.stfc.ac.uk/lhcb:user/lhcb/user/t/tmcgrath/2023_02/711961/711961452/Prompt_Bs2JpsiPhi_2018_MC.root
root://xrootd.echo.stfc.ac.uk/lhcb:user/lhcb/user/t/tmcgrath/2023_02/711961/711961454/Prompt_Bs2JpsiPhi_2018_MC.root
root://xrootd.echo.stfc.ac.uk/lhcb:user/lhcb/user/t/tmcgrath/2023_02/711961/711961464/Prompt_Bs2JpsiPhi_2018_MC.root
root://xrootd-lhcb.cr.cnaf.infn.it:1094//storage/gpfs_lhcb/lhcb/user/t/tmcgrath/2023_02/711961/711961345/Prompt_Bs2JpsiPhi_2018_MC.root
root://xrootd-lhcb.cr.cnaf.infn.it:1094//storage/gpfs_lhcb/lhcb/user/t/tmcgrath/2023_02/711961/711961346/Prompt_Bs2JpsiPhi_2018_MC.root
root://xrootd-lhcb.cr.cnaf.infn.it:1094//storage/gpfs_lhcb/lhcb/user/t/tmcgrath/2023_02/711961/711961356/Prompt_Bs2JpsiPhi_2018_MC.root
root://xrootd-lhcb.cr.cnaf.infn.it:1094//storage/gpfs_lhcb/lhcb/user/t/tmcgrath/2023_02/711961/711961366/Prompt_Bs2JpsiPhi_2018_MC.root
root://xrootd-lhcb.cr.cnaf.infn.it:1094//storage/gpfs_lhcb/lhcb/user/t/tmcgrath/2023_02/711961/711961377/Prompt_Bs2JpsiPhi_2018_MC.root
root://xrootd-lhcb.cr.cnaf.infn.it:1094//storage/gpfs_lhcb/lhcb/user/t/tmcgrath/2023_02/711961/711961381/Prompt_Bs2JpsiPhi_2018_MC.root
root://xrootd-lhcb.cr.cnaf.infn.it:1094//storage/gpfs_lhcb/lhcb/user/t/tmcgrath/2023_02/711961/711961385/Prompt_Bs2JpsiPhi_2018_MC.root
root://xrootd-lhcb.cr.cnaf.infn.it:1094//storage/gpfs_lhcb/lhcb/user/t/tmcgrath/2023_02/711961/711961390/Prompt_Bs2JpsiPhi_2018_MC.root
root://xrootd-lhcb.cr.cnaf.infn.it:1094//storage/gpfs_lhcb/lhcb/user/t/tmcgrath/2023_02/711961/711961399/Prompt_Bs2JpsiPhi_2018_MC.root
root://xrootd-lhcb.cr.cnaf.infn.it:1094//storage/gpfs_lhcb/lhcb/user/t/tmcgrath/2023_02/711961/711961403/Prompt_Bs2JpsiPhi_2018_MC.root
root://xrootd-lhcb.cr.cnaf.infn.it:1094//storage/gpfs_lhcb/lhcb/user/t/tmcgrath/2023_02/711961/711961418/Prompt_Bs2JpsiPhi_2018_MC.root
root://xrootd-lhcb.cr.cnaf.infn.it:1094//storage/gpfs_lhcb/lhcb/user/t/tmcgrath/2023_02/711961/711961419/Prompt_Bs2JpsiPhi_2018_MC.root
root://xrootd-lhcb.cr.cnaf.infn.it:1094//storage/gpfs_lhcb/lhcb/user/t/tmcgrath/2023_02/711961/711961424/Prompt_Bs2JpsiPhi_2018_MC.root
root://xrootd-lhcb.cr.cnaf.infn.it:1094//storage/gpfs_lhcb/lhcb/user/t/tmcgrath/2023_02/711961/711961428/Prompt_Bs2JpsiPhi_2018_MC.root
root://xrootd-lhcb.cr.cnaf.infn.it:1094//storage/gpfs_lhcb/lhcb/user/t/tmcgrath/2023_02/711961/711961431/Prompt_Bs2JpsiPhi_2018_MC.root
root://xrootd-lhcb.cr.cnaf.infn.it:1094//storage/gpfs_lhcb/lhcb/user/t/tmcgrath/2023_02/711961/711961437/Prompt_Bs2JpsiPhi_2018_MC.root
root://xrootd-lhcb.cr.cnaf.infn.it:1094//storage/gpfs_lhcb/lhcb/user/t/tmcgrath/2023_02/711961/711961440/Prompt_Bs2JpsiPhi_2018_MC.root
root://xrootd-lhcb.cr.cnaf.infn.it:1094//storage/gpfs_lhcb/lhcb/user/t/tmcgrath/2023_02/711961/711961448/Prompt_Bs2JpsiPhi_2018_MC.root
root://xrootd-lhcb.cr.cnaf.infn.it:1094//storage/gpfs_lhcb/lhcb/user/t/tmcgrath/2023_02/711961/711961461/Prompt_Bs2JpsiPhi_2018_MC.root
root://xrootd-lhcb.cr.cnaf.infn.it:1094//storage/gpfs_lhcb/lhcb/user/t/tmcgrath/2023_02/711961/711961463/Prompt_Bs2JpsiPhi_2018_MC.root
root://xrootd-lhcb.cr.cnaf.infn.it:1094//storage/gpfs_lhcb/lhcb/user/t/tmcgrath/2023_02/711961/711961466/Prompt_Bs2JpsiPhi_2018_MC.root
root://x509up_u129802@xrootd.pic.es//pnfs/pic.es/data/lhcb/LHCb_USER/lhcb/user/t/tmcgrath/2023_02/711961/711961350/Prompt_Bs2JpsiPhi_2018_MC.root
root://x509up_u129802@xrootd.pic.es//pnfs/pic.es/data/lhcb/LHCb_USER/lhcb/user/t/tmcgrath/2023_02/711961/711961363/Prompt_Bs2JpsiPhi_2018_MC.root
root://x509up_u129802@xrootd.pic.es//pnfs/pic.es/data/lhcb/LHCb_USER/lhcb/user/t/tmcgrath/2023_02/711961/711961444/Prompt_Bs2JpsiPhi_2018_MC.root
root://x509up_u129802@xrootd.pic.es//pnfs/pic.es/data/lhcb/LHCb_USER/lhcb/user/t/tmcgrath/2023_02/711961/711961458/Prompt_Bs2JpsiPhi_2018_MC.root
root://x509up_u129802@xrootd.pic.es//pnfs/pic.es/data/lhcb/LHCb_USER/lhcb/user/t/tmcgrath/2023_02/711961/711961465/Prompt_Bs2JpsiPhi_2018_MC.root
root://x509up_u129802@lhcbxrootd-kit.gridka.de//pnfs/gridka.de/lhcb/LHCb_USER/lhcb/user/t/tmcgrath/2023_02/711961/711961355/Prompt_Bs2JpsiPhi_2018_MC.root
root://x509up_u129802@lhcbxrootd-kit.gridka.de//pnfs/gridka.de/lhcb/LHCb_USER/lhcb/user/t/tmcgrath/2023_02/711961/711961382/Prompt_Bs2JpsiPhi_2018_MC.root
root://x509up_u129802@lhcbxrootd-kit.gridka.de//pnfs/gridka.de/lhcb/LHCb_USER/lhcb/user/t/tmcgrath/2023_02/711961/711961388/Prompt_Bs2JpsiPhi_2018_MC.root
root://x509up_u129802@lhcbxrootd-kit.gridka.de//pnfs/gridka.de/lhcb/LHCb_USER/lhcb/user/t/tmcgrath/2023_02/711961/711961402/Prompt_Bs2JpsiPhi_2018_MC.root
root://x509up_u129802@lhcbxrootd-kit.gridka.de//pnfs/gridka.de/lhcb/LHCb_USER/lhcb/user/t/tmcgrath/2023_02/711961/711961415/Prompt_Bs2JpsiPhi_2018_MC.root
root://x509up_u129802@lhcbxrootd-kit.gridka.de//pnfs/gridka.de/lhcb/LHCb_USER/lhcb/user/t/tmcgrath/2023_02/711961/711961432/Prompt_Bs2JpsiPhi_2018_MC.root
root://x509up_u129802@lhcbxrootd-kit.gridka.de//pnfs/gridka.de/lhcb/LHCb_USER/lhcb/user/t/tmcgrath/2023_02/711961/711961459/Prompt_Bs2JpsiPhi_2018_MC.root
root://x509up_u129802@lhcbxrootd-kit.gridka.de//pnfs/gridka.de/lhcb/LHCb_USER/lhcb/user/t/tmcgrath/2023_02/711961/711961462/Prompt_Bs2JpsiPhi_2018_MC.root
root://x509up_u129802@lhcbxrootd-kit.gridka.de//pnfs/gridka.de/lhcb/LHCb_USER/lhcb/user/t/tmcgrath/2023_02/711961/711961468/Prompt_Bs2JpsiPhi_2018_MC.root
root://x509up_u129802@xrootd.grid.surfsara.nl//pnfs/grid.sara.nl/data/lhcb/LHCb_USER/lhcb/user/t/tmcgrath/2023_02/711961/711961395/Prompt_Bs2JpsiPhi_2018_MC.root
root://x509up_u129802@xrootd.grid.surfsara.nl//pnfs/grid.sara.nl/data/lhcb/LHCb_USER/lhcb/user/t/tmcgrath/2023_02/711961/711961443/Prompt_Bs2JpsiPhi_2018_MC.root
root://x509up_u129802@ccxrootdlhcb.in2p3.fr//pnfs/in2p3.fr/data/lhcb/LHCb_USER/lhcb/user/t/tmcgrath/2023_02/711961/711961426/Prompt_Bs2JpsiPhi_2018_MC.root
root://x509up_u129802@ccxrootdlhcb.in2p3.fr//pnfs/in2p3.fr/data/lhcb/LHCb_USER/lhcb/user/t/tmcgrath/2023_02/711961/711961456/Prompt_Bs2JpsiPhi_2018_MC.root
root://x509up_u129802@ccxrootdlhcb.in2p3.fr//pnfs/in2p3.fr/data/lhcb/LHCb_USER/lhcb/user/t/tmcgrath/2023_02/711961/711961469/Prompt_Bs2JpsiPhi_2018_MC.root
