
[1mRooFit v3.60 -- Developed by Wouter Verkerke and David Kirkby[0m 
                Copyright (C) 2000-2013 NIKHEF, University of California & Stanford University
                All rights reserved, please read http://roofit.sourceforge.net/license.txt

INFO in rapidSim : environment variable RAPIDSIM_CONFIG is set
                   Settings in /afs/cern.ch/work/t/tmcgrath/private/lbdevs/Sim/RapidSim will be used
INFO in RapidConfig::loadDecay : loading decay descriptor from file: /afs/cern.ch/work/t/tmcgrath/private/lbdevs/Sim/RapidSim/UserDecayFiles/Bc2BsStarMu_Bs2Dspi.decay
INFO in RapidConfig::loadDecay : Decay descriptor is:
                                 Bc+ -> { Bs*0 -> {Bs0 -> {Ds- -> K- K+ pi-} pi+} gamma } mu+ numu
INFO in RapidParticleData::loadData : loading particle data from /afs/cern.ch/work/t/tmcgrath/private/lbdevs/Sim/RapidSim/config/particles.dat
INFO in RapidParticleData::loadData : loading particle data from /afs/cern.ch/work/t/tmcgrath/private/lbdevs/Sim/config/particles.dat
INFO in RapidConfig::loadDecay : Found sub-decay:
                                 Bs*0 -> {Bs0 -> {Ds- -> K- K+ pi-} pi+} gamma
INFO in RapidConfig::loadDecay : Parent has beauty.
                                 setting b-quark kinematics.
INFO in RapidConfig::loadDecay : Found sub-decay:
                                 Bs0 -> {Ds- -> K- K+ pi-} pi+
INFO in RapidConfig::loadDecay : Found sub-decay:
                                 Ds- -> K- K+ pi-
INFO in RapidConfig::loadConfig : attempting to load configuration from file: /afs/cern.ch/work/t/tmcgrath/private/lbdevs/Sim/RapidSim/UserDecayFiles/Bc2BsStarMu_Bs2Dspi.config
INFO in RapidConfig::configGlobal : setting acceptance type to AllDownstream.
INFO in RapidConfig::configGlobal : pp CoM energy set to be 13 TeV.
INFO in RapidConfig::configGlobal : setting detector geometry type to LHCb.
INFO in RapidConfig::configGlobal : setting pT range to 0. 40..
INFO in RapidConfig::configGlobal : setting eta range to 1.7 5.2.
INFO in RapidConfig::configGlobal : will use external EvtGen generator to decay particles.
INFO in RapidConfig::configGlobal : external EvtGen generator will use PHOTOS.
INFO in RapidConfig::configGlobal : will use the following parameters for all decaying particles:
                                    M, P, PT, PX, PY, PZ, E, ET, vtxX, vtxY, vtxZ, origX, origY, origZ.
INFO in RapidConfig::configGlobal : will use the following parameters for all stable particles:
                                    M, P, PT, PX, PY, PZ, E, ET, SIGMAIP, IP.
INFO in RapidConfig::configGlobal : will use the following parameters for all two-body daughter combinations:
                                    M2.
INFO in RapidConfig::configGlobal : adding parameter Bc_Mcorr
INFO in RapidConfig::configParticle : set EvtGen decay model for particle Bc
                                    : PHOTOS ISGW2
INFO in RapidConfig::configParticle : set EvtGen decay model for particle BsStar
                                    : VSP_PWAVE
INFO in RapidConfig::setSmearing : setting smearing functions for particle 2 (category: LHCbGeneric)
INFO in RapidConfig::loadSmearing : found smearing category LHCbGeneric in RAPIDSIM_CONFIG.
                                    this version will be used.
INFO in RapidConfig::loadSmearing : found smearing category LHCbGeneric in RAPIDSIM_CONFIG.
                                    this version will be used.
INFO in RapidConfig::setSmearing : setting smearing functions for particle 2 (category: LHCbGenericIP)
INFO in RapidConfig::loadSmearing : found smearing category LHCbGenericIP in RAPIDSIM_CONFIG.
                                    this version will be used.
INFO in RapidConfig::setSmearing : setting smearing functions for particle 3 (category: LHCbGeneric)
INFO in RapidConfig::loadSmearing : found smearing category LHCbGeneric in RAPIDSIM_CONFIG.
                                    this version will be used.
INFO in RapidConfig::configParticle : set EvtGen decay model for particle Bs
                                    : PHSP
INFO in RapidConfig::setSmearing : setting smearing functions for particle 5 (category: LHCbPhoton)
INFO in RapidConfig::loadSmearing : found smearing category LHCbPhoton in RAPIDSIM_CONFIG.
                                    this version will be used.
INFO in RapidConfig::loadSmearing : load photon smearing for particle 
INFO in RapidConfig::loadSmearing : found smearing category LHCbPhoton in RAPIDSIM_CONFIG.
                                    this version will be used.
INFO in RapidConfig::loadSmearing : load photon smearing for particle 
INFO in RapidConfig::configParticle : set EvtGen decay model for particle Ds
                                    : D_DALITZ
INFO in RapidConfig::setSmearing : setting smearing functions for particle 7 (category: LHCbGeneric)
INFO in RapidConfig::loadSmearing : found smearing category LHCbGeneric in RAPIDSIM_CONFIG.
                                    this version will be used.
INFO in RapidConfig::setSmearing : setting smearing functions for particle 7 (category: LHCbGenericIP)
INFO in RapidConfig::loadSmearing : found smearing category LHCbGenericIP in RAPIDSIM_CONFIG.
                                    this version will be used.
INFO in RapidConfig::setSmearing : setting smearing functions for particle 8 (category: LHCbGeneric)
INFO in RapidConfig::loadSmearing : found smearing category LHCbGeneric in RAPIDSIM_CONFIG.
                                    this version will be used.
INFO in RapidConfig::setSmearing : setting smearing functions for particle 8 (category: LHCbGenericIP)
INFO in RapidConfig::loadSmearing : found smearing category LHCbGenericIP in RAPIDSIM_CONFIG.
                                    this version will be used.
INFO in RapidConfig::setSmearing : setting smearing functions for particle 9 (category: LHCbGeneric)
INFO in RapidConfig::loadSmearing : found smearing category LHCbGeneric in RAPIDSIM_CONFIG.
                                    this version will be used.
INFO in RapidConfig::setSmearing : setting smearing functions for particle 9 (category: LHCbGenericIP)
INFO in RapidConfig::loadSmearing : found smearing category LHCbGenericIP in RAPIDSIM_CONFIG.
                                    this version will be used.
INFO in RapidConfig::setSmearing : setting smearing functions for particle 10 (category: LHCbGeneric)
INFO in RapidConfig::loadSmearing : found smearing category LHCbGeneric in RAPIDSIM_CONFIG.
                                    this version will be used.
INFO in RapidConfig::setSmearing : setting smearing functions for particle 10 (category: LHCbGenericIP)
INFO in RapidConfig::loadSmearing : found smearing category LHCbGenericIP in RAPIDSIM_CONFIG.
                                    this version will be used.
INFO in RapidConfig::loadConfig : finished loading configuration.
INFO in RapidConfig::load : invisible daughter found.
                            Adding corrected mass variable for parent particle.
INFO in RapidConfig::load : initialising external generator.
INFO in RapidExternalEvtGen::setupGenerator : Setting up external EvtGen generator.
EvtMTRandomEngine:Mersenne-Twister random number generator with seed = 1800377164
EvtGen:Defining EvtPhotosEngine using photonType = gamma
EvtGen:Setting up PHOTOS.
Message from PHCORK(MODCOR):: initialization
MODOP=5 -- corrects Energy from mass+flow

********************************************************************************

                            =========================
                              PHOTOS, Version:  3.64
                              Released at:  18/2/20
                            =========================

                     Photos QED corrections in Particle Decays

           Monte Carlo Program - by E. Barberio, B. van Eijk and Z. Was
           From version 2.09   - by P. Golonka and Z. Was
           From version 3.00   - by N. Davidson, T. Przedzinski and Z. Was
********************************************************************************

                  Internal (default) input parameters: 

                    INTERF= 1 ISEC= 0 ITRE= 0 IEXP= 1 IFTOP= 1 IFW= 1
                    ALPHA_QED= 7.297350e-03 XPHCUT= 1.000000e-07

                    Option with interference is active
                    Option with exponentiation is active EPSEXP=1.000000e-04
                    Emision in t tbar production is active
                    Correction wt in decay of W is active

          WARNING:  /HEPEVT/ is not anymore used.

********************************************************************************
MODOP=2 -- blocks emission in Kl  to gamma e+e-: DEFAULT
MODOP=2 -- blocks emission in pi0 to gamma e+e-: DEFAULT
 IPHQRK_setQarknoEmission MODOP=1 -- blocks emission from light quarks:  DEFAULT
Message from PHCORK(MODCOR):: initialization
MODOP=5 -- corrects Energy from mass+flow
EvtGen:Defining EvtPythiaEngine: data tables defined in /cvmfs/sft.cern.ch/lcg/releases/MCGenerators/pythia8/244-989d6/x86_64-centos7-gcc9-opt/share/Pythia8/xmldoc
EvtGen:Pythia 6 codes in decay files will be converted to Pythia 8 codes
EvtGen:Creating generic Pythia generator

 *------------------------------------------------------------------------------------* 
 |                                                                                    | 
 |  *------------------------------------------------------------------------------*  | 
 |  |                                                                              |  | 
 |  |                                                                              |  | 
 |  |   PPP   Y   Y  TTTTT  H   H  III    A      Welcome to the Lund Monte Carlo!  |  | 
 |  |   P  P   Y Y     T    H   H   I    A A     This is PYTHIA version 8.244      |  | 
 |  |   PPP     Y      T    HHHHH   I   AAAAA    Last date of change: 20 Dec 2019  |  | 
 |  |   P       Y      T    H   H   I   A   A                                      |  | 
 |  |   P       Y      T    H   H  III  A   A    Now is 31 May 2021 at 15:50:20    |  | 
 |  |                                                                              |  | 
 |  |   Christian Bierlich;  Department of Astronomy and Theoretical Physics,      |  | 
 |  |      Lund University, Solvegatan 14A, SE-223 62 Lund, Sweden;                |  | 
 |  |      e-mail: christian.bierlich@thep.lu.se                                   |  | 
 |  |   Nishita Desai;  Department of Theoretical Physics, Tata Institute,         |  | 
 |  |      Homi Bhabha Road, Mumbai 400005, India;                                 |  | 
 |  |      e-mail: desai@theory.tifr.res.in                                        |  | 
 |  |   Ilkka Helenius;  Department of Physics, University of Jyvaskyla,           |  | 
 |  |      P.O. Box 35, FI-40014 University of Jyvaskyla, Finland;                 |  | 
 |  |      e-mail: ilkka.m.helenius@jyu.fi                                         |  | 
 |  |   Philip Ilten;  School of Physics and Astronomy,                            |  | 
 |  |      University of Birmingham, Birmingham, B152 2TT, UK;                     |  | 
 |  |      e-mail: philten@cern.ch                                                 |  | 
 |  |   Leif Lonnblad;  Department of Astronomy and Theoretical Physics,           |  | 
 |  |      Lund University, Solvegatan 14A, SE-223 62 Lund, Sweden;                |  | 
 |  |      e-mail: leif.lonnblad@thep.lu.se                                        |  | 
 |  |   Stephen Mrenna;  Computing Division, Simulations Group,                    |  | 
 |  |      Fermi National Accelerator Laboratory, MS 234, Batavia, IL 60510, USA;  |  | 
 |  |      e-mail: mrenna@fnal.gov                                                 |  | 
 |  |   Stefan Prestel;  Department of Astronomy and Theoretical Physics,          |  | 
 |  |      Lund University, Solvegatan 14A, SE-223 62 Lund, Sweden;                |  | 
 |  |      e-mail: stefan.prestel@thep.lu.se                                       |  | 
 |  |   Christine O. Rasmussen;  Department of Astronomy and Theoretical Physics,  |  | 
 |  |      Lund University, Solvegatan 14A, SE-223 62 Lund, Sweden;                |  | 
 |  |      e-mail: christine.rasmussen@thep.lu.se                                  |  | 
 |  |   Torbjorn Sjostrand;  Department of Astronomy and Theoretical Physics,      |  | 
 |  |      Lund University, Solvegatan 14A, SE-223 62 Lund, Sweden;                |  | 
 |  |      e-mail: torbjorn@thep.lu.se                                             |  | 
 |  |   Peter Skands;  School of Physics,                                          |  | 
 |  |      Monash University, PO Box 27, 3800 Melbourne, Australia;                |  | 
 |  |      e-mail: peter.skands@monash.edu                                         |  | 
 |  |                                                                              |  | 
 |  |   The main program reference is 'An Introduction to PYTHIA 8.2',             |  | 
 |  |   T. Sjostrand et al, Comput. Phys. Commun. 191 (2015) 159                   |  | 
 |  |   [arXiv:1410.3012 [hep-ph]]                                                 |  | 
 |  |                                                                              |  | 
 |  |   The main physics reference is the 'PYTHIA 6.4 Physics and Manual',         |  | 
 |  |   T. Sjostrand, S. Mrenna and P. Skands, JHEP05 (2006) 026 [hep-ph/0603175]  |  | 
 |  |                                                                              |  | 
 |  |   An archive of program versions and documentation is found on the web:      |  | 
 |  |   http://www.thep.lu.se/Pythia                                               |  | 
 |  |                                                                              |  | 
 |  |   This program is released under the GNU General Public Licence version 2.   |  | 
 |  |   Please respect the MCnet Guidelines for Event Generator Authors and Users. |  | 
 |  |                                                                              |  | 
 |  |   Disclaimer: this program comes without any guarantees.                     |  | 
 |  |   Beware of errors and use common sense when interpreting results.           |  | 
 |  |                                                                              |  | 
 |  |   Copyright (C) 2019 Torbjorn Sjostrand                                      |  | 
 |  |                                                                              |  | 
 |  |                                                                              |  | 
 |  *------------------------------------------------------------------------------*  | 
 |                                                                                    | 
 *------------------------------------------------------------------------------------* 

EvtGen:Creating alias Pythia generator
EvtGen:Defining EvtTauolaEngine.
EvtGen:Setting up TAUOLA.



 ***************************************************************************
 *                         *****TAUOLA LIBRARY: VERSION 2.9 ******         *
 *                         ***********October 2011 ***************         *
 *                         **AUTHORS: S.JADACH, Z.WAS*************         *
 *                         **R. DECKER, M. JEZABEK, J.H.KUEHN*****         *
 *                         **AVAILABLE FROM: www.cern.ch/wasm****          *
 *                         ***** PUBLISHED IN COMP. PHYS. COMM.***         *
 *                         0: Physics initialization  CLEO collab          *
 *                          see Alain Weinstein www home page:             *
 *                         http://www.cithep.caltech.edu/~ajw/             *
 *                         /korb_doc.html#files                            *
 *                         1: Physics initialization RChL of:              *
 *                          O. Shekhovtsova, T. Przedzinski,               *
 *                          P. Roig and Z. Was                             *
 *                          IFJPAN-2013-5, UAB-FT-731                      *
 *                         *******CPC 76 (1993) 361          *****         *
 *                         **5 or more pi dec.: precision limited          *
 *                         ****DEKAY ROUTINE: INITIALIZATION******         *
 *                   0     JAK1   = DECAY MODE TAU+                        *
 *                   0     JAK2   = DECAY MODE TAU-                        *
 ***************************************************************************

 *                   1     IVER   = hadronic current version           *
  RANMAR INITIALIZED:   54217137           0         0

 *************************************
 *     TAUOLA C++ Interface v1.1.8   *
 *-----------------------------------*
 *                                   *
 *   (c) Nadia    Davidson,   (1,2)  *
 *   (c) Gizo     Nanava,     (3)    *
 *       Tomasz   Przedzinski,(4)    *
 *       Elzbieta Richter-Was,(2,4)  *
 *       Zbigniew Was         (2,5)  *
 *                                   *
 *  1) Unimelb, Melbourne, Australia *
 *  2)     INP, Krakow, Poland       *
 *  3) University Bonn, Germany      *
 *  4)      UJ, Krakow, Poland       *
 *  5)    CERN, Geneva, Switzerland  *
 *************************************
  In F3pi: chpt + 1 resonance + 2 resonance (RchT)
  KORB: rho/rhop -> pi-pi0 mixing:
  KORB: rho   =  0.769900024      0.151199996    
  KORB: rhop  =   1.37000000      0.509999990     -0.109999999    
  KORB: K*/K*prime -> Kpi mixing:
  KORB: kstp  =   1.70000005      0.234999999      -3.79999988E-02
  KORB: a1/a1prime -> 3pi, KKpi mixing:
  KORB: a1    =   1.27499998      0.699999988    
  KORB: a1prim=   1.46099997      0.250000000       0.00000000    
  KORB: K1A/K1B -> Kpipi mixing:
  KORB: K1A   =   1.26999998       9.00000036E-02   1.00000000    
  KORB: K1B   =   1.40199995      0.173999995      0.800000012    
  KORB: rho/rhop/rhopp -> 4pi mixing:
  KORB: rho   =  0.769900024      0.151199996    
  KORB: rhopp =   1.46500003      0.310000002     -0.109999999    
  KORB: rhoppp=   1.70000005      0.234999999     -0.109999999    
  KORB: 3PI-PI0 PARAMS:   0.00000000      0.124200001      0.160400003      0.271100014      0.444299996    
  KORB: PI-3PI0 PARAMS:   0.00000000       1.00000000    

 ***************************************************************************

Reading SANC input files.
File 'table1-1.txt'  missing... skipped.
File 'table2-2.txt'  missing... skipped.
File 'table11-11.txt' missing... skipped.

EvtGen:Initializing EvtGen
EvtGen:Storing known decay models
EvtGen:Defining EvtBcToNPi model: Bc -> V + npi and Bc -> P + npi decays
from A.V. Berezhnoy, A.K. Likhoded, A.V. Luchinsky: Phys.Rev.D 82, 014012 (2010) and arXiV:1104.0808.
EvtGen:Main decay file name  :/afs/cern.ch/work/t/tmcgrath/private/lbdevs/Sim/RapidSim/config/evtgen/DECAY.DEC
EvtGen:PDT table file name   :/afs/cern.ch/work/t/tmcgrath/private/lbdevs/Sim/evtgen_build/evt.pdl
EvtGen:In readDecayFile, reading:/afs/cern.ch/work/t/tmcgrath/private/lbdevs/Sim/RapidSim/config/evtgen/DECAY.DEC
EvtGen:Mixing type integer set to 1
EvtGen:Done initializing EvtGen
INFO in RapidExternalEvtGen::writeDecFile : Writing EvtGen DEC file : /afs/cern.ch/work/t/tmcgrath/private/lbdevs/Sim/RapidSim/UserDecayFiles/Bc2BsStarMu_Bs2Dspi.DEC
INFO in RapidExternalEvtGen::setup : Setting decay for external EvtGen generator.
EvtGen:In readDecayFile, reading:/afs/cern.ch/work/t/tmcgrath/private/lbdevs/Sim/RapidSim/UserDecayFiles/Bc2BsStarMu_Bs2Dspi.DEC
EvtGen:As requested, PHOTOS will be turned on for all decays.
INFO in RapidDecay::setup : Particle summary follows:
index	label		   ID		mass (GeV/c^2)	parent		# children	children
  0	Bc             	   541		6.275100	---            	 3		BsStar, Mu, numu
  1	BsStar         	   533		5.415400	Bc             	 2		Bs, gamma      
  2	Mu             	   -13		0.105658	Bc             	 0		---            
  3	numu           	    14		0.000000	Bc             	 0		---            
  4	Bs             	   531		5.366770	BsStar         	 2		Ds, Pi_from_Bs 
  5	gamma          	    22		0.000000	BsStar         	 0		---            
  6	Ds             	  -431		1.968300	Bs             	 3		Km_from_Ds, Kp_from_Ds, Pi_from_Ds
  7	Pi_from_Bs     	   211		0.139570	Bs             	 0		---            
  8	Km_from_Ds     	  -321		0.493677	Ds             	 0		---            
  9	Kp_from_Ds     	   321		0.493677	Ds             	 0		---            
 10	Pi_from_Ds     	  -211		0.139570	Ds             	 0		---            
INFO in RapidConfig::loadParentKinematics : found kinematics LHCb13.000 in RAPIDSIM_CONFIG.
                                            this version will be used.
INFO in RapidDecay::setParentKinematics : setting kinematics of the parent.
INFO in RapidConfig::loadPVntracks : /afs/cern.ch/work/t/tmcgrath/private/lbdevs/Sim/RapidSim/rootfiles/smear/PVNTRACKS.root in RAPIDSIM_CONFIG.
                                            this version will be used.
INFO in RapidDecay::setPVntracks : setting PVNTRACKS.
INFO in RapidHistWriter::setupTree : tree will be saved to file: Bc2BsStarMu_Bs2Dspi_tree.root
                                     This will slow down generation.
INFO in RapidBeamData::loadData : loading beam data from /afs/cern.ch/work/t/tmcgrath/private/lbdevs/Sim/RapidSim/config/beam.dat
INFO in RapidHistWriter::save : saving histograms to file: Bc2BsStarMu_Bs2Dspi_hists.root
INFO in rapidSim : Generated 100000
INFO in rapidSim : Selected 23557
INFO in rapidSim : 0.650 seconds to initialise.
INFO in rapidSim : 148.150 seconds to generate.
