-------------------------
Set LHCb Style - Feb 2012
-------------------------
Info in <TH1D::Chi2TestX>: There is a bin in h1 with less than 1 event.

Info in <TH1D::Chi2TestX>: There is a bin in h1 with less than 10 effective events.

Info in <TCanvas::Print>: png file ./Figs/Bs_PT_DsPi_5bins.png has been created
Info in <TCanvas::Print>: pdf file ./Figs/Bs_PT_DsPi_5bins.pdf has been created
Info in <TCanvas::SaveSource>: C++ Macro file: ./Figs/Bs_PT_DsPi_5bins.C has been generated
Info in <TH1D::Chi2TestX>: There is a bin in h1 with less than 1 event.

Info in <TH1D::Chi2TestX>: There is a bin in h2 with less than 10 effective events.

Info in <TH1D::Chi2TestX>: There is a bin in h1 with less than 10 effective events.

Info in <TH1D::Chi2TestX>: There is a bin in h2 with less than 10 effective events.

Info in <TCanvas::Print>: png file ./Figs/Bs_P_DsPi_5bins.png has been created
Info in <TCanvas::Print>: pdf file ./Figs/Bs_P_DsPi_5bins.pdf has been created
Info in <TCanvas::SaveSource>: C++ Macro file: ./Figs/Bs_P_DsPi_5bins.C has been generated
Info in <TH1D::Chi2TestX>: There is a bin in h1 with less than 1 event.

Info in <TH1D::Chi2TestX>: There is a bin in h2 with less than 10 effective events.

Info in <TH1D::Chi2TestX>: There is a bin in h1 with less than 10 effective events.

Info in <TH1D::Chi2TestX>: There is a bin in h2 with less than 10 effective events.

Info in <TCanvas::Print>: png file ./Figs/Bs_ETA_DsPi_5bins.png has been created
Info in <TCanvas::Print>: pdf file ./Figs/Bs_ETA_DsPi_5bins.pdf has been created
Info in <TCanvas::SaveSource>: C++ Macro file: ./Figs/Bs_ETA_DsPi_5bins.C has been generated
Info in <TH1D::Chi2TestX>: There is a bin in h1 with less than 1 event.

Info in <TH1D::Chi2TestX>: There is a bin in h1 with less than 10 effective events.

Info in <TCanvas::Print>: png file ./Figs/Bach_PT_DsPi_5bins.png has been created
Info in <TCanvas::Print>: pdf file ./Figs/Bach_PT_DsPi_5bins.pdf has been created
Info in <TCanvas::SaveSource>: C++ Macro file: ./Figs/Bach_PT_DsPi_5bins.C has been generated
Info in <TH1D::Chi2TestX>: There is a bin in h1 with less than 1 event.

Info in <TH1D::Chi2TestX>: There is a bin in h1 with less than 10 effective events.

Info in <TCanvas::Print>: png file ./Figs/Bach_P_DsPi_5bins.png has been created
Info in <TCanvas::Print>: pdf file ./Figs/Bach_P_DsPi_5bins.pdf has been created
Info in <TCanvas::SaveSource>: C++ Macro file: ./Figs/Bach_P_DsPi_5bins.C has been generated
Info in <TH1D::Chi2TestX>: There is a bin in h1 with less than 1 event.

Info in <TH1D::Chi2TestX>: There is a bin in h1 with less than 10 effective events.

Info in <TCanvas::Print>: png file ./Figs/Bach_ETA_DsPi_5bins.png has been created
Info in <TCanvas::Print>: pdf file ./Figs/Bach_ETA_DsPi_5bins.pdf has been created
Info in <TCanvas::SaveSource>: C++ Macro file: ./Figs/Bach_ETA_DsPi_5bins.C has been generated
Info in <TH1D::Chi2TestX>: There is a bin in h1 with less than 1 event.

Info in <TH1D::Chi2TestX>: There is a bin in h1 with less than 10 effective events.

Info in <TCanvas::Print>: png file ./Figs/Bc_PT_DsPi_5bins.png has been created
Info in <TCanvas::Print>: pdf file ./Figs/Bc_PT_DsPi_5bins.pdf has been created
Info in <TCanvas::SaveSource>: C++ Macro file: ./Figs/Bc_PT_DsPi_5bins.C has been generated
Info in <TH1D::Chi2TestX>: There is a bin in h1 with less than 1 event.

Info in <TH1D::Chi2TestX>: There is a bin in h2 with less than 10 effective events.

Info in <TH1D::Chi2TestX>: There is a bin in h1 with less than 10 effective events.

Info in <TH1D::Chi2TestX>: There is a bin in h2 with less than 10 effective events.

Info in <TCanvas::Print>: png file ./Figs/Bc_P_DsPi_5bins.png has been created
Info in <TCanvas::Print>: pdf file ./Figs/Bc_P_DsPi_5bins.pdf has been created
Info in <TCanvas::SaveSource>: C++ Macro file: ./Figs/Bc_P_DsPi_5bins.C has been generated
Info in <TH1D::Chi2TestX>: There is a bin in h1 with less than 1 event.

Info in <TH1D::Chi2TestX>: There is a bin in h2 with less than 10 effective events.

Info in <TH1D::Chi2TestX>: There is a bin in h1 with less than 10 effective events.

Info in <TH1D::Chi2TestX>: There is a bin in h2 with less than 10 effective events.

Info in <TCanvas::Print>: png file ./Figs/Bc_ETA_DsPi_5bins.png has been created
Info in <TCanvas::Print>: pdf file ./Figs/Bc_ETA_DsPi_5bins.pdf has been created
Info in <TCanvas::SaveSource>: C++ Macro file: ./Figs/Bc_ETA_DsPi_5bins.C has been generated
Info in <TCanvas::Print>: png file ./Figs/Bs_weights_for_norm_DsPi_5bins.png has been created
Info in <TCanvas::Print>: pdf file ./Figs/Bs_weights_for_norm_DsPi_5bins.pdf has been created
Info in <TCanvas::SaveSource>: C++ Macro file: ./Figs/Bs_weights_for_norm_DsPi_5bins.C has been generated
Info in <TCanvas::Print>: png file ./Figs/Bach_weights_for_norm_DsPi_5bins.png has been created
Info in <TCanvas::Print>: pdf file ./Figs/Bach_weights_for_norm_DsPi_5bins.pdf has been created
Info in <TCanvas::SaveSource>: C++ Macro file: ./Figs/Bach_weights_for_norm_DsPi_5bins.C has been generated
Info in <TCanvas::Print>: png file ./Figs/Bs_PT_DsPi_Comb_5bins.png has been created
Info in <TCanvas::Print>: pdf file ./Figs/Bs_PT_DsPi_Comb_5bins.pdf has been created
Info in <TCanvas::SaveSource>: C++ Macro file: ./Figs/Bs_PT_DsPi_Comb_5bins.C has been generated
Info in <TCanvas::Print>: png file ./Figs/Bs_P_DsPi_Comb_5bins.png has been created
Info in <TCanvas::Print>: pdf file ./Figs/Bs_P_DsPi_Comb_5bins.pdf has been created
Info in <TCanvas::SaveSource>: C++ Macro file: ./Figs/Bs_P_DsPi_Comb_5bins.C has been generated
Info in <TCanvas::Print>: png file ./Figs/Bs_ETA_DsPi_Comb_5bins.png has been created
Info in <TCanvas::Print>: pdf file ./Figs/Bs_ETA_DsPi_Comb_5bins.pdf has been created
Info in <TCanvas::SaveSource>: C++ Macro file: ./Figs/Bs_ETA_DsPi_Comb_5bins.C has been generated
Info in <TCanvas::Print>: png file ./Figs/Bach_PT_DsPi_Comb_5bins.png has been created
Info in <TCanvas::Print>: pdf file ./Figs/Bach_PT_DsPi_Comb_5bins.pdf has been created
Info in <TCanvas::SaveSource>: C++ Macro file: ./Figs/Bach_PT_DsPi_Comb_5bins.C has been generated
Info in <TCanvas::Print>: png file ./Figs/Bach_P_DsPi_Comb_5bins.png has been created
Info in <TCanvas::Print>: pdf file ./Figs/Bach_P_DsPi_Comb_5bins.pdf has been created
Info in <TCanvas::SaveSource>: C++ Macro file: ./Figs/Bach_P_DsPi_Comb_5bins.C has been generated
Info in <TCanvas::Print>: png file ./Figs/Bach_ETA_DsPi_Comb_5bins.png has been created
Info in <TCanvas::Print>: pdf file ./Figs/Bach_ETA_DsPi_Comb_5bins.pdf has been created
Info in <TCanvas::SaveSource>: C++ Macro file: ./Figs/Bach_ETA_DsPi_Comb_5bins.C has been generated
Info in <TCanvas::Print>: png file ./Figs/Bs_weights_for_comb_DsPi_5bins.png has been created
Info in <TCanvas::Print>: pdf file ./Figs/Bs_weights_for_comb_DsPi_5bins.pdf has been created
Info in <TCanvas::SaveSource>: C++ Macro file: ./Figs/Bs_weights_for_comb_DsPi_5bins.C has been generated
Info in <TCanvas::Print>: png file ./Figs/Bach_weights_for_comb_DsPi_5bins.png has been created
Info in <TCanvas::Print>: pdf file ./Figs/Bach_weights_for_comb_DsPi_5bins.pdf has been created
Info in <TCanvas::SaveSource>: C++ Macro file: ./Figs/Bach_weights_for_comb_DsPi_5bins.C has been generated
Info in <TH1D::Chi2TestX>: There is a bin in h1 with less than 1 event.

Info in <TH1D::Chi2TestX>: There is a bin in h1 with less than 10 effective events.

Info in <TCanvas::Print>: png file ./Figs/Bs_PT_JpsiPhi_5bins.png has been created
Info in <TCanvas::Print>: pdf file ./Figs/Bs_PT_JpsiPhi_5bins.pdf has been created
Info in <TCanvas::SaveSource>: C++ Macro file: ./Figs/Bs_PT_JpsiPhi_5bins.C has been generated
Info in <TH1D::Chi2TestX>: There is a bin in h1 with less than 1 event.

Info in <TH1D::Chi2TestX>: There is a bin in h1 with less than 10 effective events.

Info in <TCanvas::Print>: png file ./Figs/Bs_P_JpsiPhi_5bins.png has been created
Info in <TCanvas::Print>: pdf file ./Figs/Bs_P_JpsiPhi_5bins.pdf has been created
Info in <TCanvas::SaveSource>: C++ Macro file: ./Figs/Bs_P_JpsiPhi_5bins.C has been generated
Info in <TH1D::Chi2TestX>: There is a bin in h1 with less than 1 event.

Info in <TH1D::Chi2TestX>: There is a bin in h1 with less than 10 effective events.

Info in <TCanvas::Print>: png file ./Figs/Bs_ETA_JpsiPhi_5bins.png has been created
Info in <TCanvas::Print>: pdf file ./Figs/Bs_ETA_JpsiPhi_5bins.pdf has been created
Info in <TCanvas::SaveSource>: C++ Macro file: ./Figs/Bs_ETA_JpsiPhi_5bins.C has been generated
Info in <TH1D::Chi2TestX>: There is a bin in h1 with less than 1 event.

Info in <TH1D::Chi2TestX>: There is a bin in h1 with less than 10 effective events.

Info in <TCanvas::Print>: png file ./Figs/Bach_PT_JpsiPhi_5bins.png has been created
Info in <TCanvas::Print>: pdf file ./Figs/Bach_PT_JpsiPhi_5bins.pdf has been created
Info in <TCanvas::SaveSource>: C++ Macro file: ./Figs/Bach_PT_JpsiPhi_5bins.C has been generated
Info in <TH1D::Chi2TestX>: There is a bin in h1 with less than 1 event.

Info in <TH1D::Chi2TestX>: There is a bin in h1 with less than 10 effective events.

Info in <TCanvas::Print>: png file ./Figs/Bach_P_JpsiPhi_5bins.png has been created
Info in <TCanvas::Print>: pdf file ./Figs/Bach_P_JpsiPhi_5bins.pdf has been created
Info in <TCanvas::SaveSource>: C++ Macro file: ./Figs/Bach_P_JpsiPhi_5bins.C has been generated
Info in <TH1D::Chi2TestX>: There is a bin in h1 with less than 1 event.

Info in <TH1D::Chi2TestX>: There is a bin in h1 with less than 10 effective events.

Info in <TCanvas::Print>: png file ./Figs/Bach_ETA_JpsiPhi_5bins.png has been created
Info in <TCanvas::Print>: pdf file ./Figs/Bach_ETA_JpsiPhi_5bins.pdf has been created
Info in <TCanvas::SaveSource>: C++ Macro file: ./Figs/Bach_ETA_JpsiPhi_5bins.C has been generated
Info in <TH1D::Chi2TestX>: There is a bin in h1 with less than 1 event.

Info in <TH1D::Chi2TestX>: There is a bin in h1 with less than 10 effective events.

Info in <TCanvas::Print>: png file ./Figs/Bc_PT_JpsiPhi_5bins.png has been created
Info in <TCanvas::Print>: pdf file ./Figs/Bc_PT_JpsiPhi_5bins.pdf has been created
Info in <TCanvas::SaveSource>: C++ Macro file: ./Figs/Bc_PT_JpsiPhi_5bins.C has been generated
Info in <TH1D::Chi2TestX>: There is a bin in h1 with less than 1 event.

Info in <TH1D::Chi2TestX>: There is a bin in h1 with less than 10 effective events.

Info in <TCanvas::Print>: png file ./Figs/Bc_P_JpsiPhi_5bins.png has been created
Info in <TCanvas::Print>: pdf file ./Figs/Bc_P_JpsiPhi_5bins.pdf has been created
Info in <TCanvas::SaveSource>: C++ Macro file: ./Figs/Bc_P_JpsiPhi_5bins.C has been generated
Info in <TH1D::Chi2TestX>: There is a bin in h1 with less than 1 event.

Info in <TH1D::Chi2TestX>: There is a bin in h1 with less than 10 effective events.

Info in <TCanvas::Print>: png file ./Figs/Bc_ETA_JpsiPhi_5bins.png has been created
Info in <TCanvas::Print>: pdf file ./Figs/Bc_ETA_JpsiPhi_5bins.pdf has been created
Info in <TCanvas::SaveSource>: C++ Macro file: ./Figs/Bc_ETA_JpsiPhi_5bins.C has been generated
Info in <TCanvas::Print>: png file ./Figs/Bs_weights_for_norm_JpsiPhi_5bins.png has been created
Info in <TCanvas::Print>: pdf file ./Figs/Bs_weights_for_norm_JpsiPhi_5bins.pdf has been created
Info in <TCanvas::SaveSource>: C++ Macro file: ./Figs/Bs_weights_for_norm_JpsiPhi_5bins.C has been generated
Info in <TCanvas::Print>: png file ./Figs/Bach_weights_for_norm_JpsiPhi_5bins.png has been created
Info in <TCanvas::Print>: pdf file ./Figs/Bach_weights_for_norm_JpsiPhi_5bins.pdf has been created
Info in <TCanvas::SaveSource>: C++ Macro file: ./Figs/Bach_weights_for_norm_JpsiPhi_5bins.C has been generated
Info in <TCanvas::Print>: png file ./Figs/Bs_PT_JpsiPhi_Comb_5bins.png has been created
Info in <TCanvas::Print>: pdf file ./Figs/Bs_PT_JpsiPhi_Comb_5bins.pdf has been created
Info in <TCanvas::SaveSource>: C++ Macro file: ./Figs/Bs_PT_JpsiPhi_Comb_5bins.C has been generated
Info in <TCanvas::Print>: png file ./Figs/Bs_P_JpsiPhi_Comb_5bins.png has been created
Info in <TCanvas::Print>: pdf file ./Figs/Bs_P_JpsiPhi_Comb_5bins.pdf has been created
Info in <TCanvas::SaveSource>: C++ Macro file: ./Figs/Bs_P_JpsiPhi_Comb_5bins.C has been generated
Info in <TCanvas::Print>: png file ./Figs/Bs_ETA_JpsiPhi_Comb_5bins.png has been created
Info in <TCanvas::Print>: pdf file ./Figs/Bs_ETA_JpsiPhi_Comb_5bins.pdf has been created
Info in <TCanvas::SaveSource>: C++ Macro file: ./Figs/Bs_ETA_JpsiPhi_Comb_5bins.C has been generated
Info in <TCanvas::Print>: png file ./Figs/Bach_PT_JpsiPhi_Comb_5bins.png has been created
Info in <TCanvas::Print>: pdf file ./Figs/Bach_PT_JpsiPhi_Comb_5bins.pdf has been created
Info in <TCanvas::SaveSource>: C++ Macro file: ./Figs/Bach_PT_JpsiPhi_Comb_5bins.C has been generated
Info in <TCanvas::Print>: png file ./Figs/Bach_P_JpsiPhi_Comb_5bins.png has been created
Info in <TCanvas::Print>: pdf file ./Figs/Bach_P_JpsiPhi_Comb_5bins.pdf has been created
Info in <TCanvas::SaveSource>: C++ Macro file: ./Figs/Bach_P_JpsiPhi_Comb_5bins.C has been generated
Info in <TCanvas::Print>: png file ./Figs/Bach_ETA_JpsiPhi_Comb_5bins.png has been created
Info in <TCanvas::Print>: pdf file ./Figs/Bach_ETA_JpsiPhi_Comb_5bins.pdf has been created
Info in <TCanvas::SaveSource>: C++ Macro file: ./Figs/Bach_ETA_JpsiPhi_Comb_5bins.C has been generated
Info in <TCanvas::Print>: png file ./Figs/Bs_weights_for_comb_JpsiPhi_5bins.png has been created
Info in <TCanvas::Print>: pdf file ./Figs/Bs_weights_for_comb_JpsiPhi_5bins.pdf has been created
Info in <TCanvas::SaveSource>: C++ Macro file: ./Figs/Bs_weights_for_comb_JpsiPhi_5bins.C has been generated
Info in <TCanvas::Print>: png file ./Figs/Bach_weights_for_comb_JpsiPhi_5bins.png has been created
Info in <TCanvas::Print>: pdf file ./Figs/Bach_weights_for_comb_JpsiPhi_5bins.pdf has been created
Info in <TCanvas::SaveSource>: C++ Macro file: ./Figs/Bach_weights_for_comb_JpsiPhi_5bins.C has been generated
TH1D::Chi2TestX:0: RuntimeWarning: First histogram is not unweighted and option UW has been requested
TH1D::Chi2TestX:0: RuntimeWarning: Both histograms are not unweighted and option UU has been requested
TH1D::Chi2TestX:0: RuntimeWarning: First histogram is not unweighted and option UW has been requested
TH1D::Chi2TestX:0: RuntimeWarning: Both histograms are not unweighted and option UU has been requested
TH1D::Chi2TestX:0: RuntimeWarning: First histogram is not unweighted and option UW has been requested
TH1D::Chi2TestX:0: RuntimeWarning: Both histograms are not unweighted and option UU has been requested
TH1D::Chi2TestX:0: RuntimeWarning: First histogram is not unweighted and option UW has been requested
TH1D::Chi2TestX:0: RuntimeWarning: Both histograms are not unweighted and option UU has been requested
TH1D::Chi2TestX:0: RuntimeWarning: First histogram is not unweighted and option UW has been requested
TH1D::Chi2TestX:0: RuntimeWarning: Both histograms are not unweighted and option UU has been requested
TH1D::Chi2TestX:0: RuntimeWarning: First histogram is not unweighted and option UW has been requested
TH1D::Chi2TestX:0: RuntimeWarning: Both histograms are not unweighted and option UU has been requested
TH1D::Chi2TestX:0: RuntimeWarning: First histogram is not unweighted and option UW has been requested
TH1D::Chi2TestX:0: RuntimeWarning: Both histograms are not unweighted and option UU has been requested
TH1D::Chi2TestX:0: RuntimeWarning: First histogram is not unweighted and option UW has been requested
TH1D::Chi2TestX:0: RuntimeWarning: Both histograms are not unweighted and option UU has been requested
TH1D::Chi2TestX:0: RuntimeWarning: First histogram is not unweighted and option UW has been requested
TH1D::Chi2TestX:0: RuntimeWarning: Both histograms are not unweighted and option UU has been requested
TH1D::Chi2TestX:0: RuntimeWarning: First histogram is not unweighted and option UW has been requested
TH1D::Chi2TestX:0: RuntimeWarning: Both histograms are not unweighted and option UU has been requested
TH1D::Chi2TestX:0: RuntimeWarning: First histogram is not unweighted and option UW has been requested
TH1D::Chi2TestX:0: RuntimeWarning: Both histograms are not unweighted and option UU has been requested
TH1D::Chi2TestX:0: RuntimeWarning: First histogram is not unweighted and option UW has been requested
TH1D::Chi2TestX:0: RuntimeWarning: Both histograms are not unweighted and option UU has been requested
TH1D::Chi2TestX:0: RuntimeWarning: First histogram is not unweighted and option UW has been requested
TH1D::Chi2TestX:0: RuntimeWarning: Both histograms are not unweighted and option UU has been requested
TH1D::Chi2TestX:0: RuntimeWarning: First histogram is not unweighted and option UW has been requested
TH1D::Chi2TestX:0: RuntimeWarning: Both histograms are not unweighted and option UU has been requested
TH1D::Chi2TestX:0: RuntimeWarning: First histogram is not unweighted and option UW has been requested
TH1D::Chi2TestX:0: RuntimeWarning: Both histograms are not unweighted and option UU has been requested
TH1D::Chi2TestX:0: RuntimeWarning: First histogram is not unweighted and option UW has been requested
TH1D::Chi2TestX:0: RuntimeWarning: Both histograms are not unweighted and option UU has been requested
TH1D::Chi2TestX:0: RuntimeWarning: First histogram is not unweighted and option UW has been requested
TH1D::Chi2TestX:0: RuntimeWarning: Both histograms are not unweighted and option UU has been requested
TH1D::Chi2TestX:0: RuntimeWarning: First histogram is not unweighted and option UW has been requested
TH1D::Chi2TestX:0: RuntimeWarning: Both histograms are not unweighted and option UU has been requested
########################################
Plotting Bs and Bach weights!
########################################


Running for Bs2DsPi mode!

Loading dataframes......
Applying cuts to dataframes......
Applying cut: 6260.48 <= Bc_MDTF_M && Bc_MDTF_M <= 6288.98
Applying cut: 6298.45 <= Bc_MDTF_M && Bc_MDTF_M <= 8000
Applying cut: 6298.45 <= Bc_MDTF_M && Bc_MDTF_M <= 8000

Getting DF for bkg subtraction
Got range: 6298.45 <= Bc_MDTF_M && Bc_MDTF_M <= 6328.073306726957
Range (6260.48, 6288.98) under mass peak: 15.033547456220965
Range (6298.45, 6328.073306726957) sideband: 15.03354745622109


Plotting pT and eta plots......

Plotting for DsPi Bs_PT...
before: 99.0
Performing background subtraction
Entries in background 11.0
after: 88.0
Chi2 (UW): 0.016303944417319693, Chi2 (UU): -0.0, Chi2 (WW): 7.9697306396650145

Plotting for DsPi Bs_P...
before: 99.0
Performing background subtraction
Entries in background 11.0
after: 88.0
Chi2 (UW): 0.021471562967396156, Chi2 (UU): -0.0, Chi2 (WW): 2.7022217014488357

Plotting for DsPi Bs_ETA...
before: 99.0
Performing background subtraction
Entries in background 11.0
after: 88.0
Chi2 (UW): 0.05001985206228466, Chi2 (UU): -0.0, Chi2 (WW): 2.1962990713270676

Plotting for DsPi Bach_PT...
before: 99.0
Performing background subtraction
Entries in background 11.0
after: 88.0
Chi2 (UW): 0.02588300656847897, Chi2 (UU): -0.0, Chi2 (WW): 11.824091847666931

Plotting for DsPi Bach_P...
before: 98.0
Performing background subtraction
Entries in background 11.0
after: 87.0
Chi2 (UW): 0.019465191062828496, Chi2 (UU): -0.0, Chi2 (WW): 1.0103018739349665

Plotting for DsPi Bach_ETA...
before: 99.0
Performing background subtraction
Entries in background 11.0
after: 88.0
Chi2 (UW): 0.03499607703130734, Chi2 (UU): -0.0, Chi2 (WW): 4.736001308501339

Plotting for DsPi Bc_PT...
before: 99.0
Performing background subtraction
Entries in background 11.0
after: 88.0
Chi2 (UW): 0.007355351359285692, Chi2 (UU): -0.0, Chi2 (WW): 6.561153410848835

Plotting for DsPi Bc_P...
before: 99.0
Performing background subtraction
Entries in background 11.0
after: 88.0
Chi2 (UW): 0.013508338451233901, Chi2 (UU): -0.0, Chi2 (WW): 0.7728398148925687

Plotting for DsPi Bc_ETA...
before: 99.0
Performing background subtraction
Entries in background 11.0
after: 88.0
Chi2 (UW): 0.03838063126269973, Chi2 (UU): -0.0, Chi2 (WW): 2.0676501043396422

Making weights plot using of Bs for norm.....

Making weights plot using of Bach for norm.....

Making weights plot using of Bs for comb.....

Making weights plot using of Bach for comb.....
Saved file ./Weights/weights_histograms_DsPi_5bins.root
Running for Bs2JpsiPhi mode!

Loading dataframes......
Applying cuts to dataframes......
Applying cut: 6249.599999999999 <= Bc_MDTF_M && Bc_MDTF_M <= 6295.8
Applying cut: 6311.2 <= Bc_MDTF_M && Bc_MDTF_M <= 8000
Applying cut: 6311.2 <= Bc_MDTF_M && Bc_MDTF_M <= 8000

Getting DF for bkg subtraction
Got range: 6311.2 <= Bc_MDTF_M && Bc_MDTF_M <= 6358.707577302289
Range (6249.599999999999, 6295.8) under mass peak: 2406.132945883808
Range (6311.2, 6358.707577302289) sideband: 2406.1329458837945


Plotting pT and eta plots......

Plotting for JpsiPhi Bs_PT...
before: 228.0
Performing background subtraction
Entries in background 75.0
after: 153.0
Chi2 (UW): 0.009769684605267958, Chi2 (UU): -0.0, Chi2 (WW): 13.048181864862428

Plotting for JpsiPhi Bs_P...
before: 228.0
Performing background subtraction
Entries in background 75.0
after: 153.0
Chi2 (UW): 0.007756517698418926, Chi2 (UU): -0.0, Chi2 (WW): 38.79040083358549

Plotting for JpsiPhi Bs_ETA...
before: 227.0
Performing background subtraction
Entries in background 76.0
after: 151.0
Chi2 (UW): 0.004631667145278247, Chi2 (UU): -0.0, Chi2 (WW): 0.35595451115265037

Plotting for JpsiPhi Bach_PT...
before: 227.0
Performing background subtraction
Entries in background 76.0
after: 151.0
Chi2 (UW): 0.010901857154957686, Chi2 (UU): -0.0, Chi2 (WW): 35.675054440925784

Plotting for JpsiPhi Bach_P...
before: 227.0
Performing background subtraction
Entries in background 76.0
after: 151.0
Chi2 (UW): 0.0031588745746612386, Chi2 (UU): -0.0, Chi2 (WW): 0.24213506853615174

Plotting for JpsiPhi Bach_ETA...
before: 224.0
Performing background subtraction
Entries in background 75.0
after: 149.0
Chi2 (UW): 0.01678818395237033, Chi2 (UU): -0.0, Chi2 (WW): 1.2675317813516611

Plotting for JpsiPhi Bc_PT...
before: 228.0
Performing background subtraction
Entries in background 75.0
after: 153.0
Chi2 (UW): 0.0069179077231081645, Chi2 (UU): -0.0, Chi2 (WW): 0.7594286138868636

Plotting for JpsiPhi Bc_P...
before: 228.0
Performing background subtraction
Entries in background 75.0
after: 153.0
Chi2 (UW): 0.014343773948227775, Chi2 (UU): -0.0, Chi2 (WW): 23.439189793271304

Plotting for JpsiPhi Bc_ETA...
before: 227.0
Performing background subtraction
Entries in background 76.0
after: 151.0
Chi2 (UW): 0.009503504082801751, Chi2 (UU): -0.0, Chi2 (WW): 0.6403695119130682

Making weights plot using of Bs for norm.....

Making weights plot using of Bach for norm.....

Making weights plot using of Bs for comb.....

Making weights plot using of Bach for comb.....
Saved file ./Weights/weights_histograms_JpsiPhi_5bins.root
