Getting root files from text file....
Bachelor particle: Mu
Applying cuts to files......
Output filename: /eos/lhcb/user/t/tmcgrath/Bc2Bslnu_ana/MCReduced/Bs2JpsiPhi_MC_sim09h_2016_MU_reduced.root
Added file: root://eoslhcb.cern.ch//eos/lhcb/user/t/tmcgrath/Bc2Bslnu_ana/MC/Bs2JpsiPhi/2016/Bs2JpsiPhi_2016_MU_MC_job0_merged.root
Added file: root://eoslhcb.cern.ch//eos/lhcb/user/t/tmcgrath/Bc2Bslnu_ana/MC/Bs2JpsiPhi/2016/Bs2JpsiPhi_2016_MU_MC_job10_merged.root
Added file: root://eoslhcb.cern.ch//eos/lhcb/user/t/tmcgrath/Bc2Bslnu_ana/MC/Bs2JpsiPhi/2016/Bs2JpsiPhi_2016_MU_MC_job11_merged.root
Added file: root://eoslhcb.cern.ch//eos/lhcb/user/t/tmcgrath/Bc2Bslnu_ana/MC/Bs2JpsiPhi/2016/Bs2JpsiPhi_2016_MU_MC_job12_merged.root
Added file: root://eoslhcb.cern.ch//eos/lhcb/user/t/tmcgrath/Bc2Bslnu_ana/MC/Bs2JpsiPhi/2016/Bs2JpsiPhi_2016_MU_MC_job13_merged.root
Added file: root://eoslhcb.cern.ch//eos/lhcb/user/t/tmcgrath/Bc2Bslnu_ana/MC/Bs2JpsiPhi/2016/Bs2JpsiPhi_2016_MU_MC_job14_merged.root
Added file: root://eoslhcb.cern.ch//eos/lhcb/user/t/tmcgrath/Bc2Bslnu_ana/MC/Bs2JpsiPhi/2016/Bs2JpsiPhi_2016_MU_MC_job15_merged.root
Added file: root://eoslhcb.cern.ch//eos/lhcb/user/t/tmcgrath/Bc2Bslnu_ana/MC/Bs2JpsiPhi/2016/Bs2JpsiPhi_2016_MU_MC_job16_merged.root
Added file: root://eoslhcb.cern.ch//eos/lhcb/user/t/tmcgrath/Bc2Bslnu_ana/MC/Bs2JpsiPhi/2016/Bs2JpsiPhi_2016_MU_MC_job17_merged.root
Added file: root://eoslhcb.cern.ch//eos/lhcb/user/t/tmcgrath/Bc2Bslnu_ana/MC/Bs2JpsiPhi/2016/Bs2JpsiPhi_2016_MU_MC_job18_merged.root
Added file: root://eoslhcb.cern.ch//eos/lhcb/user/t/tmcgrath/Bc2Bslnu_ana/MC/Bs2JpsiPhi/2016/Bs2JpsiPhi_2016_MU_MC_job19_merged.root
Added file: root://eoslhcb.cern.ch//eos/lhcb/user/t/tmcgrath/Bc2Bslnu_ana/MC/Bs2JpsiPhi/2016/Bs2JpsiPhi_2016_MU_MC_job1_merged.root
Added file: root://eoslhcb.cern.ch//eos/lhcb/user/t/tmcgrath/Bc2Bslnu_ana/MC/Bs2JpsiPhi/2016/Bs2JpsiPhi_2016_MU_MC_job20_merged.root
Added file: root://eoslhcb.cern.ch//eos/lhcb/user/t/tmcgrath/Bc2Bslnu_ana/MC/Bs2JpsiPhi/2016/Bs2JpsiPhi_2016_MU_MC_job21_merged.root
Added file: root://eoslhcb.cern.ch//eos/lhcb/user/t/tmcgrath/Bc2Bslnu_ana/MC/Bs2JpsiPhi/2016/Bs2JpsiPhi_2016_MU_MC_job22_merged.root
Added file: root://eoslhcb.cern.ch//eos/lhcb/user/t/tmcgrath/Bc2Bslnu_ana/MC/Bs2JpsiPhi/2016/Bs2JpsiPhi_2016_MU_MC_job23_merged.root
Added file: root://eoslhcb.cern.ch//eos/lhcb/user/t/tmcgrath/Bc2Bslnu_ana/MC/Bs2JpsiPhi/2016/Bs2JpsiPhi_2016_MU_MC_job24_merged.root
Added file: root://eoslhcb.cern.ch//eos/lhcb/user/t/tmcgrath/Bc2Bslnu_ana/MC/Bs2JpsiPhi/2016/Bs2JpsiPhi_2016_MU_MC_job25_merged.root
Added file: root://eoslhcb.cern.ch//eos/lhcb/user/t/tmcgrath/Bc2Bslnu_ana/MC/Bs2JpsiPhi/2016/Bs2JpsiPhi_2016_MU_MC_job26_merged.root
Added file: root://eoslhcb.cern.ch//eos/lhcb/user/t/tmcgrath/Bc2Bslnu_ana/MC/Bs2JpsiPhi/2016/Bs2JpsiPhi_2016_MU_MC_job27_merged.root
Added file: root://eoslhcb.cern.ch//eos/lhcb/user/t/tmcgrath/Bc2Bslnu_ana/MC/Bs2JpsiPhi/2016/Bs2JpsiPhi_2016_MU_MC_job28_merged.root
Added file: root://eoslhcb.cern.ch//eos/lhcb/user/t/tmcgrath/Bc2Bslnu_ana/MC/Bs2JpsiPhi/2016/Bs2JpsiPhi_2016_MU_MC_job29_merged.root
Added file: root://eoslhcb.cern.ch//eos/lhcb/user/t/tmcgrath/Bc2Bslnu_ana/MC/Bs2JpsiPhi/2016/Bs2JpsiPhi_2016_MU_MC_job2_merged.root
Added file: root://eoslhcb.cern.ch//eos/lhcb/user/t/tmcgrath/Bc2Bslnu_ana/MC/Bs2JpsiPhi/2016/Bs2JpsiPhi_2016_MU_MC_job30_merged.root
Added file: root://eoslhcb.cern.ch//eos/lhcb/user/t/tmcgrath/Bc2Bslnu_ana/MC/Bs2JpsiPhi/2016/Bs2JpsiPhi_2016_MU_MC_job31_merged.root
Added file: root://eoslhcb.cern.ch//eos/lhcb/user/t/tmcgrath/Bc2Bslnu_ana/MC/Bs2JpsiPhi/2016/Bs2JpsiPhi_2016_MU_MC_job32_merged.root
Added file: root://eoslhcb.cern.ch//eos/lhcb/user/t/tmcgrath/Bc2Bslnu_ana/MC/Bs2JpsiPhi/2016/Bs2JpsiPhi_2016_MU_MC_job33_merged.root
Added file: root://eoslhcb.cern.ch//eos/lhcb/user/t/tmcgrath/Bc2Bslnu_ana/MC/Bs2JpsiPhi/2016/Bs2JpsiPhi_2016_MU_MC_job34_merged.root
Added file: root://eoslhcb.cern.ch//eos/lhcb/user/t/tmcgrath/Bc2Bslnu_ana/MC/Bs2JpsiPhi/2016/Bs2JpsiPhi_2016_MU_MC_job35_merged.root
Added file: root://eoslhcb.cern.ch//eos/lhcb/user/t/tmcgrath/Bc2Bslnu_ana/MC/Bs2JpsiPhi/2016/Bs2JpsiPhi_2016_MU_MC_job36_merged.root
Added file: root://eoslhcb.cern.ch//eos/lhcb/user/t/tmcgrath/Bc2Bslnu_ana/MC/Bs2JpsiPhi/2016/Bs2JpsiPhi_2016_MU_MC_job37_merged.root
Added file: root://eoslhcb.cern.ch//eos/lhcb/user/t/tmcgrath/Bc2Bslnu_ana/MC/Bs2JpsiPhi/2016/Bs2JpsiPhi_2016_MU_MC_job38_merged.root
Added file: root://eoslhcb.cern.ch//eos/lhcb/user/t/tmcgrath/Bc2Bslnu_ana/MC/Bs2JpsiPhi/2016/Bs2JpsiPhi_2016_MU_MC_job39_merged.root
Added file: root://eoslhcb.cern.ch//eos/lhcb/user/t/tmcgrath/Bc2Bslnu_ana/MC/Bs2JpsiPhi/2016/Bs2JpsiPhi_2016_MU_MC_job3_merged.root
Added file: root://eoslhcb.cern.ch//eos/lhcb/user/t/tmcgrath/Bc2Bslnu_ana/MC/Bs2JpsiPhi/2016/Bs2JpsiPhi_2016_MU_MC_job40_merged.root
Added file: root://eoslhcb.cern.ch//eos/lhcb/user/t/tmcgrath/Bc2Bslnu_ana/MC/Bs2JpsiPhi/2016/Bs2JpsiPhi_2016_MU_MC_job41_merged.root
Added file: root://eoslhcb.cern.ch//eos/lhcb/user/t/tmcgrath/Bc2Bslnu_ana/MC/Bs2JpsiPhi/2016/Bs2JpsiPhi_2016_MU_MC_job42_merged.root
Added file: root://eoslhcb.cern.ch//eos/lhcb/user/t/tmcgrath/Bc2Bslnu_ana/MC/Bs2JpsiPhi/2016/Bs2JpsiPhi_2016_MU_MC_job43_merged.root
Added file: root://eoslhcb.cern.ch//eos/lhcb/user/t/tmcgrath/Bc2Bslnu_ana/MC/Bs2JpsiPhi/2016/Bs2JpsiPhi_2016_MU_MC_job44_merged.root
Added file: root://eoslhcb.cern.ch//eos/lhcb/user/t/tmcgrath/Bc2Bslnu_ana/MC/Bs2JpsiPhi/2016/Bs2JpsiPhi_2016_MU_MC_job45_merged.root
Added file: root://eoslhcb.cern.ch//eos/lhcb/user/t/tmcgrath/Bc2Bslnu_ana/MC/Bs2JpsiPhi/2016/Bs2JpsiPhi_2016_MU_MC_job46_merged.root
Added file: root://eoslhcb.cern.ch//eos/lhcb/user/t/tmcgrath/Bc2Bslnu_ana/MC/Bs2JpsiPhi/2016/Bs2JpsiPhi_2016_MU_MC_job47_merged.root
Added file: root://eoslhcb.cern.ch//eos/lhcb/user/t/tmcgrath/Bc2Bslnu_ana/MC/Bs2JpsiPhi/2016/Bs2JpsiPhi_2016_MU_MC_job48_merged.root
Added file: root://eoslhcb.cern.ch//eos/lhcb/user/t/tmcgrath/Bc2Bslnu_ana/MC/Bs2JpsiPhi/2016/Bs2JpsiPhi_2016_MU_MC_job49_merged.root
Added file: root://eoslhcb.cern.ch//eos/lhcb/user/t/tmcgrath/Bc2Bslnu_ana/MC/Bs2JpsiPhi/2016/Bs2JpsiPhi_2016_MU_MC_job4_merged.root
Added file: root://eoslhcb.cern.ch//eos/lhcb/user/t/tmcgrath/Bc2Bslnu_ana/MC/Bs2JpsiPhi/2016/Bs2JpsiPhi_2016_MU_MC_job50_merged.root
Added file: root://eoslhcb.cern.ch//eos/lhcb/user/t/tmcgrath/Bc2Bslnu_ana/MC/Bs2JpsiPhi/2016/Bs2JpsiPhi_2016_MU_MC_job51_merged.root
Added file: root://eoslhcb.cern.ch//eos/lhcb/user/t/tmcgrath/Bc2Bslnu_ana/MC/Bs2JpsiPhi/2016/Bs2JpsiPhi_2016_MU_MC_job52_merged.root
Added file: root://eoslhcb.cern.ch//eos/lhcb/user/t/tmcgrath/Bc2Bslnu_ana/MC/Bs2JpsiPhi/2016/Bs2JpsiPhi_2016_MU_MC_job53_merged.root
Added file: root://eoslhcb.cern.ch//eos/lhcb/user/t/tmcgrath/Bc2Bslnu_ana/MC/Bs2JpsiPhi/2016/Bs2JpsiPhi_2016_MU_MC_job54_merged.root
Added file: root://eoslhcb.cern.ch//eos/lhcb/user/t/tmcgrath/Bc2Bslnu_ana/MC/Bs2JpsiPhi/2016/Bs2JpsiPhi_2016_MU_MC_job55_merged.root
Added file: root://eoslhcb.cern.ch//eos/lhcb/user/t/tmcgrath/Bc2Bslnu_ana/MC/Bs2JpsiPhi/2016/Bs2JpsiPhi_2016_MU_MC_job56_merged.root
Added file: root://eoslhcb.cern.ch//eos/lhcb/user/t/tmcgrath/Bc2Bslnu_ana/MC/Bs2JpsiPhi/2016/Bs2JpsiPhi_2016_MU_MC_job57_merged.root
Added file: root://eoslhcb.cern.ch//eos/lhcb/user/t/tmcgrath/Bc2Bslnu_ana/MC/Bs2JpsiPhi/2016/Bs2JpsiPhi_2016_MU_MC_job58_merged.root
Added file: root://eoslhcb.cern.ch//eos/lhcb/user/t/tmcgrath/Bc2Bslnu_ana/MC/Bs2JpsiPhi/2016/Bs2JpsiPhi_2016_MU_MC_job59_merged.root
Added file: root://eoslhcb.cern.ch//eos/lhcb/user/t/tmcgrath/Bc2Bslnu_ana/MC/Bs2JpsiPhi/2016/Bs2JpsiPhi_2016_MU_MC_job5_merged.root
Added file: root://eoslhcb.cern.ch//eos/lhcb/user/t/tmcgrath/Bc2Bslnu_ana/MC/Bs2JpsiPhi/2016/Bs2JpsiPhi_2016_MU_MC_job60_merged.root
Added file: root://eoslhcb.cern.ch//eos/lhcb/user/t/tmcgrath/Bc2Bslnu_ana/MC/Bs2JpsiPhi/2016/Bs2JpsiPhi_2016_MU_MC_job61_merged.root
Added file: root://eoslhcb.cern.ch//eos/lhcb/user/t/tmcgrath/Bc2Bslnu_ana/MC/Bs2JpsiPhi/2016/Bs2JpsiPhi_2016_MU_MC_job62_merged.root
Added file: root://eoslhcb.cern.ch//eos/lhcb/user/t/tmcgrath/Bc2Bslnu_ana/MC/Bs2JpsiPhi/2016/Bs2JpsiPhi_2016_MU_MC_job63_merged.root
Added file: root://eoslhcb.cern.ch//eos/lhcb/user/t/tmcgrath/Bc2Bslnu_ana/MC/Bs2JpsiPhi/2016/Bs2JpsiPhi_2016_MU_MC_job64_merged.root
Added file: root://eoslhcb.cern.ch//eos/lhcb/user/t/tmcgrath/Bc2Bslnu_ana/MC/Bs2JpsiPhi/2016/Bs2JpsiPhi_2016_MU_MC_job65_merged.root
Added file: root://eoslhcb.cern.ch//eos/lhcb/user/t/tmcgrath/Bc2Bslnu_ana/MC/Bs2JpsiPhi/2016/Bs2JpsiPhi_2016_MU_MC_job66_merged.root
Added file: root://eoslhcb.cern.ch//eos/lhcb/user/t/tmcgrath/Bc2Bslnu_ana/MC/Bs2JpsiPhi/2016/Bs2JpsiPhi_2016_MU_MC_job67_merged.root
Added file: root://eoslhcb.cern.ch//eos/lhcb/user/t/tmcgrath/Bc2Bslnu_ana/MC/Bs2JpsiPhi/2016/Bs2JpsiPhi_2016_MU_MC_job68_merged.root
Added file: root://eoslhcb.cern.ch//eos/lhcb/user/t/tmcgrath/Bc2Bslnu_ana/MC/Bs2JpsiPhi/2016/Bs2JpsiPhi_2016_MU_MC_job69_merged.root
Added file: root://eoslhcb.cern.ch//eos/lhcb/user/t/tmcgrath/Bc2Bslnu_ana/MC/Bs2JpsiPhi/2016/Bs2JpsiPhi_2016_MU_MC_job6_merged.root
Added file: root://eoslhcb.cern.ch//eos/lhcb/user/t/tmcgrath/Bc2Bslnu_ana/MC/Bs2JpsiPhi/2016/Bs2JpsiPhi_2016_MU_MC_job70_merged.root
Added file: root://eoslhcb.cern.ch//eos/lhcb/user/t/tmcgrath/Bc2Bslnu_ana/MC/Bs2JpsiPhi/2016/Bs2JpsiPhi_2016_MU_MC_job71_merged.root
Added file: root://eoslhcb.cern.ch//eos/lhcb/user/t/tmcgrath/Bc2Bslnu_ana/MC/Bs2JpsiPhi/2016/Bs2JpsiPhi_2016_MU_MC_job72_merged.root
Added file: root://eoslhcb.cern.ch//eos/lhcb/user/t/tmcgrath/Bc2Bslnu_ana/MC/Bs2JpsiPhi/2016/Bs2JpsiPhi_2016_MU_MC_job73_merged.root
Added file: root://eoslhcb.cern.ch//eos/lhcb/user/t/tmcgrath/Bc2Bslnu_ana/MC/Bs2JpsiPhi/2016/Bs2JpsiPhi_2016_MU_MC_job74_merged.root
Added file: root://eoslhcb.cern.ch//eos/lhcb/user/t/tmcgrath/Bc2Bslnu_ana/MC/Bs2JpsiPhi/2016/Bs2JpsiPhi_2016_MU_MC_job75_merged.root
Added file: root://eoslhcb.cern.ch//eos/lhcb/user/t/tmcgrath/Bc2Bslnu_ana/MC/Bs2JpsiPhi/2016/Bs2JpsiPhi_2016_MU_MC_job76_merged.root
Added file: root://eoslhcb.cern.ch//eos/lhcb/user/t/tmcgrath/Bc2Bslnu_ana/MC/Bs2JpsiPhi/2016/Bs2JpsiPhi_2016_MU_MC_job77_merged.root
Added file: root://eoslhcb.cern.ch//eos/lhcb/user/t/tmcgrath/Bc2Bslnu_ana/MC/Bs2JpsiPhi/2016/Bs2JpsiPhi_2016_MU_MC_job78_merged.root
Added file: root://eoslhcb.cern.ch//eos/lhcb/user/t/tmcgrath/Bc2Bslnu_ana/MC/Bs2JpsiPhi/2016/Bs2JpsiPhi_2016_MU_MC_job79_merged.root
Added file: root://eoslhcb.cern.ch//eos/lhcb/user/t/tmcgrath/Bc2Bslnu_ana/MC/Bs2JpsiPhi/2016/Bs2JpsiPhi_2016_MU_MC_job7_merged.root
Added file: root://eoslhcb.cern.ch//eos/lhcb/user/t/tmcgrath/Bc2Bslnu_ana/MC/Bs2JpsiPhi/2016/Bs2JpsiPhi_2016_MU_MC_job80_merged.root
Added file: root://eoslhcb.cern.ch//eos/lhcb/user/t/tmcgrath/Bc2Bslnu_ana/MC/Bs2JpsiPhi/2016/Bs2JpsiPhi_2016_MU_MC_job81_merged.root
Added file: root://eoslhcb.cern.ch//eos/lhcb/user/t/tmcgrath/Bc2Bslnu_ana/MC/Bs2JpsiPhi/2016/Bs2JpsiPhi_2016_MU_MC_job82_merged.root
Added file: root://eoslhcb.cern.ch//eos/lhcb/user/t/tmcgrath/Bc2Bslnu_ana/MC/Bs2JpsiPhi/2016/Bs2JpsiPhi_2016_MU_MC_job83_merged.root
Added file: root://eoslhcb.cern.ch//eos/lhcb/user/t/tmcgrath/Bc2Bslnu_ana/MC/Bs2JpsiPhi/2016/Bs2JpsiPhi_2016_MU_MC_job84_merged.root
Added file: root://eoslhcb.cern.ch//eos/lhcb/user/t/tmcgrath/Bc2Bslnu_ana/MC/Bs2JpsiPhi/2016/Bs2JpsiPhi_2016_MU_MC_job85_merged.root
Added file: root://eoslhcb.cern.ch//eos/lhcb/user/t/tmcgrath/Bc2Bslnu_ana/MC/Bs2JpsiPhi/2016/Bs2JpsiPhi_2016_MU_MC_job86_merged.root
Added file: root://eoslhcb.cern.ch//eos/lhcb/user/t/tmcgrath/Bc2Bslnu_ana/MC/Bs2JpsiPhi/2016/Bs2JpsiPhi_2016_MU_MC_job87_merged.root
Added file: root://eoslhcb.cern.ch//eos/lhcb/user/t/tmcgrath/Bc2Bslnu_ana/MC/Bs2JpsiPhi/2016/Bs2JpsiPhi_2016_MU_MC_job88_merged.root
Added file: root://eoslhcb.cern.ch//eos/lhcb/user/t/tmcgrath/Bc2Bslnu_ana/MC/Bs2JpsiPhi/2016/Bs2JpsiPhi_2016_MU_MC_job89_merged.root
Added file: root://eoslhcb.cern.ch//eos/lhcb/user/t/tmcgrath/Bc2Bslnu_ana/MC/Bs2JpsiPhi/2016/Bs2JpsiPhi_2016_MU_MC_job8_merged.root
Added file: root://eoslhcb.cern.ch//eos/lhcb/user/t/tmcgrath/Bc2Bslnu_ana/MC/Bs2JpsiPhi/2016/Bs2JpsiPhi_2016_MU_MC_job90_merged.root
Added file: root://eoslhcb.cern.ch//eos/lhcb/user/t/tmcgrath/Bc2Bslnu_ana/MC/Bs2JpsiPhi/2016/Bs2JpsiPhi_2016_MU_MC_job91_merged.root
Added file: root://eoslhcb.cern.ch//eos/lhcb/user/t/tmcgrath/Bc2Bslnu_ana/MC/Bs2JpsiPhi/2016/Bs2JpsiPhi_2016_MU_MC_job92_merged.root
Added file: root://eoslhcb.cern.ch//eos/lhcb/user/t/tmcgrath/Bc2Bslnu_ana/MC/Bs2JpsiPhi/2016/Bs2JpsiPhi_2016_MU_MC_job93_merged.root
Added file: root://eoslhcb.cern.ch//eos/lhcb/user/t/tmcgrath/Bc2Bslnu_ana/MC/Bs2JpsiPhi/2016/Bs2JpsiPhi_2016_MU_MC_job9_merged.root
{ "Bc_ETA", "Bc_LOKI_IPCHI2", "Bc_Y", "Bc_ENDVERTEX_X", "Bc_ENDVERTEX_Y", "Bc_ENDVERTEX_Z", "Bc_ENDVERTEX_XERR", "Bc_ENDVERTEX_YERR", "Bc_ENDVERTEX_ZERR", "Bc_ENDVERTEX_CHI2", "Bc_ENDVERTEX_NDOF", "Bc_ENDVERTEX_COV_", "Bc_OWNPV_X", "Bc_OWNPV_Y", "Bc_OWNPV_Z", "Bc_OWNPV_XERR", "Bc_OWNPV_YERR", "Bc_OWNPV_ZERR", "Bc_OWNPV_CHI2", "Bc_OWNPV_NDOF", "Bc_OWNPV_COV_", "Bc_IP_OWNPV", "Bc_IPCHI2_OWNPV", "Bc_FD_OWNPV", "Bc_FDCHI2_OWNPV", "Bc_DIRA_OWNPV", "Bc_P", "Bc_PT", "Bc_PE", "Bc_PX", "Bc_PY", "Bc_PZ", "Bc_REFPX", "Bc_REFPY", "Bc_REFPZ", "Bc_MM", "Bc_MMERR", "Bc_M", "Bc_BKGCAT", "Bc_TRUEID", "Bc_MC_MOTHER_ID", "Bc_MC_MOTHER_KEY", "Bc_MC_GD_MOTHER_ID", "Bc_MC_GD_MOTHER_KEY", "Bc_MC_GD_GD_MOTHER_ID", "Bc_MC_GD_GD_MOTHER_KEY", "Bc_TRUEP_E", "Bc_TRUEP_X", "Bc_TRUEP_Y", "Bc_TRUEP_Z", "Bc_TRUEPT", "Bc_TRUEORIGINVERTEX_X", "Bc_TRUEORIGINVERTEX_Y", "Bc_TRUEORIGINVERTEX_Z", "Bc_TRUEENDVERTEX_X", "Bc_TRUEENDVERTEX_Y", "Bc_TRUEENDVERTEX_Z", "Bc_TRUEISSTABLE", "Bc_TRUETAU", "Bc_Reconstructible", "Bc_Reconstructed", "Bc_ProtoParticles", "Bc_PP_PX", "Bc_PP_PY", "Bc_PP_PZ", "Bc_PP_Weight", "Bc_PP_tr_pchi2", "Bc_PP_DLLe", "Bc_PP_DLLk", "Bc_PP_DLLp", "Bc_PP_DLLmu", "Bc_OVrefit_status", "Bc_OVrefit_ENDVERTEX_NDOF", "Bc_OVrefit_ENDVERTEX_CHI2", "Bc_OVrefit_MM", "Bc_OVrefit_MMERR", "Bc_OVrefit_P", "Bc_OVrefit_PT", "Bc_OVrefit_PE", "Bc_OVrefit_PX", "Bc_OVrefit_PY", "Bc_OVrefit_PZ", "Bc_OVrefit_TAU", "Bc_OVrefit_TAUERR", "Bc_OVrefit_TAUCHI2", "Bc_ID", "Bc_TAU", "Bc_TAUERR", "Bc_TAUCHI2", "Bc_CORR_M", "Bc_Cone_ANGLE", "Bc_Cone_MULT", "Bc_Cone_P", "Bc_Cone_PT", "Bc_Cone_PX", "Bc_Cone_PY", "Bc_Cone_PZ", "Bc_Cone_asy_P", "Bc_Cone_asy_PT", "Bc_Cone_asy_PX", "Bc_Cone_asy_PY", "Bc_Cone_asy_PZ", "Bc_Cone_deltaEta", "Bc_Cone_deltaPhi", "Bc_LOKI_DIRA", "Bc_LOKI_FDCHI2", "Bc_LOKI_FDS", "Bc_LV01", "Bc_LV02", "Bc_NC_IT_0_4", "Bc_NC_MULT_0_4", "Bc_NC_PX_0_4", "Bc_NC_PY_0_4", "Bc_NC_PZ_0_4", "Bc_NC_asy_PT_0_4", "Bc_NC_asy_PX_0_4", "Bc_NC_asy_PY_0_4", "Bc_NC_asy_PZ_0_4", "Bc_NC_asy_P_0_4", "Bc_NC_deltaEta_0_4", "Bc_NC_deltaPhi_0_4", "Bc_NC_maxPt_PT_0_4", "Bc_NC_maxPt_PX_0_4", "Bc_NC_maxPt_PY_0_4", "Bc_NC_maxPt_PZ_0_4", "Bc_NC_sPT_0_4", "Bc_NC_vPT_0_4", "Bc_is_from_Bc_BsMuNu", "Bc_is_from_Bc_BsPi", "Bc_MassFit_nPV", "Bc_MassFit_B_s0_M", "Bc_MassFit_B_s0_MERR", "Bc_MassFit_B_s0_P", "Bc_MassFit_B_s0_PERR", "Bc_MassFit_B_s0_ctau", "Bc_MassFit_B_s0_ctauErr", "Bc_MassFit_B_s0_decayLength", "Bc_MassFit_B_s0_decayLengthErr", "Bc_MassFit_J_psi_1S_M", "Bc_MassFit_J_psi_1S_MERR", "Bc_MassFit_J_psi_1S_P", "Bc_MassFit_J_psi_1S_PERR", "Bc_MassFit_J_psi_1S_ctau", "Bc_MassFit_J_psi_1S_ctauErr", "Bc_MassFit_J_psi_1S_decayLength", "Bc_MassFit_J_psi_1S_decayLengthErr", "Bc_MassFit_M", "Bc_MassFit_MERR", "Bc_MassFit_P", "Bc_MassFit_PERR", "Bc_MassFit_chi2", "Bc_MassFit_nDOF", "Bc_MassFit_nIter", "Bc_MassFit_phi_1020_M", "Bc_MassFit_phi_1020_MERR", "Bc_MassFit_phi_1020_P", "Bc_MassFit_phi_1020_PERR", "Bc_MassFit_phi_1020_ctau", "Bc_MassFit_phi_1020_ctauErr", "Bc_MassFit_phi_1020_decayLength", "Bc_MassFit_phi_1020_decayLengthErr", "Bc_MassFit_status", "Bc_PVFit_nPV", "Bc_PVFit_B_s0_M", "Bc_PVFit_B_s0_MERR", "Bc_PVFit_B_s0_P", "Bc_PVFit_B_s0_PERR", "Bc_PVFit_B_s0_ctau", "Bc_PVFit_B_s0_ctauErr", "Bc_PVFit_B_s0_decayLength", "Bc_PVFit_B_s0_decayLengthErr", "Bc_PVFit_J_psi_1S_M", "Bc_PVFit_J_psi_1S_MERR", "Bc_PVFit_J_psi_1S_P", "Bc_PVFit_J_psi_1S_PERR", "Bc_PVFit_J_psi_1S_ctau", "Bc_PVFit_J_psi_1S_ctauErr", "Bc_PVFit_J_psi_1S_decayLength", "Bc_PVFit_J_psi_1S_decayLengthErr", "Bc_PVFit_M", "Bc_PVFit_MERR", "Bc_PVFit_P", "Bc_PVFit_PERR", "Bc_PVFit_PV_X", "Bc_PVFit_PV_Y", "Bc_PVFit_PV_Z", "Bc_PVFit_PV_key", "Bc_PVFit_chi2", "Bc_PVFit_ctau", "Bc_PVFit_ctauErr", "Bc_PVFit_decayLength", "Bc_PVFit_decayLengthErr", "Bc_PVFit_nDOF", "Bc_PVFit_nIter", "Bc_PVFit_phi_1020_M", "Bc_PVFit_phi_1020_MERR", "Bc_PVFit_phi_1020_P", "Bc_PVFit_phi_1020_PERR", "Bc_PVFit_phi_1020_ctau", "Bc_PVFit_phi_1020_ctauErr", "Bc_PVFit_phi_1020_decayLength", "Bc_PVFit_phi_1020_decayLengthErr", "Bc_PVFit_status", "Bc_L0Global_Dec", "Bc_L0Global_TIS", "Bc_L0Global_TOS", "Bc_Hlt1Global_Dec", "Bc_Hlt1Global_TIS", "Bc_Hlt1Global_TOS", "Bc_Hlt1Phys_Dec", "Bc_Hlt1Phys_TIS", "Bc_Hlt1Phys_TOS", "Bc_Hlt2Global_Dec", "Bc_Hlt2Global_TIS", "Bc_Hlt2Global_TOS", "Bc_Hlt2Phys_Dec", "Bc_Hlt2Phys_TIS", "Bc_Hlt2Phys_TOS", "Bc_L0MuonDecision_Dec", "Bc_L0MuonDecision_TIS", "Bc_L0MuonDecision_TOS", "Bc_L0DiMuonDecision_Dec", "Bc_L0DiMuonDecision_TIS", "Bc_L0DiMuonDecision_TOS", "Bc_L0MuonHighDecision_Dec", "Bc_L0MuonHighDecision_TIS", "Bc_L0MuonHighDecision_TOS", "Bc_L0HadronDecision_Dec", "Bc_L0HadronDecision_TIS", "Bc_L0HadronDecision_TOS", "Bc_L0PhotonDecision_Dec", "Bc_L0PhotonDecision_TIS", "Bc_L0PhotonDecision_TOS", "Bc_Hlt1DiMuonHighMassDecision_Dec", "Bc_Hlt1DiMuonHighMassDecision_TIS", "Bc_Hlt1DiMuonHighMassDecision_TOS", "Bc_Hlt1DiMuonLowMassDecision_Dec", "Bc_Hlt1DiMuonLowMassDecision_TIS", "Bc_Hlt1DiMuonLowMassDecision_TOS", "Bc_Hlt1SingleMuonNoIPDecision_Dec", "Bc_Hlt1SingleMuonNoIPDecision_TIS", "Bc_Hlt1SingleMuonNoIPDecision_TOS", "Bc_Hlt1SingleMuonHighPTDecision_Dec", "Bc_Hlt1SingleMuonHighPTDecision_TIS", "Bc_Hlt1SingleMuonHighPTDecision_TOS", "Bc_Hlt1TrackAllL0Decision_Dec", "Bc_Hlt1TrackAllL0Decision_TIS", "Bc_Hlt1TrackAllL0Decision_TOS", "Bc_Hlt1TrackMuonDecision_Dec", "Bc_Hlt1TrackMuonDecision_TIS", "Bc_Hlt1TrackMuonDecision_TOS", "Bc_Hlt1TrackPhotonDecision_Dec", "Bc_Hlt1TrackPhotonDecision_TIS", "Bc_Hlt1TrackPhotonDecision_TOS", "Bc_Hlt2Topo2BodyDecision_Dec", "Bc_Hlt2Topo2BodyDecision_TIS", "Bc_Hlt2Topo2BodyDecision_TOS", "Bc_Hlt2Topo3BodyDecision_Dec", "Bc_Hlt2Topo3BodyDecision_TIS", "Bc_Hlt2Topo3BodyDecision_TOS", "Bc_Hlt2Topo4BodyDecision_Dec", "Bc_Hlt2Topo4BodyDecision_TIS", "Bc_Hlt2Topo4BodyDecision_TOS", "Bc_Hlt2TopoMu2BodyDecision_Dec", "Bc_Hlt2TopoMu2BodyDecision_TIS", "Bc_Hlt2TopoMu2BodyDecision_TOS", "Bc_Hlt2TopoMu3BodyDecision_Dec", "Bc_Hlt2TopoMu3BodyDecision_TIS", "Bc_Hlt2TopoMu3BodyDecision_TOS", "Bc_Hlt2TopoMu4BodyDecision_Dec", "Bc_Hlt2TopoMu4BodyDecision_TIS", "Bc_Hlt2TopoMu4BodyDecision_TOS", "Bc_Hlt2DiMuonDecision_Dec", "Bc_Hlt2DiMuonDecision_TIS", "Bc_Hlt2DiMuonDecision_TOS", "Bc_Hlt2DiMuonLowMassDecision_Dec", "Bc_Hlt2DiMuonLowMassDecision_TIS", "Bc_Hlt2DiMuonLowMassDecision_TOS", "Bc_Hlt2DiMuonJPsiDecision_Dec", "Bc_Hlt2DiMuonJPsiDecision_TIS", "Bc_Hlt2DiMuonJPsiDecision_TOS", "Bc_Hlt2DiMuonJPsiHighPTDecision_Dec", "Bc_Hlt2DiMuonJPsiHighPTDecision_TIS", "Bc_Hlt2DiMuonJPsiHighPTDecision_TOS", "Bc_Hlt2DiMuonDetachedDecision_Dec", "Bc_Hlt2DiMuonDetachedDecision_TIS", "Bc_Hlt2DiMuonDetachedDecision_TOS", "Bc_Hlt2DiMuonDetachedHeavyDecision_Dec", "Bc_Hlt2DiMuonDetachedHeavyDecision_TIS", "Bc_Hlt2DiMuonDetachedHeavyDecision_TOS", "Bc_Hlt2DiMuonDetachedJPsiDecision_Dec", "Bc_Hlt2DiMuonDetachedJPsiDecision_TIS", "Bc_Hlt2DiMuonDetachedJPsiDecision_TOS", "Bc_Hlt2DiMuonNoPVDecision_Dec", "Bc_Hlt2DiMuonNoPVDecision_TIS", "Bc_Hlt2DiMuonNoPVDecision_TOS", "Bs_ETA", "Bs_LOKI_IPCHI2", "Bs_Y", "Bs_CosTheta", "Bs_ENDVERTEX_X", "Bs_ENDVERTEX_Y", "Bs_ENDVERTEX_Z", "Bs_ENDVERTEX_XERR", "Bs_ENDVERTEX_YERR", "Bs_ENDVERTEX_ZERR", "Bs_ENDVERTEX_CHI2", "Bs_ENDVERTEX_NDOF", "Bs_ENDVERTEX_COV_", "Bs_OWNPV_X", "Bs_OWNPV_Y", "Bs_OWNPV_Z", "Bs_OWNPV_XERR", "Bs_OWNPV_YERR", "Bs_OWNPV_ZERR", "Bs_OWNPV_CHI2", "Bs_OWNPV_NDOF", "Bs_OWNPV_COV_", "Bs_IP_OWNPV", "Bs_IPCHI2_OWNPV", "Bs_FD_OWNPV", "Bs_FDCHI2_OWNPV", "Bs_DIRA_OWNPV", "Bs_ORIVX_X", "Bs_ORIVX_Y", "Bs_ORIVX_Z", "Bs_ORIVX_XERR", "Bs_ORIVX_YERR", "Bs_ORIVX_ZERR", "Bs_ORIVX_CHI2", "Bs_ORIVX_NDOF", "Bs_ORIVX_COV_", "Bs_FD_ORIVX", "Bs_FDCHI2_ORIVX", "Bs_DIRA_ORIVX", "Bs_P", "Bs_PT", "Bs_PE", "Bs_PX", "Bs_PY", "Bs_PZ", "Bs_REFPX", "Bs_REFPY", "Bs_REFPZ", "Bs_MM", "Bs_MMERR", "Bs_M", "Bs_BKGCAT", "Bs_TRUEID", "Bs_MC_MOTHER_ID", "Bs_MC_MOTHER_KEY", "Bs_MC_GD_MOTHER_ID", "Bs_MC_GD_MOTHER_KEY", "Bs_MC_GD_GD_MOTHER_ID", "Bs_MC_GD_GD_MOTHER_KEY", "Bs_TRUEP_E", "Bs_TRUEP_X", "Bs_TRUEP_Y", "Bs_TRUEP_Z", "Bs_TRUEPT", "Bs_TRUEORIGINVERTEX_X", "Bs_TRUEORIGINVERTEX_Y", "Bs_TRUEORIGINVERTEX_Z", "Bs_TRUEENDVERTEX_X", "Bs_TRUEENDVERTEX_Y", "Bs_TRUEENDVERTEX_Z", "Bs_TRUEISSTABLE", "Bs_TRUETAU", "Bs_Reconstructible", "Bs_Reconstructed", "Bs_ProtoParticles", "Bs_PP_PX", "Bs_PP_PY", "Bs_PP_PZ", "Bs_PP_Weight", "Bs_PP_tr_pchi2", "Bs_PP_DLLe", "Bs_PP_DLLk", "Bs_PP_DLLp", "Bs_PP_DLLmu", "Bs_ID", "Bs_TAU", "Bs_TAUERR", "Bs_TAUCHI2", "Bs_LOKI_DIRA", "Bs_LOKI_FDCHI2", "Bs_LOKI_FDS", "Bs_LV01", "Bs_LV02", "Bs_is_from_Bs_JpsiPhi", "Bs_BsMassFit_nPV", "Bs_BsMassFit_J_psi_1S_M", "Bs_BsMassFit_J_psi_1S_MERR", "Bs_BsMassFit_J_psi_1S_P", "Bs_BsMassFit_J_psi_1S_PERR", "Bs_BsMassFit_J_psi_1S_ctau", "Bs_BsMassFit_J_psi_1S_ctauErr", "Bs_BsMassFit_J_psi_1S_decayLength", "Bs_BsMassFit_J_psi_1S_decayLengthErr", "Bs_BsMassFit_M", "Bs_BsMassFit_MERR", "Bs_BsMassFit_P", "Bs_BsMassFit_PERR", "Bs_BsMassFit_chi2", "Bs_BsMassFit_nDOF", "Bs_BsMassFit_nIter", "Bs_BsMassFit_phi_1020_M", "Bs_BsMassFit_phi_1020_MERR", "Bs_BsMassFit_phi_1020_P", "Bs_BsMassFit_phi_1020_PERR", "Bs_BsMassFit_phi_1020_ctau", "Bs_BsMassFit_phi_1020_ctauErr", "Bs_BsMassFit_phi_1020_decayLength", "Bs_BsMassFit_phi_1020_decayLengthErr", "Bs_BsMassFit_status", "Bs_BsPVFit_nPV", "Bs_BsPVFit_J_psi_1S_M", "Bs_BsPVFit_J_psi_1S_MERR", "Bs_BsPVFit_J_psi_1S_P", "Bs_BsPVFit_J_psi_1S_PERR", "Bs_BsPVFit_J_psi_1S_ctau", "Bs_BsPVFit_J_psi_1S_ctauErr", "Bs_BsPVFit_J_psi_1S_decayLength", "Bs_BsPVFit_J_psi_1S_decayLengthErr", "Bs_BsPVFit_M", "Bs_BsPVFit_MERR", "Bs_BsPVFit_P", "Bs_BsPVFit_PERR", "Bs_BsPVFit_PV_X", "Bs_BsPVFit_PV_Y", "Bs_BsPVFit_PV_Z", "Bs_BsPVFit_PV_key", "Bs_BsPVFit_chi2", "Bs_BsPVFit_ctau", "Bs_BsPVFit_ctauErr", "Bs_BsPVFit_decayLength", "Bs_BsPVFit_decayLengthErr", "Bs_BsPVFit_nDOF", "Bs_BsPVFit_nIter", "Bs_BsPVFit_phi_1020_M", "Bs_BsPVFit_phi_1020_MERR", "Bs_BsPVFit_phi_1020_P", "Bs_BsPVFit_phi_1020_PERR", "Bs_BsPVFit_phi_1020_ctau", "Bs_BsPVFit_phi_1020_ctauErr", "Bs_BsPVFit_phi_1020_decayLength", "Bs_BsPVFit_phi_1020_decayLengthErr", "Bs_BsPVFit_status", "Bs_L0Global_Dec", "Bs_L0Global_TIS", "Bs_L0Global_TOS", "Bs_Hlt1Global_Dec", "Bs_Hlt1Global_TIS", "Bs_Hlt1Global_TOS", "Bs_Hlt1Phys_Dec", "Bs_Hlt1Phys_TIS", "Bs_Hlt1Phys_TOS", "Bs_Hlt2Global_Dec", "Bs_Hlt2Global_TIS", "Bs_Hlt2Global_TOS", "Bs_Hlt2Phys_Dec", "Bs_Hlt2Phys_TIS", "Bs_Hlt2Phys_TOS", "Bs_L0MuonDecision_Dec", "Bs_L0MuonDecision_TIS", "Bs_L0MuonDecision_TOS", "Bs_L0DiMuonDecision_Dec", "Bs_L0DiMuonDecision_TIS", "Bs_L0DiMuonDecision_TOS", "Bs_L0MuonHighDecision_Dec", "Bs_L0MuonHighDecision_TIS", "Bs_L0MuonHighDecision_TOS", "Bs_L0HadronDecision_Dec", "Bs_L0HadronDecision_TIS", "Bs_L0HadronDecision_TOS", "Bs_L0PhotonDecision_Dec", "Bs_L0PhotonDecision_TIS", "Bs_L0PhotonDecision_TOS", "Bs_Hlt1DiMuonHighMassDecision_Dec", "Bs_Hlt1DiMuonHighMassDecision_TIS", "Bs_Hlt1DiMuonHighMassDecision_TOS", "Bs_Hlt1DiMuonLowMassDecision_Dec", "Bs_Hlt1DiMuonLowMassDecision_TIS", "Bs_Hlt1DiMuonLowMassDecision_TOS", "Bs_Hlt1SingleMuonNoIPDecision_Dec", "Bs_Hlt1SingleMuonNoIPDecision_TIS", "Bs_Hlt1SingleMuonNoIPDecision_TOS", "Bs_Hlt1SingleMuonHighPTDecision_Dec", "Bs_Hlt1SingleMuonHighPTDecision_TIS", "Bs_Hlt1SingleMuonHighPTDecision_TOS", "Bs_Hlt1TrackAllL0Decision_Dec", "Bs_Hlt1TrackAllL0Decision_TIS", "Bs_Hlt1TrackAllL0Decision_TOS", "Bs_Hlt1TrackMuonDecision_Dec", "Bs_Hlt1TrackMuonDecision_TIS", "Bs_Hlt1TrackMuonDecision_TOS", "Bs_Hlt1TrackPhotonDecision_Dec", "Bs_Hlt1TrackPhotonDecision_TIS", "Bs_Hlt1TrackPhotonDecision_TOS", "Bs_Hlt2Topo2BodyDecision_Dec", "Bs_Hlt2Topo2BodyDecision_TIS", "Bs_Hlt2Topo2BodyDecision_TOS", "Bs_Hlt2Topo3BodyDecision_Dec", "Bs_Hlt2Topo3BodyDecision_TIS", "Bs_Hlt2Topo3BodyDecision_TOS", "Bs_Hlt2Topo4BodyDecision_Dec", "Bs_Hlt2Topo4BodyDecision_TIS", "Bs_Hlt2Topo4BodyDecision_TOS", "Bs_Hlt2TopoMu2BodyDecision_Dec", "Bs_Hlt2TopoMu2BodyDecision_TIS", "Bs_Hlt2TopoMu2BodyDecision_TOS", "Bs_Hlt2TopoMu3BodyDecision_Dec", "Bs_Hlt2TopoMu3BodyDecision_TIS", "Bs_Hlt2TopoMu3BodyDecision_TOS", "Bs_Hlt2TopoMu4BodyDecision_Dec", "Bs_Hlt2TopoMu4BodyDecision_TIS", "Bs_Hlt2TopoMu4BodyDecision_TOS", "Bs_Hlt2DiMuonDecision_Dec", "Bs_Hlt2DiMuonDecision_TIS", "Bs_Hlt2DiMuonDecision_TOS", "Bs_Hlt2DiMuonLowMassDecision_Dec", "Bs_Hlt2DiMuonLowMassDecision_TIS", "Bs_Hlt2DiMuonLowMassDecision_TOS", "Bs_Hlt2DiMuonJPsiDecision_Dec", "Bs_Hlt2DiMuonJPsiDecision_TIS", "Bs_Hlt2DiMuonJPsiDecision_TOS", "Bs_Hlt2DiMuonJPsiHighPTDecision_Dec", "Bs_Hlt2DiMuonJPsiHighPTDecision_TIS", "Bs_Hlt2DiMuonJPsiHighPTDecision_TOS", "Bs_Hlt2DiMuonDetachedDecision_Dec", "Bs_Hlt2DiMuonDetachedDecision_TIS", "Bs_Hlt2DiMuonDetachedDecision_TOS", "Bs_Hlt2DiMuonDetachedHeavyDecision_Dec", "Bs_Hlt2DiMuonDetachedHeavyDecision_TIS", "Bs_Hlt2DiMuonDetachedHeavyDecision_TOS", "Bs_Hlt2DiMuonDetachedJPsiDecision_Dec", "Bs_Hlt2DiMuonDetachedJPsiDecision_TIS", "Bs_Hlt2DiMuonDetachedJPsiDecision_TOS", "Bs_Hlt2DiMuonNoPVDecision_Dec", "Bs_Hlt2DiMuonNoPVDecision_TIS", "Bs_Hlt2DiMuonNoPVDecision_TOS", "Jpsi_ETA", "Jpsi_LOKI_IPCHI2", "Jpsi_Y", "Jpsi_CosTheta", "Jpsi_ENDVERTEX_X", "Jpsi_ENDVERTEX_Y", "Jpsi_ENDVERTEX_Z", "Jpsi_ENDVERTEX_XERR", "Jpsi_ENDVERTEX_YERR", "Jpsi_ENDVERTEX_ZERR", "Jpsi_ENDVERTEX_CHI2", "Jpsi_ENDVERTEX_NDOF", "Jpsi_ENDVERTEX_COV_", "Jpsi_OWNPV_X", "Jpsi_OWNPV_Y", "Jpsi_OWNPV_Z", "Jpsi_OWNPV_XERR", "Jpsi_OWNPV_YERR", "Jpsi_OWNPV_ZERR", "Jpsi_OWNPV_CHI2", "Jpsi_OWNPV_NDOF", "Jpsi_OWNPV_COV_", "Jpsi_IP_OWNPV", "Jpsi_IPCHI2_OWNPV", "Jpsi_FD_OWNPV", "Jpsi_FDCHI2_OWNPV", "Jpsi_DIRA_OWNPV", "Jpsi_ORIVX_X", "Jpsi_ORIVX_Y", "Jpsi_ORIVX_Z", "Jpsi_ORIVX_XERR", "Jpsi_ORIVX_YERR", "Jpsi_ORIVX_ZERR", "Jpsi_ORIVX_CHI2", "Jpsi_ORIVX_NDOF", "Jpsi_ORIVX_COV_", "Jpsi_FD_ORIVX", "Jpsi_FDCHI2_ORIVX", "Jpsi_DIRA_ORIVX", "Jpsi_P", "Jpsi_PT", "Jpsi_PE", "Jpsi_PX", "Jpsi_PY", "Jpsi_PZ", "Jpsi_REFPX", "Jpsi_REFPY", "Jpsi_REFPZ", "Jpsi_MM", "Jpsi_MMERR", "Jpsi_M", "Jpsi_BKGCAT", "Jpsi_TRUEID", "Jpsi_MC_MOTHER_ID", "Jpsi_MC_MOTHER_KEY", "Jpsi_MC_GD_MOTHER_ID", "Jpsi_MC_GD_MOTHER_KEY", "Jpsi_MC_GD_GD_MOTHER_ID", "Jpsi_MC_GD_GD_MOTHER_KEY", "Jpsi_TRUEP_E", "Jpsi_TRUEP_X", "Jpsi_TRUEP_Y", "Jpsi_TRUEP_Z", "Jpsi_TRUEPT", "Jpsi_TRUEORIGINVERTEX_X", "Jpsi_TRUEORIGINVERTEX_Y", "Jpsi_TRUEORIGINVERTEX_Z", "Jpsi_TRUEENDVERTEX_X", "Jpsi_TRUEENDVERTEX_Y", "Jpsi_TRUEENDVERTEX_Z", "Jpsi_TRUEISSTABLE", "Jpsi_TRUETAU", "Jpsi_Reconstructible", "Jpsi_Reconstructed", "Jpsi_ProtoParticles", "Jpsi_PP_PX", "Jpsi_PP_PY", "Jpsi_PP_PZ", "Jpsi_PP_Weight", "Jpsi_PP_tr_pchi2", "Jpsi_PP_DLLe", "Jpsi_PP_DLLk", "Jpsi_PP_DLLp", "Jpsi_PP_DLLmu", "Jpsi_ID", "Jpsi_TAU", "Jpsi_TAUERR", "Jpsi_TAUCHI2", "Jpsi_L0Global_Dec", "Jpsi_L0Global_TIS", "Jpsi_L0Global_TOS", "Jpsi_Hlt1Global_Dec", "Jpsi_Hlt1Global_TIS", "Jpsi_Hlt1Global_TOS", "Jpsi_Hlt1Phys_Dec", "Jpsi_Hlt1Phys_TIS", "Jpsi_Hlt1Phys_TOS", "Jpsi_Hlt2Global_Dec", "Jpsi_Hlt2Global_TIS", "Jpsi_Hlt2Global_TOS", "Jpsi_Hlt2Phys_Dec", "Jpsi_Hlt2Phys_TIS", "Jpsi_Hlt2Phys_TOS", "Jpsi_L0MuonDecision_Dec", "Jpsi_L0MuonDecision_TIS", "Jpsi_L0MuonDecision_TOS", "Jpsi_L0DiMuonDecision_Dec", "Jpsi_L0DiMuonDecision_TIS", "Jpsi_L0DiMuonDecision_TOS", "Jpsi_L0MuonHighDecision_Dec", "Jpsi_L0MuonHighDecision_TIS", "Jpsi_L0MuonHighDecision_TOS", "Jpsi_L0HadronDecision_Dec", "Jpsi_L0HadronDecision_TIS", "Jpsi_L0HadronDecision_TOS", "Jpsi_L0PhotonDecision_Dec", "Jpsi_L0PhotonDecision_TIS", "Jpsi_L0PhotonDecision_TOS", "Jpsi_Hlt1DiMuonHighMassDecision_Dec", "Jpsi_Hlt1DiMuonHighMassDecision_TIS", "Jpsi_Hlt1DiMuonHighMassDecision_TOS", "Jpsi_Hlt1DiMuonLowMassDecision_Dec", "Jpsi_Hlt1DiMuonLowMassDecision_TIS", "Jpsi_Hlt1DiMuonLowMassDecision_TOS", "Jpsi_Hlt1SingleMuonNoIPDecision_Dec", "Jpsi_Hlt1SingleMuonNoIPDecision_TIS", "Jpsi_Hlt1SingleMuonNoIPDecision_TOS", "Jpsi_Hlt1SingleMuonHighPTDecision_Dec", "Jpsi_Hlt1SingleMuonHighPTDecision_TIS", "Jpsi_Hlt1SingleMuonHighPTDecision_TOS", "Jpsi_Hlt1TrackAllL0Decision_Dec", "Jpsi_Hlt1TrackAllL0Decision_TIS", "Jpsi_Hlt1TrackAllL0Decision_TOS", "Jpsi_Hlt1TrackMuonDecision_Dec", "Jpsi_Hlt1TrackMuonDecision_TIS", "Jpsi_Hlt1TrackMuonDecision_TOS", "Jpsi_Hlt1TrackPhotonDecision_Dec", "Jpsi_Hlt1TrackPhotonDecision_TIS", "Jpsi_Hlt1TrackPhotonDecision_TOS", "Jpsi_Hlt2Topo2BodyDecision_Dec", "Jpsi_Hlt2Topo2BodyDecision_TIS", "Jpsi_Hlt2Topo2BodyDecision_TOS", "Jpsi_Hlt2Topo3BodyDecision_Dec", "Jpsi_Hlt2Topo3BodyDecision_TIS", "Jpsi_Hlt2Topo3BodyDecision_TOS", "Jpsi_Hlt2Topo4BodyDecision_Dec", "Jpsi_Hlt2Topo4BodyDecision_TIS", "Jpsi_Hlt2Topo4BodyDecision_TOS", "Jpsi_Hlt2TopoMu2BodyDecision_Dec", "Jpsi_Hlt2TopoMu2BodyDecision_TIS", "Jpsi_Hlt2TopoMu2BodyDecision_TOS", "Jpsi_Hlt2TopoMu3BodyDecision_Dec", "Jpsi_Hlt2TopoMu3BodyDecision_TIS", "Jpsi_Hlt2TopoMu3BodyDecision_TOS", "Jpsi_Hlt2TopoMu4BodyDecision_Dec", "Jpsi_Hlt2TopoMu4BodyDecision_TIS", "Jpsi_Hlt2TopoMu4BodyDecision_TOS", "Jpsi_Hlt2DiMuonDecision_Dec", "Jpsi_Hlt2DiMuonDecision_TIS", "Jpsi_Hlt2DiMuonDecision_TOS", "Jpsi_Hlt2DiMuonLowMassDecision_Dec", "Jpsi_Hlt2DiMuonLowMassDecision_TIS", "Jpsi_Hlt2DiMuonLowMassDecision_TOS", "Jpsi_Hlt2DiMuonJPsiDecision_Dec", "Jpsi_Hlt2DiMuonJPsiDecision_TIS", "Jpsi_Hlt2DiMuonJPsiDecision_TOS", "Jpsi_Hlt2DiMuonJPsiHighPTDecision_Dec", "Jpsi_Hlt2DiMuonJPsiHighPTDecision_TIS", "Jpsi_Hlt2DiMuonJPsiHighPTDecision_TOS", "Jpsi_Hlt2DiMuonDetachedDecision_Dec", "Jpsi_Hlt2DiMuonDetachedDecision_TIS", "Jpsi_Hlt2DiMuonDetachedDecision_TOS", "Jpsi_Hlt2DiMuonDetachedHeavyDecision_Dec", "Jpsi_Hlt2DiMuonDetachedHeavyDecision_TIS", "Jpsi_Hlt2DiMuonDetachedHeavyDecision_TOS", "Jpsi_Hlt2DiMuonDetachedJPsiDecision_Dec", "Jpsi_Hlt2DiMuonDetachedJPsiDecision_TIS", "Jpsi_Hlt2DiMuonDetachedJPsiDecision_TOS", "Jpsi_Hlt2DiMuonNoPVDecision_Dec", "Jpsi_Hlt2DiMuonNoPVDecision_TIS", "Jpsi_Hlt2DiMuonNoPVDecision_TOS", "MuP_ETA", "MuP_LOKI_IPCHI2", "MuP_Y", "MuP_CosTheta", "MuP_OWNPV_X", "MuP_OWNPV_Y", "MuP_OWNPV_Z", "MuP_OWNPV_XERR", "MuP_OWNPV_YERR", "MuP_OWNPV_ZERR", "MuP_OWNPV_CHI2", "MuP_OWNPV_NDOF", "MuP_OWNPV_COV_", "MuP_IP_OWNPV", "MuP_IPCHI2_OWNPV", "MuP_ORIVX_X", "MuP_ORIVX_Y", "MuP_ORIVX_Z", "MuP_ORIVX_XERR", "MuP_ORIVX_YERR", "MuP_ORIVX_ZERR", "MuP_ORIVX_CHI2", "MuP_ORIVX_NDOF", "MuP_ORIVX_COV_", "MuP_P", "MuP_PT", "MuP_PE", "MuP_PX", "MuP_PY", "MuP_PZ", "MuP_REFPX", "MuP_REFPY", "MuP_REFPZ", "MuP_M", "MuP_AtVtx_PE", "MuP_AtVtx_PX", "MuP_AtVtx_PY", "MuP_AtVtx_PZ", "MuP_TRUEID", "MuP_MC_MOTHER_ID", "MuP_MC_MOTHER_KEY", "MuP_MC_GD_MOTHER_ID", "MuP_MC_GD_MOTHER_KEY", "MuP_MC_GD_GD_MOTHER_ID", "MuP_MC_GD_GD_MOTHER_KEY", "MuP_TRUEP_E", "MuP_TRUEP_X", "MuP_TRUEP_Y", "MuP_TRUEP_Z", "MuP_TRUEPT", "MuP_TRUEORIGINVERTEX_X", "MuP_TRUEORIGINVERTEX_Y", "MuP_TRUEORIGINVERTEX_Z", "MuP_TRUEENDVERTEX_X", "MuP_TRUEENDVERTEX_Y", "MuP_TRUEENDVERTEX_Z", "MuP_TRUEISSTABLE", "MuP_TRUETAU", "MuP_Reconstructible", "MuP_Reconstructed", "MuP_ProtoParticles", "MuP_PP_PX", "MuP_PP_PY", "MuP_PP_PZ", "MuP_PP_Weight", "MuP_PP_tr_pchi2", "MuP_PP_DLLe", "MuP_PP_DLLk", "MuP_PP_DLLp", "MuP_PP_DLLmu", "MuP_ID", "MuP_PIDe", "MuP_PIDmu", "MuP_PIDK", "MuP_PIDp", "MuP_PIDd", "MuP_ProbNNe", "MuP_ProbNNk", "MuP_ProbNNp", "MuP_ProbNNpi", "MuP_ProbNNmu", "MuP_ProbNNd", "MuP_ProbNNghost", "MuP_hasMuon", "MuP_isMuon", "MuP_hasRich", "MuP_UsedRichAerogel", "MuP_UsedRich1Gas", "MuP_UsedRich2Gas", "MuP_RichAboveElThres", "MuP_RichAboveMuThres", "MuP_RichAbovePiThres", "MuP_RichAboveKaThres", "MuP_RichAbovePrThres", "MuP_hasCalo", "MuP_TRACK_Type", "MuP_TRACK_Key", "MuP_TRACK_CHI2NDOF", "MuP_TRACK_PCHI2", "MuP_TRACK_MatchCHI2", "MuP_TRACK_GhostProb", "MuP_TRACK_CloneDist", "MuP_TRACK_Likelihood", "MuP_L0Global_Dec", "MuP_L0Global_TIS", "MuP_L0Global_TOS", "MuP_Hlt1Global_Dec", "MuP_Hlt1Global_TIS", "MuP_Hlt1Global_TOS", "MuP_Hlt1Phys_Dec", "MuP_Hlt1Phys_TIS", "MuP_Hlt1Phys_TOS", "MuP_Hlt2Global_Dec", "MuP_Hlt2Global_TIS", "MuP_Hlt2Global_TOS", "MuP_Hlt2Phys_Dec", "MuP_Hlt2Phys_TIS", "MuP_Hlt2Phys_TOS", "MuP_L0MuonDecision_Dec", "MuP_L0MuonDecision_TIS", "MuP_L0MuonDecision_TOS", "MuP_L0DiMuonDecision_Dec", "MuP_L0DiMuonDecision_TIS", "MuP_L0DiMuonDecision_TOS", "MuP_L0MuonHighDecision_Dec", "MuP_L0MuonHighDecision_TIS", "MuP_L0MuonHighDecision_TOS", "MuP_L0HadronDecision_Dec", "MuP_L0HadronDecision_TIS", "MuP_L0HadronDecision_TOS", "MuP_L0PhotonDecision_Dec", "MuP_L0PhotonDecision_TIS", "MuP_L0PhotonDecision_TOS", "MuP_Hlt1DiMuonHighMassDecision_Dec", "MuP_Hlt1DiMuonHighMassDecision_TIS", "MuP_Hlt1DiMuonHighMassDecision_TOS", "MuP_Hlt1DiMuonLowMassDecision_Dec", "MuP_Hlt1DiMuonLowMassDecision_TIS", "MuP_Hlt1DiMuonLowMassDecision_TOS", "MuP_Hlt1SingleMuonNoIPDecision_Dec", "MuP_Hlt1SingleMuonNoIPDecision_TIS", "MuP_Hlt1SingleMuonNoIPDecision_TOS", "MuP_Hlt1SingleMuonHighPTDecision_Dec", "MuP_Hlt1SingleMuonHighPTDecision_TIS", "MuP_Hlt1SingleMuonHighPTDecision_TOS", "MuP_Hlt1TrackAllL0Decision_Dec", "MuP_Hlt1TrackAllL0Decision_TIS", "MuP_Hlt1TrackAllL0Decision_TOS", "MuP_Hlt1TrackMuonDecision_Dec", "MuP_Hlt1TrackMuonDecision_TIS", "MuP_Hlt1TrackMuonDecision_TOS", "MuP_Hlt1TrackPhotonDecision_Dec", "MuP_Hlt1TrackPhotonDecision_TIS", "MuP_Hlt1TrackPhotonDecision_TOS", "MuP_Hlt2Topo2BodyDecision_Dec", "MuP_Hlt2Topo2BodyDecision_TIS", "MuP_Hlt2Topo2BodyDecision_TOS", "MuP_Hlt2Topo3BodyDecision_Dec", "MuP_Hlt2Topo3BodyDecision_TIS", "MuP_Hlt2Topo3BodyDecision_TOS", "MuP_Hlt2Topo4BodyDecision_Dec", "MuP_Hlt2Topo4BodyDecision_TIS", "MuP_Hlt2Topo4BodyDecision_TOS", "MuP_Hlt2TopoMu2BodyDecision_Dec", "MuP_Hlt2TopoMu2BodyDecision_TIS", "MuP_Hlt2TopoMu2BodyDecision_TOS", "MuP_Hlt2TopoMu3BodyDecision_Dec", "MuP_Hlt2TopoMu3BodyDecision_TIS", "MuP_Hlt2TopoMu3BodyDecision_TOS", "MuP_Hlt2TopoMu4BodyDecision_Dec", "MuP_Hlt2TopoMu4BodyDecision_TIS", "MuP_Hlt2TopoMu4BodyDecision_TOS", "MuP_Hlt2DiMuonDecision_Dec", "MuP_Hlt2DiMuonDecision_TIS", "MuP_Hlt2DiMuonDecision_TOS", "MuP_Hlt2DiMuonLowMassDecision_Dec", "MuP_Hlt2DiMuonLowMassDecision_TIS", "MuP_Hlt2DiMuonLowMassDecision_TOS", "MuP_Hlt2DiMuonJPsiDecision_Dec", "MuP_Hlt2DiMuonJPsiDecision_TIS", "MuP_Hlt2DiMuonJPsiDecision_TOS", "MuP_Hlt2DiMuonJPsiHighPTDecision_Dec", "MuP_Hlt2DiMuonJPsiHighPTDecision_TIS", "MuP_Hlt2DiMuonJPsiHighPTDecision_TOS", "MuP_Hlt2DiMuonDetachedDecision_Dec", "MuP_Hlt2DiMuonDetachedDecision_TIS", "MuP_Hlt2DiMuonDetachedDecision_TOS", "MuP_Hlt2DiMuonDetachedHeavyDecision_Dec", "MuP_Hlt2DiMuonDetachedHeavyDecision_TIS", "MuP_Hlt2DiMuonDetachedHeavyDecision_TOS", "MuP_Hlt2DiMuonDetachedJPsiDecision_Dec", "MuP_Hlt2DiMuonDetachedJPsiDecision_TIS", "MuP_Hlt2DiMuonDetachedJPsiDecision_TOS", "MuP_Hlt2DiMuonNoPVDecision_Dec", "MuP_Hlt2DiMuonNoPVDecision_TIS", "MuP_Hlt2DiMuonNoPVDecision_TOS", "MuM_ETA", "MuM_LOKI_IPCHI2", "MuM_Y", "MuM_CosTheta", "MuM_OWNPV_X", "MuM_OWNPV_Y", "MuM_OWNPV_Z", "MuM_OWNPV_XERR", "MuM_OWNPV_YERR", "MuM_OWNPV_ZERR", "MuM_OWNPV_CHI2", "MuM_OWNPV_NDOF", "MuM_OWNPV_COV_", "MuM_IP_OWNPV", "MuM_IPCHI2_OWNPV", "MuM_ORIVX_X", "MuM_ORIVX_Y", "MuM_ORIVX_Z", "MuM_ORIVX_XERR", "MuM_ORIVX_YERR", "MuM_ORIVX_ZERR", "MuM_ORIVX_CHI2", "MuM_ORIVX_NDOF", "MuM_ORIVX_COV_", "MuM_P", "MuM_PT", "MuM_PE", "MuM_PX", "MuM_PY", "MuM_PZ", "MuM_REFPX", "MuM_REFPY", "MuM_REFPZ", "MuM_M", "MuM_AtVtx_PE", "MuM_AtVtx_PX", "MuM_AtVtx_PY", "MuM_AtVtx_PZ", "MuM_TRUEID", "MuM_MC_MOTHER_ID", "MuM_MC_MOTHER_KEY", "MuM_MC_GD_MOTHER_ID", "MuM_MC_GD_MOTHER_KEY", "MuM_MC_GD_GD_MOTHER_ID", "MuM_MC_GD_GD_MOTHER_KEY", "MuM_TRUEP_E", "MuM_TRUEP_X", "MuM_TRUEP_Y", "MuM_TRUEP_Z", "MuM_TRUEPT", "MuM_TRUEORIGINVERTEX_X", "MuM_TRUEORIGINVERTEX_Y", "MuM_TRUEORIGINVERTEX_Z", "MuM_TRUEENDVERTEX_X", "MuM_TRUEENDVERTEX_Y", "MuM_TRUEENDVERTEX_Z", "MuM_TRUEISSTABLE", "MuM_TRUETAU", "MuM_Reconstructible", "MuM_Reconstructed", "MuM_ProtoParticles", "MuM_PP_PX", "MuM_PP_PY", "MuM_PP_PZ", "MuM_PP_Weight", "MuM_PP_tr_pchi2", "MuM_PP_DLLe", "MuM_PP_DLLk", "MuM_PP_DLLp", "MuM_PP_DLLmu", "MuM_ID", "MuM_PIDe", "MuM_PIDmu", "MuM_PIDK", "MuM_PIDp", "MuM_PIDd", "MuM_ProbNNe", "MuM_ProbNNk", "MuM_ProbNNp", "MuM_ProbNNpi", "MuM_ProbNNmu", "MuM_ProbNNd", "MuM_ProbNNghost", "MuM_hasMuon", "MuM_isMuon", "MuM_hasRich", "MuM_UsedRichAerogel", "MuM_UsedRich1Gas", "MuM_UsedRich2Gas", "MuM_RichAboveElThres", "MuM_RichAboveMuThres", "MuM_RichAbovePiThres", "MuM_RichAboveKaThres", "MuM_RichAbovePrThres", "MuM_hasCalo", "MuM_TRACK_Type", "MuM_TRACK_Key", "MuM_TRACK_CHI2NDOF", "MuM_TRACK_PCHI2", "MuM_TRACK_MatchCHI2", "MuM_TRACK_GhostProb", "MuM_TRACK_CloneDist", "MuM_TRACK_Likelihood", "MuM_L0Global_Dec", "MuM_L0Global_TIS", "MuM_L0Global_TOS", "MuM_Hlt1Global_Dec", "MuM_Hlt1Global_TIS", "MuM_Hlt1Global_TOS", "MuM_Hlt1Phys_Dec", "MuM_Hlt1Phys_TIS", "MuM_Hlt1Phys_TOS", "MuM_Hlt2Global_Dec", "MuM_Hlt2Global_TIS", "MuM_Hlt2Global_TOS", "MuM_Hlt2Phys_Dec", "MuM_Hlt2Phys_TIS", "MuM_Hlt2Phys_TOS", "MuM_L0MuonDecision_Dec", "MuM_L0MuonDecision_TIS", "MuM_L0MuonDecision_TOS", "MuM_L0DiMuonDecision_Dec", "MuM_L0DiMuonDecision_TIS", "MuM_L0DiMuonDecision_TOS", "MuM_L0MuonHighDecision_Dec", "MuM_L0MuonHighDecision_TIS", "MuM_L0MuonHighDecision_TOS", "MuM_L0HadronDecision_Dec", "MuM_L0HadronDecision_TIS", "MuM_L0HadronDecision_TOS", "MuM_L0PhotonDecision_Dec", "MuM_L0PhotonDecision_TIS", "MuM_L0PhotonDecision_TOS", "MuM_Hlt1DiMuonHighMassDecision_Dec", "MuM_Hlt1DiMuonHighMassDecision_TIS", "MuM_Hlt1DiMuonHighMassDecision_TOS", "MuM_Hlt1DiMuonLowMassDecision_Dec", "MuM_Hlt1DiMuonLowMassDecision_TIS", "MuM_Hlt1DiMuonLowMassDecision_TOS", "MuM_Hlt1SingleMuonNoIPDecision_Dec", "MuM_Hlt1SingleMuonNoIPDecision_TIS", "MuM_Hlt1SingleMuonNoIPDecision_TOS", "MuM_Hlt1SingleMuonHighPTDecision_Dec", "MuM_Hlt1SingleMuonHighPTDecision_TIS", "MuM_Hlt1SingleMuonHighPTDecision_TOS", "MuM_Hlt1TrackAllL0Decision_Dec", "MuM_Hlt1TrackAllL0Decision_TIS", "MuM_Hlt1TrackAllL0Decision_TOS", "MuM_Hlt1TrackMuonDecision_Dec", "MuM_Hlt1TrackMuonDecision_TIS", "MuM_Hlt1TrackMuonDecision_TOS", "MuM_Hlt1TrackPhotonDecision_Dec", "MuM_Hlt1TrackPhotonDecision_TIS", "MuM_Hlt1TrackPhotonDecision_TOS", "MuM_Hlt2Topo2BodyDecision_Dec", "MuM_Hlt2Topo2BodyDecision_TIS", "MuM_Hlt2Topo2BodyDecision_TOS", "MuM_Hlt2Topo3BodyDecision_Dec", "MuM_Hlt2Topo3BodyDecision_TIS", "MuM_Hlt2Topo3BodyDecision_TOS", "MuM_Hlt2Topo4BodyDecision_Dec", "MuM_Hlt2Topo4BodyDecision_TIS", "MuM_Hlt2Topo4BodyDecision_TOS", "MuM_Hlt2TopoMu2BodyDecision_Dec", "MuM_Hlt2TopoMu2BodyDecision_TIS", "MuM_Hlt2TopoMu2BodyDecision_TOS", "MuM_Hlt2TopoMu3BodyDecision_Dec", "MuM_Hlt2TopoMu3BodyDecision_TIS", "MuM_Hlt2TopoMu3BodyDecision_TOS", "MuM_Hlt2TopoMu4BodyDecision_Dec", "MuM_Hlt2TopoMu4BodyDecision_TIS", "MuM_Hlt2TopoMu4BodyDecision_TOS", "MuM_Hlt2DiMuonDecision_Dec", "MuM_Hlt2DiMuonDecision_TIS", "MuM_Hlt2DiMuonDecision_TOS", "MuM_Hlt2DiMuonLowMassDecision_Dec", "MuM_Hlt2DiMuonLowMassDecision_TIS", "MuM_Hlt2DiMuonLowMassDecision_TOS", "MuM_Hlt2DiMuonJPsiDecision_Dec", "MuM_Hlt2DiMuonJPsiDecision_TIS", "MuM_Hlt2DiMuonJPsiDecision_TOS", "MuM_Hlt2DiMuonJPsiHighPTDecision_Dec", "MuM_Hlt2DiMuonJPsiHighPTDecision_TIS", "MuM_Hlt2DiMuonJPsiHighPTDecision_TOS", "MuM_Hlt2DiMuonDetachedDecision_Dec", "MuM_Hlt2DiMuonDetachedDecision_TIS", "MuM_Hlt2DiMuonDetachedDecision_TOS", "MuM_Hlt2DiMuonDetachedHeavyDecision_Dec", "MuM_Hlt2DiMuonDetachedHeavyDecision_TIS", "MuM_Hlt2DiMuonDetachedHeavyDecision_TOS", "MuM_Hlt2DiMuonDetachedJPsiDecision_Dec", "MuM_Hlt2DiMuonDetachedJPsiDecision_TIS", "MuM_Hlt2DiMuonDetachedJPsiDecision_TOS", "MuM_Hlt2DiMuonNoPVDecision_Dec", "MuM_Hlt2DiMuonNoPVDecision_TIS", "MuM_Hlt2DiMuonNoPVDecision_TOS", "Phi_ETA", "Phi_LOKI_IPCHI2", "Phi_Y", "Phi_CosTheta", "Phi_ENDVERTEX_X", "Phi_ENDVERTEX_Y", "Phi_ENDVERTEX_Z", "Phi_ENDVERTEX_XERR", "Phi_ENDVERTEX_YERR", "Phi_ENDVERTEX_ZERR", "Phi_ENDVERTEX_CHI2", "Phi_ENDVERTEX_NDOF", "Phi_ENDVERTEX_COV_", "Phi_OWNPV_X", "Phi_OWNPV_Y", "Phi_OWNPV_Z", "Phi_OWNPV_XERR", "Phi_OWNPV_YERR", "Phi_OWNPV_ZERR", "Phi_OWNPV_CHI2", "Phi_OWNPV_NDOF", "Phi_OWNPV_COV_", "Phi_IP_OWNPV", "Phi_IPCHI2_OWNPV", "Phi_FD_OWNPV", "Phi_FDCHI2_OWNPV", "Phi_DIRA_OWNPV", "Phi_ORIVX_X", "Phi_ORIVX_Y", "Phi_ORIVX_Z", "Phi_ORIVX_XERR", "Phi_ORIVX_YERR", "Phi_ORIVX_ZERR", "Phi_ORIVX_CHI2", "Phi_ORIVX_NDOF", "Phi_ORIVX_COV_", "Phi_FD_ORIVX", "Phi_FDCHI2_ORIVX", "Phi_DIRA_ORIVX", "Phi_P", "Phi_PT", "Phi_PE", "Phi_PX", "Phi_PY", "Phi_PZ", "Phi_REFPX", "Phi_REFPY", "Phi_REFPZ", "Phi_MM", "Phi_MMERR", "Phi_M", "Phi_BKGCAT", "Phi_TRUEID", "Phi_MC_MOTHER_ID", "Phi_MC_MOTHER_KEY", "Phi_MC_GD_MOTHER_ID", "Phi_MC_GD_MOTHER_KEY", "Phi_MC_GD_GD_MOTHER_ID", "Phi_MC_GD_GD_MOTHER_KEY", "Phi_TRUEP_E", "Phi_TRUEP_X", "Phi_TRUEP_Y", "Phi_TRUEP_Z", "Phi_TRUEPT", "Phi_TRUEORIGINVERTEX_X", "Phi_TRUEORIGINVERTEX_Y", "Phi_TRUEORIGINVERTEX_Z", "Phi_TRUEENDVERTEX_X", "Phi_TRUEENDVERTEX_Y", "Phi_TRUEENDVERTEX_Z", "Phi_TRUEISSTABLE", "Phi_TRUETAU", "Phi_Reconstructible", "Phi_Reconstructed", "Phi_ProtoParticles", "Phi_PP_PX", "Phi_PP_PY", "Phi_PP_PZ", "Phi_PP_Weight", "Phi_PP_tr_pchi2", "Phi_PP_DLLe", "Phi_PP_DLLk", "Phi_PP_DLLp", "Phi_PP_DLLmu", "Phi_ID", "Phi_TAU", "Phi_TAUERR", "Phi_TAUCHI2", "Phi_L0Global_Dec", "Phi_L0Global_TIS", "Phi_L0Global_TOS", "Phi_Hlt1Global_Dec", "Phi_Hlt1Global_TIS", "Phi_Hlt1Global_TOS", "Phi_Hlt1Phys_Dec", "Phi_Hlt1Phys_TIS", "Phi_Hlt1Phys_TOS", "Phi_Hlt2Global_Dec", "Phi_Hlt2Global_TIS", "Phi_Hlt2Global_TOS", "Phi_Hlt2Phys_Dec", "Phi_Hlt2Phys_TIS", "Phi_Hlt2Phys_TOS", "Phi_L0MuonDecision_Dec", "Phi_L0MuonDecision_TIS", "Phi_L0MuonDecision_TOS", "Phi_L0DiMuonDecision_Dec", "Phi_L0DiMuonDecision_TIS", "Phi_L0DiMuonDecision_TOS", "Phi_L0MuonHighDecision_Dec", "Phi_L0MuonHighDecision_TIS", "Phi_L0MuonHighDecision_TOS", "Phi_L0HadronDecision_Dec", "Phi_L0HadronDecision_TIS", "Phi_L0HadronDecision_TOS", "Phi_L0PhotonDecision_Dec", "Phi_L0PhotonDecision_TIS", "Phi_L0PhotonDecision_TOS", "Phi_Hlt1DiMuonHighMassDecision_Dec", "Phi_Hlt1DiMuonHighMassDecision_TIS", "Phi_Hlt1DiMuonHighMassDecision_TOS", "Phi_Hlt1DiMuonLowMassDecision_Dec", "Phi_Hlt1DiMuonLowMassDecision_TIS", "Phi_Hlt1DiMuonLowMassDecision_TOS", "Phi_Hlt1SingleMuonNoIPDecision_Dec", "Phi_Hlt1SingleMuonNoIPDecision_TIS", "Phi_Hlt1SingleMuonNoIPDecision_TOS", "Phi_Hlt1SingleMuonHighPTDecision_Dec", "Phi_Hlt1SingleMuonHighPTDecision_TIS", "Phi_Hlt1SingleMuonHighPTDecision_TOS", "Phi_Hlt1TrackAllL0Decision_Dec", "Phi_Hlt1TrackAllL0Decision_TIS", "Phi_Hlt1TrackAllL0Decision_TOS", "Phi_Hlt1TrackMuonDecision_Dec", "Phi_Hlt1TrackMuonDecision_TIS", "Phi_Hlt1TrackMuonDecision_TOS", "Phi_Hlt1TrackPhotonDecision_Dec", "Phi_Hlt1TrackPhotonDecision_TIS", "Phi_Hlt1TrackPhotonDecision_TOS", "Phi_Hlt2Topo2BodyDecision_Dec", "Phi_Hlt2Topo2BodyDecision_TIS", "Phi_Hlt2Topo2BodyDecision_TOS", "Phi_Hlt2Topo3BodyDecision_Dec", "Phi_Hlt2Topo3BodyDecision_TIS", "Phi_Hlt2Topo3BodyDecision_TOS", "Phi_Hlt2Topo4BodyDecision_Dec", "Phi_Hlt2Topo4BodyDecision_TIS", "Phi_Hlt2Topo4BodyDecision_TOS", "Phi_Hlt2TopoMu2BodyDecision_Dec", "Phi_Hlt2TopoMu2BodyDecision_TIS", "Phi_Hlt2TopoMu2BodyDecision_TOS", "Phi_Hlt2TopoMu3BodyDecision_Dec", "Phi_Hlt2TopoMu3BodyDecision_TIS", "Phi_Hlt2TopoMu3BodyDecision_TOS", "Phi_Hlt2TopoMu4BodyDecision_Dec", "Phi_Hlt2TopoMu4BodyDecision_TIS", "Phi_Hlt2TopoMu4BodyDecision_TOS", "Phi_Hlt2DiMuonDecision_Dec", "Phi_Hlt2DiMuonDecision_TIS", "Phi_Hlt2DiMuonDecision_TOS", "Phi_Hlt2DiMuonLowMassDecision_Dec", "Phi_Hlt2DiMuonLowMassDecision_TIS", "Phi_Hlt2DiMuonLowMassDecision_TOS", "Phi_Hlt2DiMuonJPsiDecision_Dec", "Phi_Hlt2DiMuonJPsiDecision_TIS", "Phi_Hlt2DiMuonJPsiDecision_TOS", "Phi_Hlt2DiMuonJPsiHighPTDecision_Dec", "Phi_Hlt2DiMuonJPsiHighPTDecision_TIS", "Phi_Hlt2DiMuonJPsiHighPTDecision_TOS", "Phi_Hlt2DiMuonDetachedDecision_Dec", "Phi_Hlt2DiMuonDetachedDecision_TIS", "Phi_Hlt2DiMuonDetachedDecision_TOS", "Phi_Hlt2DiMuonDetachedHeavyDecision_Dec", "Phi_Hlt2DiMuonDetachedHeavyDecision_TIS", "Phi_Hlt2DiMuonDetachedHeavyDecision_TOS", "Phi_Hlt2DiMuonDetachedJPsiDecision_Dec", "Phi_Hlt2DiMuonDetachedJPsiDecision_TIS", "Phi_Hlt2DiMuonDetachedJPsiDecision_TOS", "Phi_Hlt2DiMuonNoPVDecision_Dec", "Phi_Hlt2DiMuonNoPVDecision_TIS", "Phi_Hlt2DiMuonNoPVDecision_TOS", "KaonP_ETA", "KaonP_LOKI_IPCHI2", "KaonP_Y", "KaonP_CosTheta", "KaonP_OWNPV_X", "KaonP_OWNPV_Y", "KaonP_OWNPV_Z", "KaonP_OWNPV_XERR", "KaonP_OWNPV_YERR", "KaonP_OWNPV_ZERR", "KaonP_OWNPV_CHI2", "KaonP_OWNPV_NDOF", "KaonP_OWNPV_COV_", "KaonP_IP_OWNPV", "KaonP_IPCHI2_OWNPV", "KaonP_ORIVX_X", "KaonP_ORIVX_Y", "KaonP_ORIVX_Z", "KaonP_ORIVX_XERR", "KaonP_ORIVX_YERR", "KaonP_ORIVX_ZERR", "KaonP_ORIVX_CHI2", "KaonP_ORIVX_NDOF", "KaonP_ORIVX_COV_", "KaonP_P", "KaonP_PT", "KaonP_PE", "KaonP_PX", "KaonP_PY", "KaonP_PZ", "KaonP_REFPX", "KaonP_REFPY", "KaonP_REFPZ", "KaonP_M", "KaonP_AtVtx_PE", "KaonP_AtVtx_PX", "KaonP_AtVtx_PY", "KaonP_AtVtx_PZ", "KaonP_TRUEID", "KaonP_MC_MOTHER_ID", "KaonP_MC_MOTHER_KEY", "KaonP_MC_GD_MOTHER_ID", "KaonP_MC_GD_MOTHER_KEY", "KaonP_MC_GD_GD_MOTHER_ID", "KaonP_MC_GD_GD_MOTHER_KEY", "KaonP_TRUEP_E", "KaonP_TRUEP_X", "KaonP_TRUEP_Y", "KaonP_TRUEP_Z", "KaonP_TRUEPT", "KaonP_TRUEORIGINVERTEX_X", "KaonP_TRUEORIGINVERTEX_Y", "KaonP_TRUEORIGINVERTEX_Z", "KaonP_TRUEENDVERTEX_X", "KaonP_TRUEENDVERTEX_Y", "KaonP_TRUEENDVERTEX_Z", "KaonP_TRUEISSTABLE", "KaonP_TRUETAU", "KaonP_Reconstructible", "KaonP_Reconstructed", "KaonP_ProtoParticles", "KaonP_PP_PX", "KaonP_PP_PY", "KaonP_PP_PZ", "KaonP_PP_Weight", "KaonP_PP_tr_pchi2", "KaonP_PP_DLLe", "KaonP_PP_DLLk", "KaonP_PP_DLLp", "KaonP_PP_DLLmu", "KaonP_ID", "KaonP_PIDe", "KaonP_PIDmu", "KaonP_PIDK", "KaonP_PIDp", "KaonP_PIDd", "KaonP_ProbNNe", "KaonP_ProbNNk", "KaonP_ProbNNp", "KaonP_ProbNNpi", "KaonP_ProbNNmu", "KaonP_ProbNNd", "KaonP_ProbNNghost", "KaonP_hasMuon", "KaonP_isMuon", "KaonP_hasRich", "KaonP_UsedRichAerogel", "KaonP_UsedRich1Gas", "KaonP_UsedRich2Gas", "KaonP_RichAboveElThres", "KaonP_RichAboveMuThres", "KaonP_RichAbovePiThres", "KaonP_RichAboveKaThres", "KaonP_RichAbovePrThres", "KaonP_hasCalo", "KaonP_TRACK_Type", "KaonP_TRACK_Key", "KaonP_TRACK_CHI2NDOF", "KaonP_TRACK_PCHI2", "KaonP_TRACK_MatchCHI2", "KaonP_TRACK_GhostProb", "KaonP_TRACK_CloneDist", "KaonP_TRACK_Likelihood", "KaonP_L0Global_Dec", "KaonP_L0Global_TIS", "KaonP_L0Global_TOS", "KaonP_Hlt1Global_Dec", "KaonP_Hlt1Global_TIS", "KaonP_Hlt1Global_TOS", "KaonP_Hlt1Phys_Dec", "KaonP_Hlt1Phys_TIS", "KaonP_Hlt1Phys_TOS", "KaonP_Hlt2Global_Dec", "KaonP_Hlt2Global_TIS", "KaonP_Hlt2Global_TOS", "KaonP_Hlt2Phys_Dec", "KaonP_Hlt2Phys_TIS", "KaonP_Hlt2Phys_TOS", "KaonP_L0MuonDecision_Dec", "KaonP_L0MuonDecision_TIS", "KaonP_L0MuonDecision_TOS", "KaonP_L0DiMuonDecision_Dec", "KaonP_L0DiMuonDecision_TIS", "KaonP_L0DiMuonDecision_TOS", "KaonP_L0MuonHighDecision_Dec", "KaonP_L0MuonHighDecision_TIS", "KaonP_L0MuonHighDecision_TOS", "KaonP_L0HadronDecision_Dec", "KaonP_L0HadronDecision_TIS", "KaonP_L0HadronDecision_TOS", "KaonP_L0PhotonDecision_Dec", "KaonP_L0PhotonDecision_TIS", "KaonP_L0PhotonDecision_TOS", "KaonP_Hlt1DiMuonHighMassDecision_Dec", "KaonP_Hlt1DiMuonHighMassDecision_TIS", "KaonP_Hlt1DiMuonHighMassDecision_TOS", "KaonP_Hlt1DiMuonLowMassDecision_Dec", "KaonP_Hlt1DiMuonLowMassDecision_TIS", "KaonP_Hlt1DiMuonLowMassDecision_TOS", "KaonP_Hlt1SingleMuonNoIPDecision_Dec", "KaonP_Hlt1SingleMuonNoIPDecision_TIS", "KaonP_Hlt1SingleMuonNoIPDecision_TOS", "KaonP_Hlt1SingleMuonHighPTDecision_Dec", "KaonP_Hlt1SingleMuonHighPTDecision_TIS", "KaonP_Hlt1SingleMuonHighPTDecision_TOS", "KaonP_Hlt1TrackAllL0Decision_Dec", "KaonP_Hlt1TrackAllL0Decision_TIS", "KaonP_Hlt1TrackAllL0Decision_TOS", "KaonP_Hlt1TrackMuonDecision_Dec", "KaonP_Hlt1TrackMuonDecision_TIS", "KaonP_Hlt1TrackMuonDecision_TOS", "KaonP_Hlt1TrackPhotonDecision_Dec", "KaonP_Hlt1TrackPhotonDecision_TIS", "KaonP_Hlt1TrackPhotonDecision_TOS", "KaonP_Hlt2Topo2BodyDecision_Dec", "KaonP_Hlt2Topo2BodyDecision_TIS", "KaonP_Hlt2Topo2BodyDecision_TOS", "KaonP_Hlt2Topo3BodyDecision_Dec", "KaonP_Hlt2Topo3BodyDecision_TIS", "KaonP_Hlt2Topo3BodyDecision_TOS", "KaonP_Hlt2Topo4BodyDecision_Dec", "KaonP_Hlt2Topo4BodyDecision_TIS", "KaonP_Hlt2Topo4BodyDecision_TOS", "KaonP_Hlt2TopoMu2BodyDecision_Dec", "KaonP_Hlt2TopoMu2BodyDecision_TIS", "KaonP_Hlt2TopoMu2BodyDecision_TOS", "KaonP_Hlt2TopoMu3BodyDecision_Dec", "KaonP_Hlt2TopoMu3BodyDecision_TIS", "KaonP_Hlt2TopoMu3BodyDecision_TOS", "KaonP_Hlt2TopoMu4BodyDecision_Dec", "KaonP_Hlt2TopoMu4BodyDecision_TIS", "KaonP_Hlt2TopoMu4BodyDecision_TOS", "KaonP_Hlt2DiMuonDecision_Dec", "KaonP_Hlt2DiMuonDecision_TIS", "KaonP_Hlt2DiMuonDecision_TOS", "KaonP_Hlt2DiMuonLowMassDecision_Dec", "KaonP_Hlt2DiMuonLowMassDecision_TIS", "KaonP_Hlt2DiMuonLowMassDecision_TOS", "KaonP_Hlt2DiMuonJPsiDecision_Dec", "KaonP_Hlt2DiMuonJPsiDecision_TIS", "KaonP_Hlt2DiMuonJPsiDecision_TOS", "KaonP_Hlt2DiMuonJPsiHighPTDecision_Dec", "KaonP_Hlt2DiMuonJPsiHighPTDecision_TIS", "KaonP_Hlt2DiMuonJPsiHighPTDecision_TOS", "KaonP_Hlt2DiMuonDetachedDecision_Dec", "KaonP_Hlt2DiMuonDetachedDecision_TIS", "KaonP_Hlt2DiMuonDetachedDecision_TOS", "KaonP_Hlt2DiMuonDetachedHeavyDecision_Dec", "KaonP_Hlt2DiMuonDetachedHeavyDecision_TIS", "KaonP_Hlt2DiMuonDetachedHeavyDecision_TOS", "KaonP_Hlt2DiMuonDetachedJPsiDecision_Dec", "KaonP_Hlt2DiMuonDetachedJPsiDecision_TIS", "KaonP_Hlt2DiMuonDetachedJPsiDecision_TOS", "KaonP_Hlt2DiMuonNoPVDecision_Dec", "KaonP_Hlt2DiMuonNoPVDecision_TIS", "KaonP_Hlt2DiMuonNoPVDecision_TOS", "KaonM_ETA", "KaonM_LOKI_IPCHI2", "KaonM_Y", "KaonM_CosTheta", "KaonM_OWNPV_X", "KaonM_OWNPV_Y", "KaonM_OWNPV_Z", "KaonM_OWNPV_XERR", "KaonM_OWNPV_YERR", "KaonM_OWNPV_ZERR", "KaonM_OWNPV_CHI2", "KaonM_OWNPV_NDOF", "KaonM_OWNPV_COV_", "KaonM_IP_OWNPV", "KaonM_IPCHI2_OWNPV", "KaonM_ORIVX_X", "KaonM_ORIVX_Y", "KaonM_ORIVX_Z", "KaonM_ORIVX_XERR", "KaonM_ORIVX_YERR", "KaonM_ORIVX_ZERR", "KaonM_ORIVX_CHI2", "KaonM_ORIVX_NDOF", "KaonM_ORIVX_COV_", "KaonM_P", "KaonM_PT", "KaonM_PE", "KaonM_PX", "KaonM_PY", "KaonM_PZ", "KaonM_REFPX", "KaonM_REFPY", "KaonM_REFPZ", "KaonM_M", "KaonM_AtVtx_PE", "KaonM_AtVtx_PX", "KaonM_AtVtx_PY", "KaonM_AtVtx_PZ", "KaonM_TRUEID", "KaonM_MC_MOTHER_ID", "KaonM_MC_MOTHER_KEY", "KaonM_MC_GD_MOTHER_ID", "KaonM_MC_GD_MOTHER_KEY", "KaonM_MC_GD_GD_MOTHER_ID", "KaonM_MC_GD_GD_MOTHER_KEY", "KaonM_TRUEP_E", "KaonM_TRUEP_X", "KaonM_TRUEP_Y", "KaonM_TRUEP_Z", "KaonM_TRUEPT", "KaonM_TRUEORIGINVERTEX_X", "KaonM_TRUEORIGINVERTEX_Y", "KaonM_TRUEORIGINVERTEX_Z", "KaonM_TRUEENDVERTEX_X", "KaonM_TRUEENDVERTEX_Y", "KaonM_TRUEENDVERTEX_Z", "KaonM_TRUEISSTABLE", "KaonM_TRUETAU", "KaonM_Reconstructible", "KaonM_Reconstructed", "KaonM_ProtoParticles", "KaonM_PP_PX", "KaonM_PP_PY", "KaonM_PP_PZ", "KaonM_PP_Weight", "KaonM_PP_tr_pchi2", "KaonM_PP_DLLe", "KaonM_PP_DLLk", "KaonM_PP_DLLp", "KaonM_PP_DLLmu", "KaonM_ID", "KaonM_PIDe", "KaonM_PIDmu", "KaonM_PIDK", "KaonM_PIDp", "KaonM_PIDd", "KaonM_ProbNNe", "KaonM_ProbNNk", "KaonM_ProbNNp", "KaonM_ProbNNpi", "KaonM_ProbNNmu", "KaonM_ProbNNd", "KaonM_ProbNNghost", "KaonM_hasMuon", "KaonM_isMuon", "KaonM_hasRich", "KaonM_UsedRichAerogel", "KaonM_UsedRich1Gas", "KaonM_UsedRich2Gas", "KaonM_RichAboveElThres", "KaonM_RichAboveMuThres", "KaonM_RichAbovePiThres", "KaonM_RichAboveKaThres", "KaonM_RichAbovePrThres", "KaonM_hasCalo", "KaonM_TRACK_Type", "KaonM_TRACK_Key", "KaonM_TRACK_CHI2NDOF", "KaonM_TRACK_PCHI2", "KaonM_TRACK_MatchCHI2", "KaonM_TRACK_GhostProb", "KaonM_TRACK_CloneDist", "KaonM_TRACK_Likelihood", "KaonM_L0Global_Dec", "KaonM_L0Global_TIS", "KaonM_L0Global_TOS", "KaonM_Hlt1Global_Dec", "KaonM_Hlt1Global_TIS", "KaonM_Hlt1Global_TOS", "KaonM_Hlt1Phys_Dec", "KaonM_Hlt1Phys_TIS", "KaonM_Hlt1Phys_TOS", "KaonM_Hlt2Global_Dec", "KaonM_Hlt2Global_TIS", "KaonM_Hlt2Global_TOS", "KaonM_Hlt2Phys_Dec", "KaonM_Hlt2Phys_TIS", "KaonM_Hlt2Phys_TOS", "KaonM_L0MuonDecision_Dec", "KaonM_L0MuonDecision_TIS", "KaonM_L0MuonDecision_TOS", "KaonM_L0DiMuonDecision_Dec", "KaonM_L0DiMuonDecision_TIS", "KaonM_L0DiMuonDecision_TOS", "KaonM_L0MuonHighDecision_Dec", "KaonM_L0MuonHighDecision_TIS", "KaonM_L0MuonHighDecision_TOS", "KaonM_L0HadronDecision_Dec", "KaonM_L0HadronDecision_TIS", "KaonM_L0HadronDecision_TOS", "KaonM_L0PhotonDecision_Dec", "KaonM_L0PhotonDecision_TIS", "KaonM_L0PhotonDecision_TOS", "KaonM_Hlt1DiMuonHighMassDecision_Dec", "KaonM_Hlt1DiMuonHighMassDecision_TIS", "KaonM_Hlt1DiMuonHighMassDecision_TOS", "KaonM_Hlt1DiMuonLowMassDecision_Dec", "KaonM_Hlt1DiMuonLowMassDecision_TIS", "KaonM_Hlt1DiMuonLowMassDecision_TOS", "KaonM_Hlt1SingleMuonNoIPDecision_Dec", "KaonM_Hlt1SingleMuonNoIPDecision_TIS", "KaonM_Hlt1SingleMuonNoIPDecision_TOS", "KaonM_Hlt1SingleMuonHighPTDecision_Dec", "KaonM_Hlt1SingleMuonHighPTDecision_TIS", "KaonM_Hlt1SingleMuonHighPTDecision_TOS", "KaonM_Hlt1TrackAllL0Decision_Dec", "KaonM_Hlt1TrackAllL0Decision_TIS", "KaonM_Hlt1TrackAllL0Decision_TOS", "KaonM_Hlt1TrackMuonDecision_Dec", "KaonM_Hlt1TrackMuonDecision_TIS", "KaonM_Hlt1TrackMuonDecision_TOS", "KaonM_Hlt1TrackPhotonDecision_Dec", "KaonM_Hlt1TrackPhotonDecision_TIS", "KaonM_Hlt1TrackPhotonDecision_TOS", "KaonM_Hlt2Topo2BodyDecision_Dec", "KaonM_Hlt2Topo2BodyDecision_TIS", "KaonM_Hlt2Topo2BodyDecision_TOS", "KaonM_Hlt2Topo3BodyDecision_Dec", "KaonM_Hlt2Topo3BodyDecision_TIS", "KaonM_Hlt2Topo3BodyDecision_TOS", "KaonM_Hlt2Topo4BodyDecision_Dec", "KaonM_Hlt2Topo4BodyDecision_TIS", "KaonM_Hlt2Topo4BodyDecision_TOS", "KaonM_Hlt2TopoMu2BodyDecision_Dec", "KaonM_Hlt2TopoMu2BodyDecision_TIS", "KaonM_Hlt2TopoMu2BodyDecision_TOS", "KaonM_Hlt2TopoMu3BodyDecision_Dec", "KaonM_Hlt2TopoMu3BodyDecision_TIS", "KaonM_Hlt2TopoMu3BodyDecision_TOS", "KaonM_Hlt2TopoMu4BodyDecision_Dec", "KaonM_Hlt2TopoMu4BodyDecision_TIS", "KaonM_Hlt2TopoMu4BodyDecision_TOS", "KaonM_Hlt2DiMuonDecision_Dec", "KaonM_Hlt2DiMuonDecision_TIS", "KaonM_Hlt2DiMuonDecision_TOS", "KaonM_Hlt2DiMuonLowMassDecision_Dec", "KaonM_Hlt2DiMuonLowMassDecision_TIS", "KaonM_Hlt2DiMuonLowMassDecision_TOS", "KaonM_Hlt2DiMuonJPsiDecision_Dec", "KaonM_Hlt2DiMuonJPsiDecision_TIS", "KaonM_Hlt2DiMuonJPsiDecision_TOS", "KaonM_Hlt2DiMuonJPsiHighPTDecision_Dec", "KaonM_Hlt2DiMuonJPsiHighPTDecision_TIS", "KaonM_Hlt2DiMuonJPsiHighPTDecision_TOS", "KaonM_Hlt2DiMuonDetachedDecision_Dec", "KaonM_Hlt2DiMuonDetachedDecision_TIS", "KaonM_Hlt2DiMuonDetachedDecision_TOS", "KaonM_Hlt2DiMuonDetachedHeavyDecision_Dec", "KaonM_Hlt2DiMuonDetachedHeavyDecision_TIS", "KaonM_Hlt2DiMuonDetachedHeavyDecision_TOS", "KaonM_Hlt2DiMuonDetachedJPsiDecision_Dec", "KaonM_Hlt2DiMuonDetachedJPsiDecision_TIS", "KaonM_Hlt2DiMuonDetachedJPsiDecision_TOS", "KaonM_Hlt2DiMuonNoPVDecision_Dec", "KaonM_Hlt2DiMuonNoPVDecision_TIS", "KaonM_Hlt2DiMuonNoPVDecision_TOS", "Bach_ETA", "Bach_LOKI_IPCHI2", "Bach_Y", "Bach_CosTheta", "Bach_OWNPV_X", "Bach_OWNPV_Y", "Bach_OWNPV_Z", "Bach_OWNPV_XERR", "Bach_OWNPV_YERR", "Bach_OWNPV_ZERR", "Bach_OWNPV_CHI2", "Bach_OWNPV_NDOF", "Bach_OWNPV_COV_", "Bach_IP_OWNPV", "Bach_IPCHI2_OWNPV", "Bach_ORIVX_X", "Bach_ORIVX_Y", "Bach_ORIVX_Z", "Bach_ORIVX_XERR", "Bach_ORIVX_YERR", "Bach_ORIVX_ZERR", "Bach_ORIVX_CHI2", "Bach_ORIVX_NDOF", "Bach_ORIVX_COV_", "Bach_P", "Bach_PT", "Bach_PE", "Bach_PX", "Bach_PY", "Bach_PZ", "Bach_REFPX", "Bach_REFPY", "Bach_REFPZ", "Bach_M", "Bach_AtVtx_PE", "Bach_AtVtx_PX", "Bach_AtVtx_PY", "Bach_AtVtx_PZ", "Bach_TRUEID", "Bach_MC_MOTHER_ID", "Bach_MC_MOTHER_KEY", "Bach_MC_GD_MOTHER_ID", "Bach_MC_GD_MOTHER_KEY", "Bach_MC_GD_GD_MOTHER_ID", "Bach_MC_GD_GD_MOTHER_KEY", "Bach_TRUEP_E", "Bach_TRUEP_X", "Bach_TRUEP_Y", "Bach_TRUEP_Z", "Bach_TRUEPT", "Bach_TRUEORIGINVERTEX_X", "Bach_TRUEORIGINVERTEX_Y", "Bach_TRUEORIGINVERTEX_Z", "Bach_TRUEENDVERTEX_X", "Bach_TRUEENDVERTEX_Y", "Bach_TRUEENDVERTEX_Z", "Bach_TRUEISSTABLE", "Bach_TRUETAU", "Bach_Reconstructible", "Bach_Reconstructed", "Bach_ProtoParticles", "Bach_PP_PX", "Bach_PP_PY", "Bach_PP_PZ", "Bach_PP_Weight", "Bach_PP_tr_pchi2", "Bach_PP_DLLe", "Bach_PP_DLLk", "Bach_PP_DLLp", "Bach_PP_DLLmu", "Bach_ID", "Bach_PIDe", "Bach_PIDmu", "Bach_PIDK", "Bach_PIDp", "Bach_PIDd", "Bach_ProbNNe", "Bach_ProbNNk", "Bach_ProbNNp", "Bach_ProbNNpi", "Bach_ProbNNmu", "Bach_ProbNNd", "Bach_ProbNNghost", "Bach_hasMuon", "Bach_isMuon", "Bach_hasRich", "Bach_UsedRichAerogel", "Bach_UsedRich1Gas", "Bach_UsedRich2Gas", "Bach_RichAboveElThres", "Bach_RichAboveMuThres", "Bach_RichAbovePiThres", "Bach_RichAboveKaThres", "Bach_RichAbovePrThres", "Bach_hasCalo", "Bach_TRACK_Type", "Bach_TRACK_Key", "Bach_TRACK_CHI2NDOF", "Bach_TRACK_PCHI2", "Bach_TRACK_MatchCHI2", "Bach_TRACK_GhostProb", "Bach_TRACK_CloneDist", "Bach_TRACK_Likelihood", "Bach_L0Global_Dec", "Bach_L0Global_TIS", "Bach_L0Global_TOS", "Bach_Hlt1Global_Dec", "Bach_Hlt1Global_TIS", "Bach_Hlt1Global_TOS", "Bach_Hlt1Phys_Dec", "Bach_Hlt1Phys_TIS", "Bach_Hlt1Phys_TOS", "Bach_Hlt2Global_Dec", "Bach_Hlt2Global_TIS", "Bach_Hlt2Global_TOS", "Bach_Hlt2Phys_Dec", "Bach_Hlt2Phys_TIS", "Bach_Hlt2Phys_TOS", "Bach_L0MuonDecision_Dec", "Bach_L0MuonDecision_TIS", "Bach_L0MuonDecision_TOS", "Bach_L0DiMuonDecision_Dec", "Bach_L0DiMuonDecision_TIS", "Bach_L0DiMuonDecision_TOS", "Bach_L0MuonHighDecision_Dec", "Bach_L0MuonHighDecision_TIS", "Bach_L0MuonHighDecision_TOS", "Bach_L0HadronDecision_Dec", "Bach_L0HadronDecision_TIS", "Bach_L0HadronDecision_TOS", "Bach_L0PhotonDecision_Dec", "Bach_L0PhotonDecision_TIS", "Bach_L0PhotonDecision_TOS", "Bach_Hlt1DiMuonHighMassDecision_Dec", "Bach_Hlt1DiMuonHighMassDecision_TIS", "Bach_Hlt1DiMuonHighMassDecision_TOS", "Bach_Hlt1DiMuonLowMassDecision_Dec", "Bach_Hlt1DiMuonLowMassDecision_TIS", "Bach_Hlt1DiMuonLowMassDecision_TOS", "Bach_Hlt1SingleMuonNoIPDecision_Dec", "Bach_Hlt1SingleMuonNoIPDecision_TIS", "Bach_Hlt1SingleMuonNoIPDecision_TOS", "Bach_Hlt1SingleMuonHighPTDecision_Dec", "Bach_Hlt1SingleMuonHighPTDecision_TIS", "Bach_Hlt1SingleMuonHighPTDecision_TOS", "Bach_Hlt1TrackAllL0Decision_Dec", "Bach_Hlt1TrackAllL0Decision_TIS", "Bach_Hlt1TrackAllL0Decision_TOS", "Bach_Hlt1TrackMuonDecision_Dec", "Bach_Hlt1TrackMuonDecision_TIS", "Bach_Hlt1TrackMuonDecision_TOS", "Bach_Hlt1TrackPhotonDecision_Dec", "Bach_Hlt1TrackPhotonDecision_TIS", "Bach_Hlt1TrackPhotonDecision_TOS", "Bach_Hlt2Topo2BodyDecision_Dec", "Bach_Hlt2Topo2BodyDecision_TIS", "Bach_Hlt2Topo2BodyDecision_TOS", "Bach_Hlt2Topo3BodyDecision_Dec", "Bach_Hlt2Topo3BodyDecision_TIS", "Bach_Hlt2Topo3BodyDecision_TOS", "Bach_Hlt2Topo4BodyDecision_Dec", "Bach_Hlt2Topo4BodyDecision_TIS", "Bach_Hlt2Topo4BodyDecision_TOS", "Bach_Hlt2TopoMu2BodyDecision_Dec", "Bach_Hlt2TopoMu2BodyDecision_TIS", "Bach_Hlt2TopoMu2BodyDecision_TOS", "Bach_Hlt2TopoMu3BodyDecision_Dec", "Bach_Hlt2TopoMu3BodyDecision_TIS", "Bach_Hlt2TopoMu3BodyDecision_TOS", "Bach_Hlt2TopoMu4BodyDecision_Dec", "Bach_Hlt2TopoMu4BodyDecision_TIS", "Bach_Hlt2TopoMu4BodyDecision_TOS", "Bach_Hlt2DiMuonDecision_Dec", "Bach_Hlt2DiMuonDecision_TIS", "Bach_Hlt2DiMuonDecision_TOS", "Bach_Hlt2DiMuonLowMassDecision_Dec", "Bach_Hlt2DiMuonLowMassDecision_TIS", "Bach_Hlt2DiMuonLowMassDecision_TOS", "Bach_Hlt2DiMuonJPsiDecision_Dec", "Bach_Hlt2DiMuonJPsiDecision_TIS", "Bach_Hlt2DiMuonJPsiDecision_TOS", "Bach_Hlt2DiMuonJPsiHighPTDecision_Dec", "Bach_Hlt2DiMuonJPsiHighPTDecision_TIS", "Bach_Hlt2DiMuonJPsiHighPTDecision_TOS", "Bach_Hlt2DiMuonDetachedDecision_Dec", "Bach_Hlt2DiMuonDetachedDecision_TIS", "Bach_Hlt2DiMuonDetachedDecision_TOS", "Bach_Hlt2DiMuonDetachedHeavyDecision_Dec", "Bach_Hlt2DiMuonDetachedHeavyDecision_TIS", "Bach_Hlt2DiMuonDetachedHeavyDecision_TOS", "Bach_Hlt2DiMuonDetachedJPsiDecision_Dec", "Bach_Hlt2DiMuonDetachedJPsiDecision_TIS", "Bach_Hlt2DiMuonDetachedJPsiDecision_TOS", "Bach_Hlt2DiMuonNoPVDecision_Dec", "Bach_Hlt2DiMuonNoPVDecision_TIS", "Bach_Hlt2DiMuonNoPVDecision_TOS", "nCandidate", "totCandidates", "EventInSequence", "LoKi_nITClusters", "LoKi_nOThits", "LoKi_nPVs", "LoKi_nSpdMult", "LoKi_nTTClusters", "LoKi_nVeloClusters", "LoKi_nVeloLiteClusters", "runNumber", "eventNumber", "BCID", "BCType", "OdinTCK", "L0DUTCK", "HLT1TCK", "HLT2TCK", "GpsTime", "Polarity", "nPV", "PVX", "PVY", "PVZ", "PVXERR", "PVYERR", "PVZERR", "PVCHI2", "PVNDOF", "PVNTRACKS", "nPVs", "nTracks", "nLongTracks", "nDownstreamTracks", "nUpstreamTracks", "nVeloTracks", "nTTracks", "nBackTracks", "nRich1Hits", "nRich2Hits", "nVeloClusters", "nITClusters", "nTTClusters", "nOTClusters", "nSPDHits", "nMuonCoordsS0", "nMuonCoordsS1", "nMuonCoordsS2", "nMuonCoordsS3", "nMuonCoordsS4", "nMuonTracks", "DecayTree_Bach_PIDmu_corr", "Bach_PIDmu_corr", "DecayTree_Bach_PIDK_corr", "Bach_PIDK_corr", "DecayTree_MuP_PIDmu_corr", "MuP_PIDmu_corr", "DecayTree_MuM_PIDmu_corr", "MuM_PIDmu_corr", "DecayTree_KaonP_PIDK_corr", "KaonP_PIDK_corr", "DecayTree_KaonM_PIDK_corr", "KaonM_PIDK_corr" }L0        : pass=87443      all=100412     -- eff=87.08 % cumulative eff=87.08 %
HLT1      : pass=86167      all=87443      -- eff=98.54 % cumulative eff=85.81 %
HLT2      : pass=86047      all=86167      -- eff=99.86 % cumulative eff=85.69 %
5000 < Bs_MM && Bs_MM < 6000: pass=86047      all=86047      -- eff=100.00 % cumulative eff=85.69 %
Bs_ENDVERTEX_CHI2 / Bs_ENDVERTEX_NDOF < 10: pass=85245      all=86047      -- eff=99.07 % cumulative eff=84.90 %
Bc_ENDVERTEX_CHI2 / Bc_ENDVERTEX_NDOF < 9: pass=78394      all=85245      -- eff=91.96 % cumulative eff=78.07 %
Bc_IPCHI2_OWNPV < 25: pass=75241      all=78394      -- eff=95.98 % cumulative eff=74.93 %
Bc_IPCHI2_OWNPV >= 0: pass=75241      all=75241      -- eff=100.00 % cumulative eff=74.93 %
cuts in 2018 + 2016 but not 2017: pass=75241      all=75241      -- eff=100.00 % cumulative eff=74.93 %
Bs_TAU > 0: pass=71608      all=75241      -- eff=95.17 % cumulative eff=71.31 %
KaonP_TRACK_GhostProb < 0.4: pass=71608      all=71608      -- eff=100.00 % cumulative eff=71.31 %
KaonM_TRACK_GhostProb < 0.4: pass=71608      all=71608      -- eff=100.00 % cumulative eff=71.31 %
Phi_ENDVERTEX_CHI2/Phi_ENDVERTEX_NDOF < 16: pass=70925      all=71608      -- eff=99.05 % cumulative eff=70.63 %
MuM_PIDmu_corr > 0: pass=68458      all=70925      -- eff=96.52 % cumulative eff=68.18 %
MuP_PIDmu_corr: pass=68458      all=68458      -- eff=100.00 % cumulative eff=68.18 %
KaonP_PIDK_corr > 0: pass=66172      all=68458      -- eff=96.66 % cumulative eff=65.90 %
KaonM_PIDK_corr > 0: pass=64125      all=66172      -- eff=96.91 % cumulative eff=63.86 %
Bach_PIDmu_corr > 0 : pass=27056      all=64125      -- eff=42.19 % cumulative eff=26.94 %
Bach_isMuon == 1: pass=27056      all=27056      -- eff=100.00 % cumulative eff=26.94 %

Saving output files
Done
