Getting root files from text file....
Bachelor particle: Mu
Applying cuts to files......
Output filename: /eos/lhcb/user/t/tmcgrath/Bc2Bslnu_ana/MCReduced/Bc2BsMuNu_DsPi_MC_sim09h_2018_MU_reduced.root
Added file: root://eoslhcb.cern.ch//eos/lhcb/user/t/tmcgrath/Bc2Bslnu_ana/MC/Bc2BsMuNu/2018/Bc2BsMuNu_Bs2DsPi_2018_MU_MC_job0_merged.root
Added file: root://eoslhcb.cern.ch//eos/lhcb/user/t/tmcgrath/Bc2Bslnu_ana/MC/Bc2BsMuNu/2018/Bc2BsMuNu_Bs2DsPi_2018_MU_MC_job10_merged.root
Added file: root://eoslhcb.cern.ch//eos/lhcb/user/t/tmcgrath/Bc2Bslnu_ana/MC/Bc2BsMuNu/2018/Bc2BsMuNu_Bs2DsPi_2018_MU_MC_job11_merged.root
Added file: root://eoslhcb.cern.ch//eos/lhcb/user/t/tmcgrath/Bc2Bslnu_ana/MC/Bc2BsMuNu/2018/Bc2BsMuNu_Bs2DsPi_2018_MU_MC_job12_merged.root
Added file: root://eoslhcb.cern.ch//eos/lhcb/user/t/tmcgrath/Bc2Bslnu_ana/MC/Bc2BsMuNu/2018/Bc2BsMuNu_Bs2DsPi_2018_MU_MC_job13_merged.root
Added file: root://eoslhcb.cern.ch//eos/lhcb/user/t/tmcgrath/Bc2Bslnu_ana/MC/Bc2BsMuNu/2018/Bc2BsMuNu_Bs2DsPi_2018_MU_MC_job14_merged.root
Added file: root://eoslhcb.cern.ch//eos/lhcb/user/t/tmcgrath/Bc2Bslnu_ana/MC/Bc2BsMuNu/2018/Bc2BsMuNu_Bs2DsPi_2018_MU_MC_job15_merged.root
Added file: root://eoslhcb.cern.ch//eos/lhcb/user/t/tmcgrath/Bc2Bslnu_ana/MC/Bc2BsMuNu/2018/Bc2BsMuNu_Bs2DsPi_2018_MU_MC_job16_merged.root
Added file: root://eoslhcb.cern.ch//eos/lhcb/user/t/tmcgrath/Bc2Bslnu_ana/MC/Bc2BsMuNu/2018/Bc2BsMuNu_Bs2DsPi_2018_MU_MC_job17_merged.root
Added file: root://eoslhcb.cern.ch//eos/lhcb/user/t/tmcgrath/Bc2Bslnu_ana/MC/Bc2BsMuNu/2018/Bc2BsMuNu_Bs2DsPi_2018_MU_MC_job18_merged.root
Added file: root://eoslhcb.cern.ch//eos/lhcb/user/t/tmcgrath/Bc2Bslnu_ana/MC/Bc2BsMuNu/2018/Bc2BsMuNu_Bs2DsPi_2018_MU_MC_job19_merged.root
Added file: root://eoslhcb.cern.ch//eos/lhcb/user/t/tmcgrath/Bc2Bslnu_ana/MC/Bc2BsMuNu/2018/Bc2BsMuNu_Bs2DsPi_2018_MU_MC_job1_merged.root
Added file: root://eoslhcb.cern.ch//eos/lhcb/user/t/tmcgrath/Bc2Bslnu_ana/MC/Bc2BsMuNu/2018/Bc2BsMuNu_Bs2DsPi_2018_MU_MC_job20_merged.root
Added file: root://eoslhcb.cern.ch//eos/lhcb/user/t/tmcgrath/Bc2Bslnu_ana/MC/Bc2BsMuNu/2018/Bc2BsMuNu_Bs2DsPi_2018_MU_MC_job21_merged.root
Added file: root://eoslhcb.cern.ch//eos/lhcb/user/t/tmcgrath/Bc2Bslnu_ana/MC/Bc2BsMuNu/2018/Bc2BsMuNu_Bs2DsPi_2018_MU_MC_job2_merged.root
Added file: root://eoslhcb.cern.ch//eos/lhcb/user/t/tmcgrath/Bc2Bslnu_ana/MC/Bc2BsMuNu/2018/Bc2BsMuNu_Bs2DsPi_2018_MU_MC_job3_merged.root
Added file: root://eoslhcb.cern.ch//eos/lhcb/user/t/tmcgrath/Bc2Bslnu_ana/MC/Bc2BsMuNu/2018/Bc2BsMuNu_Bs2DsPi_2018_MU_MC_job4_merged.root
Added file: root://eoslhcb.cern.ch//eos/lhcb/user/t/tmcgrath/Bc2Bslnu_ana/MC/Bc2BsMuNu/2018/Bc2BsMuNu_Bs2DsPi_2018_MU_MC_job5_merged.root
Added file: root://eoslhcb.cern.ch//eos/lhcb/user/t/tmcgrath/Bc2Bslnu_ana/MC/Bc2BsMuNu/2018/Bc2BsMuNu_Bs2DsPi_2018_MU_MC_job6_merged.root
Added file: root://eoslhcb.cern.ch//eos/lhcb/user/t/tmcgrath/Bc2Bslnu_ana/MC/Bc2BsMuNu/2018/Bc2BsMuNu_Bs2DsPi_2018_MU_MC_job7_merged.root
Added file: root://eoslhcb.cern.ch//eos/lhcb/user/t/tmcgrath/Bc2Bslnu_ana/MC/Bc2BsMuNu/2018/Bc2BsMuNu_Bs2DsPi_2018_MU_MC_job8_merged.root
Added file: root://eoslhcb.cern.ch//eos/lhcb/user/t/tmcgrath/Bc2Bslnu_ana/MC/Bc2BsMuNu/2018/Bc2BsMuNu_Bs2DsPi_2018_MU_MC_job9_merged.root
{ "Bc_ETA", "Bc_LOKI_IPCHI2", "Bc_Y", "Bc_ENDVERTEX_X", "Bc_ENDVERTEX_Y", "Bc_ENDVERTEX_Z", "Bc_ENDVERTEX_XERR", "Bc_ENDVERTEX_YERR", "Bc_ENDVERTEX_ZERR", "Bc_ENDVERTEX_CHI2", "Bc_ENDVERTEX_NDOF", "Bc_ENDVERTEX_COV_", "Bc_OWNPV_X", "Bc_OWNPV_Y", "Bc_OWNPV_Z", "Bc_OWNPV_XERR", "Bc_OWNPV_YERR", "Bc_OWNPV_ZERR", "Bc_OWNPV_CHI2", "Bc_OWNPV_NDOF", "Bc_OWNPV_COV_", "Bc_IP_OWNPV", "Bc_IPCHI2_OWNPV", "Bc_FD_OWNPV", "Bc_FDCHI2_OWNPV", "Bc_DIRA_OWNPV", "Bc_P", "Bc_PT", "Bc_PE", "Bc_PX", "Bc_PY", "Bc_PZ", "Bc_REFPX", "Bc_REFPY", "Bc_REFPZ", "Bc_MM", "Bc_MMERR", "Bc_M", "Bc_BKGCAT", "Bc_TRUEID", "Bc_MC_MOTHER_ID", "Bc_MC_MOTHER_KEY", "Bc_MC_GD_MOTHER_ID", "Bc_MC_GD_MOTHER_KEY", "Bc_MC_GD_GD_MOTHER_ID", "Bc_MC_GD_GD_MOTHER_KEY", "Bc_TRUEP_E", "Bc_TRUEP_X", "Bc_TRUEP_Y", "Bc_TRUEP_Z", "Bc_TRUEPT", "Bc_TRUEORIGINVERTEX_X", "Bc_TRUEORIGINVERTEX_Y", "Bc_TRUEORIGINVERTEX_Z", "Bc_TRUEENDVERTEX_X", "Bc_TRUEENDVERTEX_Y", "Bc_TRUEENDVERTEX_Z", "Bc_TRUEISSTABLE", "Bc_TRUETAU", "Bc_Reconstructible", "Bc_Reconstructed", "Bc_ProtoParticles", "Bc_PP_PX", "Bc_PP_PY", "Bc_PP_PZ", "Bc_PP_Weight", "Bc_PP_tr_pchi2", "Bc_PP_DLLe", "Bc_PP_DLLk", "Bc_PP_DLLp", "Bc_PP_DLLmu", "Bc_OVrefit_status", "Bc_OVrefit_ENDVERTEX_NDOF", "Bc_OVrefit_ENDVERTEX_CHI2", "Bc_OVrefit_MM", "Bc_OVrefit_MMERR", "Bc_OVrefit_P", "Bc_OVrefit_PT", "Bc_OVrefit_PE", "Bc_OVrefit_PX", "Bc_OVrefit_PY", "Bc_OVrefit_PZ", "Bc_OVrefit_TAU", "Bc_OVrefit_TAUERR", "Bc_OVrefit_TAUCHI2", "Bc_ID", "Bc_TAU", "Bc_TAUERR", "Bc_TAUCHI2", "Bc_CORR_M", "Bc_KEY", "Bc_LOKI_DIRA", "Bc_LOKI_FDCHI2", "Bc_LOKI_FDS", "Bc_LV01", "Bc_LV02", "Bc_PHI", "Bc_PV_ETA", "Bc_is_from_Bc_BsMuNu", "Bc_is_from_Bc_BsPi", "Bc_MassFit_nPV", "Bc_MassFit_B_s0_M", "Bc_MassFit_B_s0_MERR", "Bc_MassFit_B_s0_P", "Bc_MassFit_B_s0_PERR", "Bc_MassFit_B_s0_ctau", "Bc_MassFit_B_s0_ctauErr", "Bc_MassFit_B_s0_decayLength", "Bc_MassFit_B_s0_decayLengthErr", "Bc_MassFit_D_splus_M", "Bc_MassFit_D_splus_MERR", "Bc_MassFit_D_splus_P", "Bc_MassFit_D_splus_PERR", "Bc_MassFit_D_splus_ctau", "Bc_MassFit_D_splus_ctauErr", "Bc_MassFit_D_splus_decayLength", "Bc_MassFit_D_splus_decayLengthErr", "Bc_MassFit_M", "Bc_MassFit_MERR", "Bc_MassFit_P", "Bc_MassFit_PERR", "Bc_MassFit_chi2", "Bc_MassFit_nDOF", "Bc_MassFit_nIter", "Bc_MassFit_status", "Bc_PVFit_nPV", "Bc_PVFit_B_s0_M", "Bc_PVFit_B_s0_MERR", "Bc_PVFit_B_s0_P", "Bc_PVFit_B_s0_PERR", "Bc_PVFit_B_s0_ctau", "Bc_PVFit_B_s0_ctauErr", "Bc_PVFit_B_s0_decayLength", "Bc_PVFit_B_s0_decayLengthErr", "Bc_PVFit_D_splus_M", "Bc_PVFit_D_splus_MERR", "Bc_PVFit_D_splus_P", "Bc_PVFit_D_splus_PERR", "Bc_PVFit_D_splus_ctau", "Bc_PVFit_D_splus_ctauErr", "Bc_PVFit_D_splus_decayLength", "Bc_PVFit_D_splus_decayLengthErr", "Bc_PVFit_M", "Bc_PVFit_MERR", "Bc_PVFit_P", "Bc_PVFit_PERR", "Bc_PVFit_PV_X", "Bc_PVFit_PV_Y", "Bc_PVFit_PV_Z", "Bc_PVFit_PV_key", "Bc_PVFit_chi2", "Bc_PVFit_ctau", "Bc_PVFit_ctauErr", "Bc_PVFit_decayLength", "Bc_PVFit_decayLengthErr", "Bc_PVFit_nDOF", "Bc_PVFit_nIter", "Bc_PVFit_status", "Bc_L0Global_Dec", "Bc_L0Global_TIS", "Bc_L0Global_TOS", "Bc_Hlt1Global_Dec", "Bc_Hlt1Global_TIS", "Bc_Hlt1Global_TOS", "Bc_Hlt1Phys_Dec", "Bc_Hlt1Phys_TIS", "Bc_Hlt1Phys_TOS", "Bc_Hlt2Global_Dec", "Bc_Hlt2Global_TIS", "Bc_Hlt2Global_TOS", "Bc_Hlt2Phys_Dec", "Bc_Hlt2Phys_TIS", "Bc_Hlt2Phys_TOS", "Bc_L0MuonDecision_Dec", "Bc_L0MuonDecision_TIS", "Bc_L0MuonDecision_TOS", "Bc_L0DiMuonDecision_Dec", "Bc_L0DiMuonDecision_TIS", "Bc_L0DiMuonDecision_TOS", "Bc_L0HadronDecision_Dec", "Bc_L0HadronDecision_TIS", "Bc_L0HadronDecision_TOS", "Bc_Hlt1SingleMuonNoIPDecision_Dec", "Bc_Hlt1SingleMuonNoIPDecision_TIS", "Bc_Hlt1SingleMuonNoIPDecision_TOS", "Bc_Hlt1TrackMVADecision_Dec", "Bc_Hlt1TrackMVADecision_TIS", "Bc_Hlt1TrackMVADecision_TOS", "Bc_Hlt1TwoTrackMVADecision_Dec", "Bc_Hlt1TwoTrackMVADecision_TIS", "Bc_Hlt1TwoTrackMVADecision_TOS", "Bc_Hlt1TrackMuonDecision_Dec", "Bc_Hlt1TrackMuonDecision_TIS", "Bc_Hlt1TrackMuonDecision_TOS", "Bc_Hlt1TrackAllL0Decision_Dec", "Bc_Hlt1TrackAllL0Decision_TIS", "Bc_Hlt1TrackAllL0Decision_TOS", "Bc_Hlt2SingleMuonDecision_Dec", "Bc_Hlt2SingleMuonDecision_TIS", "Bc_Hlt2SingleMuonDecision_TOS", "Bc_Hlt2TopoMu2BodyDecision_Dec", "Bc_Hlt2TopoMu2BodyDecision_TIS", "Bc_Hlt2TopoMu2BodyDecision_TOS", "Bc_Hlt2TopoMu3BodyDecision_Dec", "Bc_Hlt2TopoMu3BodyDecision_TIS", "Bc_Hlt2TopoMu3BodyDecision_TOS", "Bc_Hlt2TopoMu4BodyDecision_Dec", "Bc_Hlt2TopoMu4BodyDecision_TIS", "Bc_Hlt2TopoMu4BodyDecision_TOS", "Bc_Hlt2Topo2BodyDecision_Dec", "Bc_Hlt2Topo2BodyDecision_TIS", "Bc_Hlt2Topo2BodyDecision_TOS", "Bc_Hlt2Topo3BodyDecision_Dec", "Bc_Hlt2Topo3BodyDecision_TIS", "Bc_Hlt2Topo3BodyDecision_TOS", "Bc_Hlt2Topo4BodyDecision_Dec", "Bc_Hlt2Topo4BodyDecision_TIS", "Bc_Hlt2Topo4BodyDecision_TOS", "Bc_Hlt2PhiIncPhiDecision_Dec", "Bc_Hlt2PhiIncPhiDecision_TIS", "Bc_Hlt2PhiIncPhiDecision_TOS", "Bs_ETA", "Bs_LOKI_IPCHI2", "Bs_Y", "Bs_CosTheta", "Bs_ENDVERTEX_X", "Bs_ENDVERTEX_Y", "Bs_ENDVERTEX_Z", "Bs_ENDVERTEX_XERR", "Bs_ENDVERTEX_YERR", "Bs_ENDVERTEX_ZERR", "Bs_ENDVERTEX_CHI2", "Bs_ENDVERTEX_NDOF", "Bs_ENDVERTEX_COV_", "Bs_OWNPV_X", "Bs_OWNPV_Y", "Bs_OWNPV_Z", "Bs_OWNPV_XERR", "Bs_OWNPV_YERR", "Bs_OWNPV_ZERR", "Bs_OWNPV_CHI2", "Bs_OWNPV_NDOF", "Bs_OWNPV_COV_", "Bs_IP_OWNPV", "Bs_IPCHI2_OWNPV", "Bs_FD_OWNPV", "Bs_FDCHI2_OWNPV", "Bs_DIRA_OWNPV", "Bs_ORIVX_X", "Bs_ORIVX_Y", "Bs_ORIVX_Z", "Bs_ORIVX_XERR", "Bs_ORIVX_YERR", "Bs_ORIVX_ZERR", "Bs_ORIVX_CHI2", "Bs_ORIVX_NDOF", "Bs_ORIVX_COV_", "Bs_FD_ORIVX", "Bs_FDCHI2_ORIVX", "Bs_DIRA_ORIVX", "Bs_P", "Bs_PT", "Bs_PE", "Bs_PX", "Bs_PY", "Bs_PZ", "Bs_REFPX", "Bs_REFPY", "Bs_REFPZ", "Bs_MM", "Bs_MMERR", "Bs_M", "Bs_BKGCAT", "Bs_TRUEID", "Bs_MC_MOTHER_ID", "Bs_MC_MOTHER_KEY", "Bs_MC_GD_MOTHER_ID", "Bs_MC_GD_MOTHER_KEY", "Bs_MC_GD_GD_MOTHER_ID", "Bs_MC_GD_GD_MOTHER_KEY", "Bs_TRUEP_E", "Bs_TRUEP_X", "Bs_TRUEP_Y", "Bs_TRUEP_Z", "Bs_TRUEPT", "Bs_TRUEORIGINVERTEX_X", "Bs_TRUEORIGINVERTEX_Y", "Bs_TRUEORIGINVERTEX_Z", "Bs_TRUEENDVERTEX_X", "Bs_TRUEENDVERTEX_Y", "Bs_TRUEENDVERTEX_Z", "Bs_TRUEISSTABLE", "Bs_TRUETAU", "Bs_Reconstructible", "Bs_Reconstructed", "Bs_ProtoParticles", "Bs_PP_PX", "Bs_PP_PY", "Bs_PP_PZ", "Bs_PP_Weight", "Bs_PP_tr_pchi2", "Bs_PP_DLLe", "Bs_PP_DLLk", "Bs_PP_DLLp", "Bs_PP_DLLmu", "Bs_ID", "Bs_TAU", "Bs_TAUERR", "Bs_TAUCHI2", "Bs_KEY", "Bs_LOKI_DIRA", "Bs_LOKI_FDCHI2", "Bs_LOKI_FDS", "Bs_LV01", "Bs_LV02", "Bs_PHI", "Bs_PV_ETA", "Bs_is_from_Bs_DsPi", "Bs_BsMassFit_nPV", "Bs_BsMassFit_D_splus_M", "Bs_BsMassFit_D_splus_MERR", "Bs_BsMassFit_D_splus_P", "Bs_BsMassFit_D_splus_PERR", "Bs_BsMassFit_D_splus_ctau", "Bs_BsMassFit_D_splus_ctauErr", "Bs_BsMassFit_D_splus_decayLength", "Bs_BsMassFit_D_splus_decayLengthErr", "Bs_BsMassFit_M", "Bs_BsMassFit_MERR", "Bs_BsMassFit_P", "Bs_BsMassFit_PERR", "Bs_BsMassFit_chi2", "Bs_BsMassFit_nDOF", "Bs_BsMassFit_nIter", "Bs_BsMassFit_status", "Bs_BsPVFit_nPV", "Bs_BsPVFit_D_splus_M", "Bs_BsPVFit_D_splus_MERR", "Bs_BsPVFit_D_splus_P", "Bs_BsPVFit_D_splus_PERR", "Bs_BsPVFit_D_splus_ctau", "Bs_BsPVFit_D_splus_ctauErr", "Bs_BsPVFit_D_splus_decayLength", "Bs_BsPVFit_D_splus_decayLengthErr", "Bs_BsPVFit_M", "Bs_BsPVFit_MERR", "Bs_BsPVFit_P", "Bs_BsPVFit_PERR", "Bs_BsPVFit_PV_X", "Bs_BsPVFit_PV_Y", "Bs_BsPVFit_PV_Z", "Bs_BsPVFit_PV_key", "Bs_BsPVFit_chi2", "Bs_BsPVFit_ctau", "Bs_BsPVFit_ctauErr", "Bs_BsPVFit_decayLength", "Bs_BsPVFit_decayLengthErr", "Bs_BsPVFit_nDOF", "Bs_BsPVFit_nIter", "Bs_BsPVFit_status", "Bs_L0Global_Dec", "Bs_L0Global_TIS", "Bs_L0Global_TOS", "Bs_Hlt1Global_Dec", "Bs_Hlt1Global_TIS", "Bs_Hlt1Global_TOS", "Bs_Hlt1Phys_Dec", "Bs_Hlt1Phys_TIS", "Bs_Hlt1Phys_TOS", "Bs_Hlt2Global_Dec", "Bs_Hlt2Global_TIS", "Bs_Hlt2Global_TOS", "Bs_Hlt2Phys_Dec", "Bs_Hlt2Phys_TIS", "Bs_Hlt2Phys_TOS", "Bs_L0MuonDecision_Dec", "Bs_L0MuonDecision_TIS", "Bs_L0MuonDecision_TOS", "Bs_L0DiMuonDecision_Dec", "Bs_L0DiMuonDecision_TIS", "Bs_L0DiMuonDecision_TOS", "Bs_L0HadronDecision_Dec", "Bs_L0HadronDecision_TIS", "Bs_L0HadronDecision_TOS", "Bs_Hlt1SingleMuonNoIPDecision_Dec", "Bs_Hlt1SingleMuonNoIPDecision_TIS", "Bs_Hlt1SingleMuonNoIPDecision_TOS", "Bs_Hlt1TrackMVADecision_Dec", "Bs_Hlt1TrackMVADecision_TIS", "Bs_Hlt1TrackMVADecision_TOS", "Bs_Hlt1TwoTrackMVADecision_Dec", "Bs_Hlt1TwoTrackMVADecision_TIS", "Bs_Hlt1TwoTrackMVADecision_TOS", "Bs_Hlt1TrackMuonDecision_Dec", "Bs_Hlt1TrackMuonDecision_TIS", "Bs_Hlt1TrackMuonDecision_TOS", "Bs_Hlt1TrackAllL0Decision_Dec", "Bs_Hlt1TrackAllL0Decision_TIS", "Bs_Hlt1TrackAllL0Decision_TOS", "Bs_Hlt2SingleMuonDecision_Dec", "Bs_Hlt2SingleMuonDecision_TIS", "Bs_Hlt2SingleMuonDecision_TOS", "Bs_Hlt2TopoMu2BodyDecision_Dec", "Bs_Hlt2TopoMu2BodyDecision_TIS", "Bs_Hlt2TopoMu2BodyDecision_TOS", "Bs_Hlt2TopoMu3BodyDecision_Dec", "Bs_Hlt2TopoMu3BodyDecision_TIS", "Bs_Hlt2TopoMu3BodyDecision_TOS", "Bs_Hlt2TopoMu4BodyDecision_Dec", "Bs_Hlt2TopoMu4BodyDecision_TIS", "Bs_Hlt2TopoMu4BodyDecision_TOS", "Bs_Hlt2Topo2BodyDecision_Dec", "Bs_Hlt2Topo2BodyDecision_TIS", "Bs_Hlt2Topo2BodyDecision_TOS", "Bs_Hlt2Topo3BodyDecision_Dec", "Bs_Hlt2Topo3BodyDecision_TIS", "Bs_Hlt2Topo3BodyDecision_TOS", "Bs_Hlt2Topo4BodyDecision_Dec", "Bs_Hlt2Topo4BodyDecision_TIS", "Bs_Hlt2Topo4BodyDecision_TOS", "Bs_Hlt2PhiIncPhiDecision_Dec", "Bs_Hlt2PhiIncPhiDecision_TIS", "Bs_Hlt2PhiIncPhiDecision_TOS", "Ds_ETA", "Ds_LOKI_IPCHI2", "Ds_Y", "Ds_CosTheta", "Ds_ENDVERTEX_X", "Ds_ENDVERTEX_Y", "Ds_ENDVERTEX_Z", "Ds_ENDVERTEX_XERR", "Ds_ENDVERTEX_YERR", "Ds_ENDVERTEX_ZERR", "Ds_ENDVERTEX_CHI2", "Ds_ENDVERTEX_NDOF", "Ds_ENDVERTEX_COV_", "Ds_OWNPV_X", "Ds_OWNPV_Y", "Ds_OWNPV_Z", "Ds_OWNPV_XERR", "Ds_OWNPV_YERR", "Ds_OWNPV_ZERR", "Ds_OWNPV_CHI2", "Ds_OWNPV_NDOF", "Ds_OWNPV_COV_", "Ds_IP_OWNPV", "Ds_IPCHI2_OWNPV", "Ds_FD_OWNPV", "Ds_FDCHI2_OWNPV", "Ds_DIRA_OWNPV", "Ds_ORIVX_X", "Ds_ORIVX_Y", "Ds_ORIVX_Z", "Ds_ORIVX_XERR", "Ds_ORIVX_YERR", "Ds_ORIVX_ZERR", "Ds_ORIVX_CHI2", "Ds_ORIVX_NDOF", "Ds_ORIVX_COV_", "Ds_FD_ORIVX", "Ds_FDCHI2_ORIVX", "Ds_DIRA_ORIVX", "Ds_P", "Ds_PT", "Ds_PE", "Ds_PX", "Ds_PY", "Ds_PZ", "Ds_REFPX", "Ds_REFPY", "Ds_REFPZ", "Ds_MM", "Ds_MMERR", "Ds_M", "Ds_BKGCAT", "Ds_TRUEID", "Ds_MC_MOTHER_ID", "Ds_MC_MOTHER_KEY", "Ds_MC_GD_MOTHER_ID", "Ds_MC_GD_MOTHER_KEY", "Ds_MC_GD_GD_MOTHER_ID", "Ds_MC_GD_GD_MOTHER_KEY", "Ds_TRUEP_E", "Ds_TRUEP_X", "Ds_TRUEP_Y", "Ds_TRUEP_Z", "Ds_TRUEPT", "Ds_TRUEORIGINVERTEX_X", "Ds_TRUEORIGINVERTEX_Y", "Ds_TRUEORIGINVERTEX_Z", "Ds_TRUEENDVERTEX_X", "Ds_TRUEENDVERTEX_Y", "Ds_TRUEENDVERTEX_Z", "Ds_TRUEISSTABLE", "Ds_TRUETAU", "Ds_Reconstructible", "Ds_Reconstructed", "Ds_ProtoParticles", "Ds_PP_PX", "Ds_PP_PY", "Ds_PP_PZ", "Ds_PP_Weight", "Ds_PP_tr_pchi2", "Ds_PP_DLLe", "Ds_PP_DLLk", "Ds_PP_DLLp", "Ds_PP_DLLmu", "Ds_ID", "Ds_TAU", "Ds_TAUERR", "Ds_TAUCHI2", "Ds_L0Global_Dec", "Ds_L0Global_TIS", "Ds_L0Global_TOS", "Ds_Hlt1Global_Dec", "Ds_Hlt1Global_TIS", "Ds_Hlt1Global_TOS", "Ds_Hlt1Phys_Dec", "Ds_Hlt1Phys_TIS", "Ds_Hlt1Phys_TOS", "Ds_Hlt2Global_Dec", "Ds_Hlt2Global_TIS", "Ds_Hlt2Global_TOS", "Ds_Hlt2Phys_Dec", "Ds_Hlt2Phys_TIS", "Ds_Hlt2Phys_TOS", "Ds_L0MuonDecision_Dec", "Ds_L0MuonDecision_TIS", "Ds_L0MuonDecision_TOS", "Ds_L0DiMuonDecision_Dec", "Ds_L0DiMuonDecision_TIS", "Ds_L0DiMuonDecision_TOS", "Ds_L0HadronDecision_Dec", "Ds_L0HadronDecision_TIS", "Ds_L0HadronDecision_TOS", "Ds_Hlt1SingleMuonNoIPDecision_Dec", "Ds_Hlt1SingleMuonNoIPDecision_TIS", "Ds_Hlt1SingleMuonNoIPDecision_TOS", "Ds_Hlt1TrackMVADecision_Dec", "Ds_Hlt1TrackMVADecision_TIS", "Ds_Hlt1TrackMVADecision_TOS", "Ds_Hlt1TwoTrackMVADecision_Dec", "Ds_Hlt1TwoTrackMVADecision_TIS", "Ds_Hlt1TwoTrackMVADecision_TOS", "Ds_Hlt1TrackMuonDecision_Dec", "Ds_Hlt1TrackMuonDecision_TIS", "Ds_Hlt1TrackMuonDecision_TOS", "Ds_Hlt1TrackAllL0Decision_Dec", "Ds_Hlt1TrackAllL0Decision_TIS", "Ds_Hlt1TrackAllL0Decision_TOS", "Ds_Hlt2SingleMuonDecision_Dec", "Ds_Hlt2SingleMuonDecision_TIS", "Ds_Hlt2SingleMuonDecision_TOS", "Ds_Hlt2TopoMu2BodyDecision_Dec", "Ds_Hlt2TopoMu2BodyDecision_TIS", "Ds_Hlt2TopoMu2BodyDecision_TOS", "Ds_Hlt2TopoMu3BodyDecision_Dec", "Ds_Hlt2TopoMu3BodyDecision_TIS", "Ds_Hlt2TopoMu3BodyDecision_TOS", "Ds_Hlt2TopoMu4BodyDecision_Dec", "Ds_Hlt2TopoMu4BodyDecision_TIS", "Ds_Hlt2TopoMu4BodyDecision_TOS", "Ds_Hlt2Topo2BodyDecision_Dec", "Ds_Hlt2Topo2BodyDecision_TIS", "Ds_Hlt2Topo2BodyDecision_TOS", "Ds_Hlt2Topo3BodyDecision_Dec", "Ds_Hlt2Topo3BodyDecision_TIS", "Ds_Hlt2Topo3BodyDecision_TOS", "Ds_Hlt2Topo4BodyDecision_Dec", "Ds_Hlt2Topo4BodyDecision_TIS", "Ds_Hlt2Topo4BodyDecision_TOS", "Ds_Hlt2PhiIncPhiDecision_Dec", "Ds_Hlt2PhiIncPhiDecision_TIS", "Ds_Hlt2PhiIncPhiDecision_TOS", "H1Ds_ETA", "H1Ds_LOKI_IPCHI2", "H1Ds_Y", "H1Ds_CosTheta", "H1Ds_OWNPV_X", "H1Ds_OWNPV_Y", "H1Ds_OWNPV_Z", "H1Ds_OWNPV_XERR", "H1Ds_OWNPV_YERR", "H1Ds_OWNPV_ZERR", "H1Ds_OWNPV_CHI2", "H1Ds_OWNPV_NDOF", "H1Ds_OWNPV_COV_", "H1Ds_IP_OWNPV", "H1Ds_IPCHI2_OWNPV", "H1Ds_ORIVX_X", "H1Ds_ORIVX_Y", "H1Ds_ORIVX_Z", "H1Ds_ORIVX_XERR", "H1Ds_ORIVX_YERR", "H1Ds_ORIVX_ZERR", "H1Ds_ORIVX_CHI2", "H1Ds_ORIVX_NDOF", "H1Ds_ORIVX_COV_", "H1Ds_P", "H1Ds_PT", "H1Ds_PE", "H1Ds_PX", "H1Ds_PY", "H1Ds_PZ", "H1Ds_REFPX", "H1Ds_REFPY", "H1Ds_REFPZ", "H1Ds_M", "H1Ds_AtVtx_PE", "H1Ds_AtVtx_PX", "H1Ds_AtVtx_PY", "H1Ds_AtVtx_PZ", "H1Ds_TRUEID", "H1Ds_MC_MOTHER_ID", "H1Ds_MC_MOTHER_KEY", "H1Ds_MC_GD_MOTHER_ID", "H1Ds_MC_GD_MOTHER_KEY", "H1Ds_MC_GD_GD_MOTHER_ID", "H1Ds_MC_GD_GD_MOTHER_KEY", "H1Ds_TRUEP_E", "H1Ds_TRUEP_X", "H1Ds_TRUEP_Y", "H1Ds_TRUEP_Z", "H1Ds_TRUEPT", "H1Ds_TRUEORIGINVERTEX_X", "H1Ds_TRUEORIGINVERTEX_Y", "H1Ds_TRUEORIGINVERTEX_Z", "H1Ds_TRUEENDVERTEX_X", "H1Ds_TRUEENDVERTEX_Y", "H1Ds_TRUEENDVERTEX_Z", "H1Ds_TRUEISSTABLE", "H1Ds_TRUETAU", "H1Ds_Reconstructible", "H1Ds_Reconstructed", "H1Ds_ProtoParticles", "H1Ds_PP_PX", "H1Ds_PP_PY", "H1Ds_PP_PZ", "H1Ds_PP_Weight", "H1Ds_PP_tr_pchi2", "H1Ds_PP_DLLe", "H1Ds_PP_DLLk", "H1Ds_PP_DLLp", "H1Ds_PP_DLLmu", "H1Ds_ID", "H1Ds_PIDe", "H1Ds_PIDmu", "H1Ds_PIDK", "H1Ds_PIDp", "H1Ds_PIDd", "H1Ds_ProbNNe", "H1Ds_ProbNNk", "H1Ds_ProbNNp", "H1Ds_ProbNNpi", "H1Ds_ProbNNmu", "H1Ds_ProbNNd", "H1Ds_ProbNNghost", "H1Ds_hasMuon", "H1Ds_isMuon", "H1Ds_hasRich", "H1Ds_UsedRichAerogel", "H1Ds_UsedRich1Gas", "H1Ds_UsedRich2Gas", "H1Ds_RichAboveElThres", "H1Ds_RichAboveMuThres", "H1Ds_RichAbovePiThres", "H1Ds_RichAboveKaThres", "H1Ds_RichAbovePrThres", "H1Ds_hasCalo", "H1Ds_TRACK_Type", "H1Ds_TRACK_Key", "H1Ds_TRACK_CHI2NDOF", "H1Ds_TRACK_PCHI2", "H1Ds_TRACK_MatchCHI2", "H1Ds_TRACK_GhostProb", "H1Ds_TRACK_CloneDist", "H1Ds_TRACK_Likelihood", "H1Ds_L0Global_Dec", "H1Ds_L0Global_TIS", "H1Ds_L0Global_TOS", "H1Ds_Hlt1Global_Dec", "H1Ds_Hlt1Global_TIS", "H1Ds_Hlt1Global_TOS", "H1Ds_Hlt1Phys_Dec", "H1Ds_Hlt1Phys_TIS", "H1Ds_Hlt1Phys_TOS", "H1Ds_Hlt2Global_Dec", "H1Ds_Hlt2Global_TIS", "H1Ds_Hlt2Global_TOS", "H1Ds_Hlt2Phys_Dec", "H1Ds_Hlt2Phys_TIS", "H1Ds_Hlt2Phys_TOS", "H1Ds_L0MuonDecision_Dec", "H1Ds_L0MuonDecision_TIS", "H1Ds_L0MuonDecision_TOS", "H1Ds_L0DiMuonDecision_Dec", "H1Ds_L0DiMuonDecision_TIS", "H1Ds_L0DiMuonDecision_TOS", "H1Ds_L0HadronDecision_Dec", "H1Ds_L0HadronDecision_TIS", "H1Ds_L0HadronDecision_TOS", "H1Ds_Hlt1SingleMuonNoIPDecision_Dec", "H1Ds_Hlt1SingleMuonNoIPDecision_TIS", "H1Ds_Hlt1SingleMuonNoIPDecision_TOS", "H1Ds_Hlt1TrackMVADecision_Dec", "H1Ds_Hlt1TrackMVADecision_TIS", "H1Ds_Hlt1TrackMVADecision_TOS", "H1Ds_Hlt1TwoTrackMVADecision_Dec", "H1Ds_Hlt1TwoTrackMVADecision_TIS", "H1Ds_Hlt1TwoTrackMVADecision_TOS", "H1Ds_Hlt1TrackMuonDecision_Dec", "H1Ds_Hlt1TrackMuonDecision_TIS", "H1Ds_Hlt1TrackMuonDecision_TOS", "H1Ds_Hlt1TrackAllL0Decision_Dec", "H1Ds_Hlt1TrackAllL0Decision_TIS", "H1Ds_Hlt1TrackAllL0Decision_TOS", "H1Ds_Hlt2SingleMuonDecision_Dec", "H1Ds_Hlt2SingleMuonDecision_TIS", "H1Ds_Hlt2SingleMuonDecision_TOS", "H1Ds_Hlt2TopoMu2BodyDecision_Dec", "H1Ds_Hlt2TopoMu2BodyDecision_TIS", "H1Ds_Hlt2TopoMu2BodyDecision_TOS", "H1Ds_Hlt2TopoMu3BodyDecision_Dec", "H1Ds_Hlt2TopoMu3BodyDecision_TIS", "H1Ds_Hlt2TopoMu3BodyDecision_TOS", "H1Ds_Hlt2TopoMu4BodyDecision_Dec", "H1Ds_Hlt2TopoMu4BodyDecision_TIS", "H1Ds_Hlt2TopoMu4BodyDecision_TOS", "H1Ds_Hlt2Topo2BodyDecision_Dec", "H1Ds_Hlt2Topo2BodyDecision_TIS", "H1Ds_Hlt2Topo2BodyDecision_TOS", "H1Ds_Hlt2Topo3BodyDecision_Dec", "H1Ds_Hlt2Topo3BodyDecision_TIS", "H1Ds_Hlt2Topo3BodyDecision_TOS", "H1Ds_Hlt2Topo4BodyDecision_Dec", "H1Ds_Hlt2Topo4BodyDecision_TIS", "H1Ds_Hlt2Topo4BodyDecision_TOS", "H1Ds_Hlt2PhiIncPhiDecision_Dec", "H1Ds_Hlt2PhiIncPhiDecision_TIS", "H1Ds_Hlt2PhiIncPhiDecision_TOS", "H2Ds_ETA", "H2Ds_LOKI_IPCHI2", "H2Ds_Y", "H2Ds_CosTheta", "H2Ds_OWNPV_X", "H2Ds_OWNPV_Y", "H2Ds_OWNPV_Z", "H2Ds_OWNPV_XERR", "H2Ds_OWNPV_YERR", "H2Ds_OWNPV_ZERR", "H2Ds_OWNPV_CHI2", "H2Ds_OWNPV_NDOF", "H2Ds_OWNPV_COV_", "H2Ds_IP_OWNPV", "H2Ds_IPCHI2_OWNPV", "H2Ds_ORIVX_X", "H2Ds_ORIVX_Y", "H2Ds_ORIVX_Z", "H2Ds_ORIVX_XERR", "H2Ds_ORIVX_YERR", "H2Ds_ORIVX_ZERR", "H2Ds_ORIVX_CHI2", "H2Ds_ORIVX_NDOF", "H2Ds_ORIVX_COV_", "H2Ds_P", "H2Ds_PT", "H2Ds_PE", "H2Ds_PX", "H2Ds_PY", "H2Ds_PZ", "H2Ds_REFPX", "H2Ds_REFPY", "H2Ds_REFPZ", "H2Ds_M", "H2Ds_AtVtx_PE", "H2Ds_AtVtx_PX", "H2Ds_AtVtx_PY", "H2Ds_AtVtx_PZ", "H2Ds_TRUEID", "H2Ds_MC_MOTHER_ID", "H2Ds_MC_MOTHER_KEY", "H2Ds_MC_GD_MOTHER_ID", "H2Ds_MC_GD_MOTHER_KEY", "H2Ds_MC_GD_GD_MOTHER_ID", "H2Ds_MC_GD_GD_MOTHER_KEY", "H2Ds_TRUEP_E", "H2Ds_TRUEP_X", "H2Ds_TRUEP_Y", "H2Ds_TRUEP_Z", "H2Ds_TRUEPT", "H2Ds_TRUEORIGINVERTEX_X", "H2Ds_TRUEORIGINVERTEX_Y", "H2Ds_TRUEORIGINVERTEX_Z", "H2Ds_TRUEENDVERTEX_X", "H2Ds_TRUEENDVERTEX_Y", "H2Ds_TRUEENDVERTEX_Z", "H2Ds_TRUEISSTABLE", "H2Ds_TRUETAU", "H2Ds_Reconstructible", "H2Ds_Reconstructed", "H2Ds_ProtoParticles", "H2Ds_PP_PX", "H2Ds_PP_PY", "H2Ds_PP_PZ", "H2Ds_PP_Weight", "H2Ds_PP_tr_pchi2", "H2Ds_PP_DLLe", "H2Ds_PP_DLLk", "H2Ds_PP_DLLp", "H2Ds_PP_DLLmu", "H2Ds_ID", "H2Ds_PIDe", "H2Ds_PIDmu", "H2Ds_PIDK", "H2Ds_PIDp", "H2Ds_PIDd", "H2Ds_ProbNNe", "H2Ds_ProbNNk", "H2Ds_ProbNNp", "H2Ds_ProbNNpi", "H2Ds_ProbNNmu", "H2Ds_ProbNNd", "H2Ds_ProbNNghost", "H2Ds_hasMuon", "H2Ds_isMuon", "H2Ds_hasRich", "H2Ds_UsedRichAerogel", "H2Ds_UsedRich1Gas", "H2Ds_UsedRich2Gas", "H2Ds_RichAboveElThres", "H2Ds_RichAboveMuThres", "H2Ds_RichAbovePiThres", "H2Ds_RichAboveKaThres", "H2Ds_RichAbovePrThres", "H2Ds_hasCalo", "H2Ds_TRACK_Type", "H2Ds_TRACK_Key", "H2Ds_TRACK_CHI2NDOF", "H2Ds_TRACK_PCHI2", "H2Ds_TRACK_MatchCHI2", "H2Ds_TRACK_GhostProb", "H2Ds_TRACK_CloneDist", "H2Ds_TRACK_Likelihood", "H2Ds_L0Global_Dec", "H2Ds_L0Global_TIS", "H2Ds_L0Global_TOS", "H2Ds_Hlt1Global_Dec", "H2Ds_Hlt1Global_TIS", "H2Ds_Hlt1Global_TOS", "H2Ds_Hlt1Phys_Dec", "H2Ds_Hlt1Phys_TIS", "H2Ds_Hlt1Phys_TOS", "H2Ds_Hlt2Global_Dec", "H2Ds_Hlt2Global_TIS", "H2Ds_Hlt2Global_TOS", "H2Ds_Hlt2Phys_Dec", "H2Ds_Hlt2Phys_TIS", "H2Ds_Hlt2Phys_TOS", "H2Ds_L0MuonDecision_Dec", "H2Ds_L0MuonDecision_TIS", "H2Ds_L0MuonDecision_TOS", "H2Ds_L0DiMuonDecision_Dec", "H2Ds_L0DiMuonDecision_TIS", "H2Ds_L0DiMuonDecision_TOS", "H2Ds_L0HadronDecision_Dec", "H2Ds_L0HadronDecision_TIS", "H2Ds_L0HadronDecision_TOS", "H2Ds_Hlt1SingleMuonNoIPDecision_Dec", "H2Ds_Hlt1SingleMuonNoIPDecision_TIS", "H2Ds_Hlt1SingleMuonNoIPDecision_TOS", "H2Ds_Hlt1TrackMVADecision_Dec", "H2Ds_Hlt1TrackMVADecision_TIS", "H2Ds_Hlt1TrackMVADecision_TOS", "H2Ds_Hlt1TwoTrackMVADecision_Dec", "H2Ds_Hlt1TwoTrackMVADecision_TIS", "H2Ds_Hlt1TwoTrackMVADecision_TOS", "H2Ds_Hlt1TrackMuonDecision_Dec", "H2Ds_Hlt1TrackMuonDecision_TIS", "H2Ds_Hlt1TrackMuonDecision_TOS", "H2Ds_Hlt1TrackAllL0Decision_Dec", "H2Ds_Hlt1TrackAllL0Decision_TIS", "H2Ds_Hlt1TrackAllL0Decision_TOS", "H2Ds_Hlt2SingleMuonDecision_Dec", "H2Ds_Hlt2SingleMuonDecision_TIS", "H2Ds_Hlt2SingleMuonDecision_TOS", "H2Ds_Hlt2TopoMu2BodyDecision_Dec", "H2Ds_Hlt2TopoMu2BodyDecision_TIS", "H2Ds_Hlt2TopoMu2BodyDecision_TOS", "H2Ds_Hlt2TopoMu3BodyDecision_Dec", "H2Ds_Hlt2TopoMu3BodyDecision_TIS", "H2Ds_Hlt2TopoMu3BodyDecision_TOS", "H2Ds_Hlt2TopoMu4BodyDecision_Dec", "H2Ds_Hlt2TopoMu4BodyDecision_TIS", "H2Ds_Hlt2TopoMu4BodyDecision_TOS", "H2Ds_Hlt2Topo2BodyDecision_Dec", "H2Ds_Hlt2Topo2BodyDecision_TIS", "H2Ds_Hlt2Topo2BodyDecision_TOS", "H2Ds_Hlt2Topo3BodyDecision_Dec", "H2Ds_Hlt2Topo3BodyDecision_TIS", "H2Ds_Hlt2Topo3BodyDecision_TOS", "H2Ds_Hlt2Topo4BodyDecision_Dec", "H2Ds_Hlt2Topo4BodyDecision_TIS", "H2Ds_Hlt2Topo4BodyDecision_TOS", "H2Ds_Hlt2PhiIncPhiDecision_Dec", "H2Ds_Hlt2PhiIncPhiDecision_TIS", "H2Ds_Hlt2PhiIncPhiDecision_TOS", "H3Ds_ETA", "H3Ds_LOKI_IPCHI2", "H3Ds_Y", "H3Ds_CosTheta", "H3Ds_OWNPV_X", "H3Ds_OWNPV_Y", "H3Ds_OWNPV_Z", "H3Ds_OWNPV_XERR", "H3Ds_OWNPV_YERR", "H3Ds_OWNPV_ZERR", "H3Ds_OWNPV_CHI2", "H3Ds_OWNPV_NDOF", "H3Ds_OWNPV_COV_", "H3Ds_IP_OWNPV", "H3Ds_IPCHI2_OWNPV", "H3Ds_ORIVX_X", "H3Ds_ORIVX_Y", "H3Ds_ORIVX_Z", "H3Ds_ORIVX_XERR", "H3Ds_ORIVX_YERR", "H3Ds_ORIVX_ZERR", "H3Ds_ORIVX_CHI2", "H3Ds_ORIVX_NDOF", "H3Ds_ORIVX_COV_", "H3Ds_P", "H3Ds_PT", "H3Ds_PE", "H3Ds_PX", "H3Ds_PY", "H3Ds_PZ", "H3Ds_REFPX", "H3Ds_REFPY", "H3Ds_REFPZ", "H3Ds_M", "H3Ds_AtVtx_PE", "H3Ds_AtVtx_PX", "H3Ds_AtVtx_PY", "H3Ds_AtVtx_PZ", "H3Ds_TRUEID", "H3Ds_MC_MOTHER_ID", "H3Ds_MC_MOTHER_KEY", "H3Ds_MC_GD_MOTHER_ID", "H3Ds_MC_GD_MOTHER_KEY", "H3Ds_MC_GD_GD_MOTHER_ID", "H3Ds_MC_GD_GD_MOTHER_KEY", "H3Ds_TRUEP_E", "H3Ds_TRUEP_X", "H3Ds_TRUEP_Y", "H3Ds_TRUEP_Z", "H3Ds_TRUEPT", "H3Ds_TRUEORIGINVERTEX_X", "H3Ds_TRUEORIGINVERTEX_Y", "H3Ds_TRUEORIGINVERTEX_Z", "H3Ds_TRUEENDVERTEX_X", "H3Ds_TRUEENDVERTEX_Y", "H3Ds_TRUEENDVERTEX_Z", "H3Ds_TRUEISSTABLE", "H3Ds_TRUETAU", "H3Ds_Reconstructible", "H3Ds_Reconstructed", "H3Ds_ProtoParticles", "H3Ds_PP_PX", "H3Ds_PP_PY", "H3Ds_PP_PZ", "H3Ds_PP_Weight", "H3Ds_PP_tr_pchi2", "H3Ds_PP_DLLe", "H3Ds_PP_DLLk", "H3Ds_PP_DLLp", "H3Ds_PP_DLLmu", "H3Ds_ID", "H3Ds_PIDe", "H3Ds_PIDmu", "H3Ds_PIDK", "H3Ds_PIDp", "H3Ds_PIDd", "H3Ds_ProbNNe", "H3Ds_ProbNNk", "H3Ds_ProbNNp", "H3Ds_ProbNNpi", "H3Ds_ProbNNmu", "H3Ds_ProbNNd", "H3Ds_ProbNNghost", "H3Ds_hasMuon", "H3Ds_isMuon", "H3Ds_hasRich", "H3Ds_UsedRichAerogel", "H3Ds_UsedRich1Gas", "H3Ds_UsedRich2Gas", "H3Ds_RichAboveElThres", "H3Ds_RichAboveMuThres", "H3Ds_RichAbovePiThres", "H3Ds_RichAboveKaThres", "H3Ds_RichAbovePrThres", "H3Ds_hasCalo", "H3Ds_TRACK_Type", "H3Ds_TRACK_Key", "H3Ds_TRACK_CHI2NDOF", "H3Ds_TRACK_PCHI2", "H3Ds_TRACK_MatchCHI2", "H3Ds_TRACK_GhostProb", "H3Ds_TRACK_CloneDist", "H3Ds_TRACK_Likelihood", "H3Ds_L0Global_Dec", "H3Ds_L0Global_TIS", "H3Ds_L0Global_TOS", "H3Ds_Hlt1Global_Dec", "H3Ds_Hlt1Global_TIS", "H3Ds_Hlt1Global_TOS", "H3Ds_Hlt1Phys_Dec", "H3Ds_Hlt1Phys_TIS", "H3Ds_Hlt1Phys_TOS", "H3Ds_Hlt2Global_Dec", "H3Ds_Hlt2Global_TIS", "H3Ds_Hlt2Global_TOS", "H3Ds_Hlt2Phys_Dec", "H3Ds_Hlt2Phys_TIS", "H3Ds_Hlt2Phys_TOS", "H3Ds_L0MuonDecision_Dec", "H3Ds_L0MuonDecision_TIS", "H3Ds_L0MuonDecision_TOS", "H3Ds_L0DiMuonDecision_Dec", "H3Ds_L0DiMuonDecision_TIS", "H3Ds_L0DiMuonDecision_TOS", "H3Ds_L0HadronDecision_Dec", "H3Ds_L0HadronDecision_TIS", "H3Ds_L0HadronDecision_TOS", "H3Ds_Hlt1SingleMuonNoIPDecision_Dec", "H3Ds_Hlt1SingleMuonNoIPDecision_TIS", "H3Ds_Hlt1SingleMuonNoIPDecision_TOS", "H3Ds_Hlt1TrackMVADecision_Dec", "H3Ds_Hlt1TrackMVADecision_TIS", "H3Ds_Hlt1TrackMVADecision_TOS", "H3Ds_Hlt1TwoTrackMVADecision_Dec", "H3Ds_Hlt1TwoTrackMVADecision_TIS", "H3Ds_Hlt1TwoTrackMVADecision_TOS", "H3Ds_Hlt1TrackMuonDecision_Dec", "H3Ds_Hlt1TrackMuonDecision_TIS", "H3Ds_Hlt1TrackMuonDecision_TOS", "H3Ds_Hlt1TrackAllL0Decision_Dec", "H3Ds_Hlt1TrackAllL0Decision_TIS", "H3Ds_Hlt1TrackAllL0Decision_TOS", "H3Ds_Hlt2SingleMuonDecision_Dec", "H3Ds_Hlt2SingleMuonDecision_TIS", "H3Ds_Hlt2SingleMuonDecision_TOS", "H3Ds_Hlt2TopoMu2BodyDecision_Dec", "H3Ds_Hlt2TopoMu2BodyDecision_TIS", "H3Ds_Hlt2TopoMu2BodyDecision_TOS", "H3Ds_Hlt2TopoMu3BodyDecision_Dec", "H3Ds_Hlt2TopoMu3BodyDecision_TIS", "H3Ds_Hlt2TopoMu3BodyDecision_TOS", "H3Ds_Hlt2TopoMu4BodyDecision_Dec", "H3Ds_Hlt2TopoMu4BodyDecision_TIS", "H3Ds_Hlt2TopoMu4BodyDecision_TOS", "H3Ds_Hlt2Topo2BodyDecision_Dec", "H3Ds_Hlt2Topo2BodyDecision_TIS", "H3Ds_Hlt2Topo2BodyDecision_TOS", "H3Ds_Hlt2Topo3BodyDecision_Dec", "H3Ds_Hlt2Topo3BodyDecision_TIS", "H3Ds_Hlt2Topo3BodyDecision_TOS", "H3Ds_Hlt2Topo4BodyDecision_Dec", "H3Ds_Hlt2Topo4BodyDecision_TIS", "H3Ds_Hlt2Topo4BodyDecision_TOS", "H3Ds_Hlt2PhiIncPhiDecision_Dec", "H3Ds_Hlt2PhiIncPhiDecision_TIS", "H3Ds_Hlt2PhiIncPhiDecision_TOS", "PionBs_ETA", "PionBs_LOKI_IPCHI2", "PionBs_Y", "PionBs_CosTheta", "PionBs_OWNPV_X", "PionBs_OWNPV_Y", "PionBs_OWNPV_Z", "PionBs_OWNPV_XERR", "PionBs_OWNPV_YERR", "PionBs_OWNPV_ZERR", "PionBs_OWNPV_CHI2", "PionBs_OWNPV_NDOF", "PionBs_OWNPV_COV_", "PionBs_IP_OWNPV", "PionBs_IPCHI2_OWNPV", "PionBs_ORIVX_X", "PionBs_ORIVX_Y", "PionBs_ORIVX_Z", "PionBs_ORIVX_XERR", "PionBs_ORIVX_YERR", "PionBs_ORIVX_ZERR", "PionBs_ORIVX_CHI2", "PionBs_ORIVX_NDOF", "PionBs_ORIVX_COV_", "PionBs_P", "PionBs_PT", "PionBs_PE", "PionBs_PX", "PionBs_PY", "PionBs_PZ", "PionBs_REFPX", "PionBs_REFPY", "PionBs_REFPZ", "PionBs_M", "PionBs_AtVtx_PE", "PionBs_AtVtx_PX", "PionBs_AtVtx_PY", "PionBs_AtVtx_PZ", "PionBs_TRUEID", "PionBs_MC_MOTHER_ID", "PionBs_MC_MOTHER_KEY", "PionBs_MC_GD_MOTHER_ID", "PionBs_MC_GD_MOTHER_KEY", "PionBs_MC_GD_GD_MOTHER_ID", "PionBs_MC_GD_GD_MOTHER_KEY", "PionBs_TRUEP_E", "PionBs_TRUEP_X", "PionBs_TRUEP_Y", "PionBs_TRUEP_Z", "PionBs_TRUEPT", "PionBs_TRUEORIGINVERTEX_X", "PionBs_TRUEORIGINVERTEX_Y", "PionBs_TRUEORIGINVERTEX_Z", "PionBs_TRUEENDVERTEX_X", "PionBs_TRUEENDVERTEX_Y", "PionBs_TRUEENDVERTEX_Z", "PionBs_TRUEISSTABLE", "PionBs_TRUETAU", "PionBs_Reconstructible", "PionBs_Reconstructed", "PionBs_ProtoParticles", "PionBs_PP_PX", "PionBs_PP_PY", "PionBs_PP_PZ", "PionBs_PP_Weight", "PionBs_PP_tr_pchi2", "PionBs_PP_DLLe", "PionBs_PP_DLLk", "PionBs_PP_DLLp", "PionBs_PP_DLLmu", "PionBs_ID", "PionBs_PIDe", "PionBs_PIDmu", "PionBs_PIDK", "PionBs_PIDp", "PionBs_PIDd", "PionBs_ProbNNe", "PionBs_ProbNNk", "PionBs_ProbNNp", "PionBs_ProbNNpi", "PionBs_ProbNNmu", "PionBs_ProbNNd", "PionBs_ProbNNghost", "PionBs_hasMuon", "PionBs_isMuon", "PionBs_hasRich", "PionBs_UsedRichAerogel", "PionBs_UsedRich1Gas", "PionBs_UsedRich2Gas", "PionBs_RichAboveElThres", "PionBs_RichAboveMuThres", "PionBs_RichAbovePiThres", "PionBs_RichAboveKaThres", "PionBs_RichAbovePrThres", "PionBs_hasCalo", "PionBs_TRACK_Type", "PionBs_TRACK_Key", "PionBs_TRACK_CHI2NDOF", "PionBs_TRACK_PCHI2", "PionBs_TRACK_MatchCHI2", "PionBs_TRACK_GhostProb", "PionBs_TRACK_CloneDist", "PionBs_TRACK_Likelihood", "PionBs_L0Global_Dec", "PionBs_L0Global_TIS", "PionBs_L0Global_TOS", "PionBs_Hlt1Global_Dec", "PionBs_Hlt1Global_TIS", "PionBs_Hlt1Global_TOS", "PionBs_Hlt1Phys_Dec", "PionBs_Hlt1Phys_TIS", "PionBs_Hlt1Phys_TOS", "PionBs_Hlt2Global_Dec", "PionBs_Hlt2Global_TIS", "PionBs_Hlt2Global_TOS", "PionBs_Hlt2Phys_Dec", "PionBs_Hlt2Phys_TIS", "PionBs_Hlt2Phys_TOS", "PionBs_L0MuonDecision_Dec", "PionBs_L0MuonDecision_TIS", "PionBs_L0MuonDecision_TOS", "PionBs_L0DiMuonDecision_Dec", "PionBs_L0DiMuonDecision_TIS", "PionBs_L0DiMuonDecision_TOS", "PionBs_L0HadronDecision_Dec", "PionBs_L0HadronDecision_TIS", "PionBs_L0HadronDecision_TOS", "PionBs_Hlt1SingleMuonNoIPDecision_Dec", "PionBs_Hlt1SingleMuonNoIPDecision_TIS", "PionBs_Hlt1SingleMuonNoIPDecision_TOS", "PionBs_Hlt1TrackMVADecision_Dec", "PionBs_Hlt1TrackMVADecision_TIS", "PionBs_Hlt1TrackMVADecision_TOS", "PionBs_Hlt1TwoTrackMVADecision_Dec", "PionBs_Hlt1TwoTrackMVADecision_TIS", "PionBs_Hlt1TwoTrackMVADecision_TOS", "PionBs_Hlt1TrackMuonDecision_Dec", "PionBs_Hlt1TrackMuonDecision_TIS", "PionBs_Hlt1TrackMuonDecision_TOS", "PionBs_Hlt1TrackAllL0Decision_Dec", "PionBs_Hlt1TrackAllL0Decision_TIS", "PionBs_Hlt1TrackAllL0Decision_TOS", "PionBs_Hlt2SingleMuonDecision_Dec", "PionBs_Hlt2SingleMuonDecision_TIS", "PionBs_Hlt2SingleMuonDecision_TOS", "PionBs_Hlt2TopoMu2BodyDecision_Dec", "PionBs_Hlt2TopoMu2BodyDecision_TIS", "PionBs_Hlt2TopoMu2BodyDecision_TOS", "PionBs_Hlt2TopoMu3BodyDecision_Dec", "PionBs_Hlt2TopoMu3BodyDecision_TIS", "PionBs_Hlt2TopoMu3BodyDecision_TOS", "PionBs_Hlt2TopoMu4BodyDecision_Dec", "PionBs_Hlt2TopoMu4BodyDecision_TIS", "PionBs_Hlt2TopoMu4BodyDecision_TOS", "PionBs_Hlt2Topo2BodyDecision_Dec", "PionBs_Hlt2Topo2BodyDecision_TIS", "PionBs_Hlt2Topo2BodyDecision_TOS", "PionBs_Hlt2Topo3BodyDecision_Dec", "PionBs_Hlt2Topo3BodyDecision_TIS", "PionBs_Hlt2Topo3BodyDecision_TOS", "PionBs_Hlt2Topo4BodyDecision_Dec", "PionBs_Hlt2Topo4BodyDecision_TIS", "PionBs_Hlt2Topo4BodyDecision_TOS", "PionBs_Hlt2PhiIncPhiDecision_Dec", "PionBs_Hlt2PhiIncPhiDecision_TIS", "PionBs_Hlt2PhiIncPhiDecision_TOS", "Bach_ETA", "Bach_LOKI_IPCHI2", "Bach_Y", "Bach_CosTheta", "Bach_OWNPV_X", "Bach_OWNPV_Y", "Bach_OWNPV_Z", "Bach_OWNPV_XERR", "Bach_OWNPV_YERR", "Bach_OWNPV_ZERR", "Bach_OWNPV_CHI2", "Bach_OWNPV_NDOF", "Bach_OWNPV_COV_", "Bach_IP_OWNPV", "Bach_IPCHI2_OWNPV", "Bach_ORIVX_X", "Bach_ORIVX_Y", "Bach_ORIVX_Z", "Bach_ORIVX_XERR", "Bach_ORIVX_YERR", "Bach_ORIVX_ZERR", "Bach_ORIVX_CHI2", "Bach_ORIVX_NDOF", "Bach_ORIVX_COV_", "Bach_P", "Bach_PT", "Bach_PE", "Bach_PX", "Bach_PY", "Bach_PZ", "Bach_REFPX", "Bach_REFPY", "Bach_REFPZ", "Bach_M", "Bach_AtVtx_PE", "Bach_AtVtx_PX", "Bach_AtVtx_PY", "Bach_AtVtx_PZ", "Bach_TRUEID", "Bach_MC_MOTHER_ID", "Bach_MC_MOTHER_KEY", "Bach_MC_GD_MOTHER_ID", "Bach_MC_GD_MOTHER_KEY", "Bach_MC_GD_GD_MOTHER_ID", "Bach_MC_GD_GD_MOTHER_KEY", "Bach_TRUEP_E", "Bach_TRUEP_X", "Bach_TRUEP_Y", "Bach_TRUEP_Z", "Bach_TRUEPT", "Bach_TRUEORIGINVERTEX_X", "Bach_TRUEORIGINVERTEX_Y", "Bach_TRUEORIGINVERTEX_Z", "Bach_TRUEENDVERTEX_X", "Bach_TRUEENDVERTEX_Y", "Bach_TRUEENDVERTEX_Z", "Bach_TRUEISSTABLE", "Bach_TRUETAU", "Bach_Reconstructible", "Bach_Reconstructed", "Bach_ProtoParticles", "Bach_PP_PX", "Bach_PP_PY", "Bach_PP_PZ", "Bach_PP_Weight", "Bach_PP_tr_pchi2", "Bach_PP_DLLe", "Bach_PP_DLLk", "Bach_PP_DLLp", "Bach_PP_DLLmu", "Bach_ID", "Bach_PIDe", "Bach_PIDmu", "Bach_PIDK", "Bach_PIDp", "Bach_PIDd", "Bach_ProbNNe", "Bach_ProbNNk", "Bach_ProbNNp", "Bach_ProbNNpi", "Bach_ProbNNmu", "Bach_ProbNNd", "Bach_ProbNNghost", "Bach_hasMuon", "Bach_isMuon", "Bach_hasRich", "Bach_UsedRichAerogel", "Bach_UsedRich1Gas", "Bach_UsedRich2Gas", "Bach_RichAboveElThres", "Bach_RichAboveMuThres", "Bach_RichAbovePiThres", "Bach_RichAboveKaThres", "Bach_RichAbovePrThres", "Bach_hasCalo", "Bach_TRACK_Type", "Bach_TRACK_Key", "Bach_TRACK_CHI2NDOF", "Bach_TRACK_PCHI2", "Bach_TRACK_MatchCHI2", "Bach_TRACK_GhostProb", "Bach_TRACK_CloneDist", "Bach_TRACK_Likelihood", "Bach_L0Global_Dec", "Bach_L0Global_TIS", "Bach_L0Global_TOS", "Bach_Hlt1Global_Dec", "Bach_Hlt1Global_TIS", "Bach_Hlt1Global_TOS", "Bach_Hlt1Phys_Dec", "Bach_Hlt1Phys_TIS", "Bach_Hlt1Phys_TOS", "Bach_Hlt2Global_Dec", "Bach_Hlt2Global_TIS", "Bach_Hlt2Global_TOS", "Bach_Hlt2Phys_Dec", "Bach_Hlt2Phys_TIS", "Bach_Hlt2Phys_TOS", "Bach_L0MuonDecision_Dec", "Bach_L0MuonDecision_TIS", "Bach_L0MuonDecision_TOS", "Bach_L0DiMuonDecision_Dec", "Bach_L0DiMuonDecision_TIS", "Bach_L0DiMuonDecision_TOS", "Bach_L0HadronDecision_Dec", "Bach_L0HadronDecision_TIS", "Bach_L0HadronDecision_TOS", "Bach_Hlt1SingleMuonNoIPDecision_Dec", "Bach_Hlt1SingleMuonNoIPDecision_TIS", "Bach_Hlt1SingleMuonNoIPDecision_TOS", "Bach_Hlt1TrackMVADecision_Dec", "Bach_Hlt1TrackMVADecision_TIS", "Bach_Hlt1TrackMVADecision_TOS", "Bach_Hlt1TwoTrackMVADecision_Dec", "Bach_Hlt1TwoTrackMVADecision_TIS", "Bach_Hlt1TwoTrackMVADecision_TOS", "Bach_Hlt1TrackMuonDecision_Dec", "Bach_Hlt1TrackMuonDecision_TIS", "Bach_Hlt1TrackMuonDecision_TOS", "Bach_Hlt1TrackAllL0Decision_Dec", "Bach_Hlt1TrackAllL0Decision_TIS", "Bach_Hlt1TrackAllL0Decision_TOS", "Bach_Hlt2SingleMuonDecision_Dec", "Bach_Hlt2SingleMuonDecision_TIS", "Bach_Hlt2SingleMuonDecision_TOS", "Bach_Hlt2TopoMu2BodyDecision_Dec", "Bach_Hlt2TopoMu2BodyDecision_TIS", "Bach_Hlt2TopoMu2BodyDecision_TOS", "Bach_Hlt2TopoMu3BodyDecision_Dec", "Bach_Hlt2TopoMu3BodyDecision_TIS", "Bach_Hlt2TopoMu3BodyDecision_TOS", "Bach_Hlt2TopoMu4BodyDecision_Dec", "Bach_Hlt2TopoMu4BodyDecision_TIS", "Bach_Hlt2TopoMu4BodyDecision_TOS", "Bach_Hlt2Topo2BodyDecision_Dec", "Bach_Hlt2Topo2BodyDecision_TIS", "Bach_Hlt2Topo2BodyDecision_TOS", "Bach_Hlt2Topo3BodyDecision_Dec", "Bach_Hlt2Topo3BodyDecision_TIS", "Bach_Hlt2Topo3BodyDecision_TOS", "Bach_Hlt2Topo4BodyDecision_Dec", "Bach_Hlt2Topo4BodyDecision_TIS", "Bach_Hlt2Topo4BodyDecision_TOS", "Bach_Hlt2PhiIncPhiDecision_Dec", "Bach_Hlt2PhiIncPhiDecision_TIS", "Bach_Hlt2PhiIncPhiDecision_TOS", "nCandidate", "totCandidates", "EventInSequence", "LoKi_nITClusters", "LoKi_nOThits", "LoKi_nPVs", "LoKi_nSpdMult", "LoKi_nTTClusters", "LoKi_nVeloClusters", "LoKi_nVeloLiteClusters", "runNumber", "eventNumber", "BCID", "BCType", "OdinTCK", "L0DUTCK", "HLT1TCK", "HLT2TCK", "GpsTime", "Polarity", "nPV", "PVX", "PVY", "PVZ", "PVXERR", "PVYERR", "PVZERR", "PVCHI2", "PVNDOF", "PVNTRACKS", "nPVs", "nTracks", "nLongTracks", "nDownstreamTracks", "nUpstreamTracks", "nVeloTracks", "nTTracks", "nBackTracks", "nRich1Hits", "nRich2Hits", "nVeloClusters", "nITClusters", "nTTClusters", "nOTClusters", "nSPDHits", "nMuonCoordsS0", "nMuonCoordsS1", "nMuonCoordsS2", "nMuonCoordsS3", "nMuonCoordsS4", "nMuonTracks", "DecayTree_Bach_PIDmu_corr", "Bach_PIDmu_corr", "DecayTree_Bach_PIDK_corr", "Bach_PIDK_corr", "DecayTree_PionBs_PIDK_corr", "PionBs_PIDK_corr", "DecayTree_H1Ds_PIDK_corr", "H1Ds_PIDK_corr", "DecayTree_H2Ds_PIDK_corr", "H2Ds_PIDK_corr", "DecayTree_H3Ds_PIDK_corr", "H3Ds_PIDK_corr" }Bc_is_from_Bc_BsMuNu == 1: pass=29113      all=87477      -- eff=33.28 % cumulative eff=33.28 %
HLT2      : pass=13409      all=28954      -- eff=46.31 % cumulative eff=15.33 %
5000 < Bs_MM && Bs_MM < 6000: pass=13409      all=13409      -- eff=100.00 % cumulative eff=15.33 %
Bs_ENDVERTEX_CHI2 / Bs_ENDVERTEX_NDOF < 10: pass=13409      all=13409      -- eff=100.00 % cumulative eff=15.33 %
Bc_ENDVERTEX_CHI2 / Bc_ENDVERTEX_NDOF < 9: pass=13229      all=13409      -- eff=98.66 % cumulative eff=15.12 %
Bc_IPCHI2_OWNPV < 25: pass=13126      all=13229      -- eff=99.22 % cumulative eff=15.01 %
Bc_IPCHI2_OWNPV >= 0: pass=13126      all=13126      -- eff=100.00 % cumulative eff=15.01 %
cuts in 2018 + 2016 but not 2017: pass=13126      all=13126      -- eff=100.00 % cumulative eff=15.01 %
Bs_TAU > 0.000: pass=12556      all=13126      -- eff=95.66 % cumulative eff=14.35 %
Ds_PT > 2000: pass=12227      all=12556      -- eff=97.38 % cumulative eff=13.98 %
1943.49 < Ds_MM && Ds_MM < 1993.49: pass=8037       all=12227      -- eff=65.73 % cumulative eff=9.19 %
PionBs_PT > 1700: pass=6761       all=8037       -- eff=84.12 % cumulative eff=7.73 %
H1Ds_PIDK_corr > 5: pass=6083       all=6761       -- eff=89.97 % cumulative eff=6.95 %
H2Ds_PIDK_corr > 5: pass=5668       all=6083       -- eff=93.18 % cumulative eff=6.48 %
H3Ds_PIDK_corr < -2: pass=5233       all=5668       -- eff=92.33 % cumulative eff=5.98 %
PionBs_PIDK_corr < -2: pass=4013       all=5233       -- eff=76.69 % cumulative eff=4.59 %
Bach_PIDmu_corr > 0 : pass=2887       all=4013       -- eff=71.94 % cumulative eff=3.30 %
Bach_isMuon == 1: pass=2887       all=2887       -- eff=100.00 % cumulative eff=3.30 %

Saving output files
Done
