Bachelor particle: Mu
Applying cuts to files......
Output filename: /eos/lhcb/user/t/tmcgrath/Bc2Bslnu_ana/MCReduced/Bc2BsKst_DsPi_MC_sim09k_2017_MU_reduced.root
Added file: root://eoslhcb.cern.ch//eos/lhcb/user/t/tmcgrath/Bc2Bslnu_ana/MC/Bc2BsKst/2017/Bc2BsKst_Bs2DsPi_2017_MU_MC_job0_merged.root
Added file: root://eoslhcb.cern.ch//eos/lhcb/user/t/tmcgrath/Bc2Bslnu_ana/MC/Bc2BsKst/2017/Bc2BsKst_Bs2DsPi_2017_MU_MC_job1_merged.root
Added file: root://eoslhcb.cern.ch//eos/lhcb/user/t/tmcgrath/Bc2Bslnu_ana/MC/Bc2BsKst/2017/Bc2BsKst_Bs2DsPi_2017_MU_MC_job2_merged.root
Added file: root://eoslhcb.cern.ch//eos/lhcb/user/t/tmcgrath/Bc2Bslnu_ana/MC/Bc2BsKst/2017/Bc2BsKst_Bs2DsPi_2017_MU_MC_job3_merged.root
Added file: root://eoslhcb.cern.ch//eos/lhcb/user/t/tmcgrath/Bc2Bslnu_ana/MC/Bc2BsKst/2017/Bc2BsKst_Bs2DsPi_2017_MU_MC_job4_merged.root
{ "Bc_ETA", "Bc_LOKI_IPCHI2", "Bc_Y", "Bc_ENDVERTEX_X", "Bc_ENDVERTEX_Y", "Bc_ENDVERTEX_Z", "Bc_ENDVERTEX_XERR", "Bc_ENDVERTEX_YERR", "Bc_ENDVERTEX_ZERR", "Bc_ENDVERTEX_CHI2", "Bc_ENDVERTEX_NDOF", "Bc_ENDVERTEX_COV_", "Bc_OWNPV_X", "Bc_OWNPV_Y", "Bc_OWNPV_Z", "Bc_OWNPV_XERR", "Bc_OWNPV_YERR", "Bc_OWNPV_ZERR", "Bc_OWNPV_CHI2", "Bc_OWNPV_NDOF", "Bc_OWNPV_COV_", "Bc_IP_OWNPV", "Bc_IPCHI2_OWNPV", "Bc_FD_OWNPV", "Bc_FDCHI2_OWNPV", "Bc_DIRA_OWNPV", "Bc_P", "Bc_PT", "Bc_PE", "Bc_PX", "Bc_PY", "Bc_PZ", "Bc_REFPX", "Bc_REFPY", "Bc_REFPZ", "Bc_MM", "Bc_MMERR", "Bc_M", "Bc_OVrefit_status", "Bc_OVrefit_ENDVERTEX_NDOF", "Bc_OVrefit_ENDVERTEX_CHI2", "Bc_OVrefit_MM", "Bc_OVrefit_MMERR", "Bc_OVrefit_P", "Bc_OVrefit_PT", "Bc_OVrefit_PE", "Bc_OVrefit_PX", "Bc_OVrefit_PY", "Bc_OVrefit_PZ", "Bc_OVrefit_TAU", "Bc_OVrefit_TAUERR", "Bc_OVrefit_TAUCHI2", "Bc_ID", "Bc_TAU", "Bc_TAUERR", "Bc_TAUCHI2", "Bc_CORR_M", "Bc_KEY", "Bc_LOKI_DIRA", "Bc_LOKI_FDCHI2", "Bc_LOKI_FDS", "Bc_LV01", "Bc_LV02", "Bc_PHI", "Bc_PV_ETA", "Bc_is_from_Bc_BsKstar_Ks2pippim", "Bc_is_from_Bc_BsKstar_Ks2pizpiz", "Bc_is_from_Bc_BsMuNu", "Bc_is_from_Bc_BsPi", "Bc_MassFit_nPV", "Bc_MassFit_B_s0_M", "Bc_MassFit_B_s0_MERR", "Bc_MassFit_B_s0_P", "Bc_MassFit_B_s0_PERR", "Bc_MassFit_B_s0_ctau", "Bc_MassFit_B_s0_ctauErr", "Bc_MassFit_B_s0_decayLength", "Bc_MassFit_B_s0_decayLengthErr", "Bc_MassFit_D_splus_M", "Bc_MassFit_D_splus_MERR", "Bc_MassFit_D_splus_P", "Bc_MassFit_D_splus_PERR", "Bc_MassFit_D_splus_ctau", "Bc_MassFit_D_splus_ctauErr", "Bc_MassFit_D_splus_decayLength", "Bc_MassFit_D_splus_decayLengthErr", "Bc_MassFit_M", "Bc_MassFit_MERR", "Bc_MassFit_P", "Bc_MassFit_PERR", "Bc_MassFit_chi2", "Bc_MassFit_nDOF", "Bc_MassFit_nIter", "Bc_MassFit_status", "Bc_PVFit_nPV", "Bc_PVFit_B_s0_M", "Bc_PVFit_B_s0_MERR", "Bc_PVFit_B_s0_P", "Bc_PVFit_B_s0_PERR", "Bc_PVFit_B_s0_ctau", "Bc_PVFit_B_s0_ctauErr", "Bc_PVFit_B_s0_decayLength", "Bc_PVFit_B_s0_decayLengthErr", "Bc_PVFit_D_splus_M", "Bc_PVFit_D_splus_MERR", "Bc_PVFit_D_splus_P", "Bc_PVFit_D_splus_PERR", "Bc_PVFit_D_splus_ctau", "Bc_PVFit_D_splus_ctauErr", "Bc_PVFit_D_splus_decayLength", "Bc_PVFit_D_splus_decayLengthErr", "Bc_PVFit_M", "Bc_PVFit_MERR", "Bc_PVFit_P", "Bc_PVFit_PERR", "Bc_PVFit_PV_X", "Bc_PVFit_PV_Y", "Bc_PVFit_PV_Z", "Bc_PVFit_PV_key", "Bc_PVFit_chi2", "Bc_PVFit_ctau", "Bc_PVFit_ctauErr", "Bc_PVFit_decayLength", "Bc_PVFit_decayLengthErr", "Bc_PVFit_nDOF", "Bc_PVFit_nIter", "Bc_PVFit_status", "Bc_L0Global_Dec", "Bc_L0Global_TIS", "Bc_L0Global_TOS", "Bc_Hlt1Global_Dec", "Bc_Hlt1Global_TIS", "Bc_Hlt1Global_TOS", "Bc_Hlt1Phys_Dec", "Bc_Hlt1Phys_TIS", "Bc_Hlt1Phys_TOS", "Bc_Hlt2Global_Dec", "Bc_Hlt2Global_TIS", "Bc_Hlt2Global_TOS", "Bc_Hlt2Phys_Dec", "Bc_Hlt2Phys_TIS", "Bc_Hlt2Phys_TOS", "Bc_L0MuonDecision_Dec", "Bc_L0MuonDecision_TIS", "Bc_L0MuonDecision_TOS", "Bc_L0DiMuonDecision_Dec", "Bc_L0DiMuonDecision_TIS", "Bc_L0DiMuonDecision_TOS", "Bc_L0HadronDecision_Dec", "Bc_L0HadronDecision_TIS", "Bc_L0HadronDecision_TOS", "Bc_Hlt1SingleMuonNoIPDecision_Dec", "Bc_Hlt1SingleMuonNoIPDecision_TIS", "Bc_Hlt1SingleMuonNoIPDecision_TOS", "Bc_Hlt1TrackMVADecision_Dec", "Bc_Hlt1TrackMVADecision_TIS", "Bc_Hlt1TrackMVADecision_TOS", "Bc_Hlt1TwoTrackMVADecision_Dec", "Bc_Hlt1TwoTrackMVADecision_TIS", "Bc_Hlt1TwoTrackMVADecision_TOS", "Bc_Hlt1TrackMuonDecision_Dec", "Bc_Hlt1TrackMuonDecision_TIS", "Bc_Hlt1TrackMuonDecision_TOS", "Bc_Hlt1TrackAllL0Decision_Dec", "Bc_Hlt1TrackAllL0Decision_TIS", "Bc_Hlt1TrackAllL0Decision_TOS", "Bc_Hlt2SingleMuonDecision_Dec", "Bc_Hlt2SingleMuonDecision_TIS", "Bc_Hlt2SingleMuonDecision_TOS", "Bc_Hlt2TopoMu2BodyDecision_Dec", "Bc_Hlt2TopoMu2BodyDecision_TIS", "Bc_Hlt2TopoMu2BodyDecision_TOS", "Bc_Hlt2TopoMu3BodyDecision_Dec", "Bc_Hlt2TopoMu3BodyDecision_TIS", "Bc_Hlt2TopoMu3BodyDecision_TOS", "Bc_Hlt2TopoMu4BodyDecision_Dec", "Bc_Hlt2TopoMu4BodyDecision_TIS", "Bc_Hlt2TopoMu4BodyDecision_TOS", "Bc_Hlt2Topo2BodyDecision_Dec", "Bc_Hlt2Topo2BodyDecision_TIS", "Bc_Hlt2Topo2BodyDecision_TOS", "Bc_Hlt2Topo3BodyDecision_Dec", "Bc_Hlt2Topo3BodyDecision_TIS", "Bc_Hlt2Topo3BodyDecision_TOS", "Bc_Hlt2Topo4BodyDecision_Dec", "Bc_Hlt2Topo4BodyDecision_TIS", "Bc_Hlt2Topo4BodyDecision_TOS", "Bc_Hlt2PhiIncPhiDecision_Dec", "Bc_Hlt2PhiIncPhiDecision_TIS", "Bc_Hlt2PhiIncPhiDecision_TOS", "Bs_ETA", "Bs_LOKI_IPCHI2", "Bs_Y", "Bs_CosTheta", "Bs_ENDVERTEX_X", "Bs_ENDVERTEX_Y", "Bs_ENDVERTEX_Z", "Bs_ENDVERTEX_XERR", "Bs_ENDVERTEX_YERR", "Bs_ENDVERTEX_ZERR", "Bs_ENDVERTEX_CHI2", "Bs_ENDVERTEX_NDOF", "Bs_ENDVERTEX_COV_", "Bs_OWNPV_X", "Bs_OWNPV_Y", "Bs_OWNPV_Z", "Bs_OWNPV_XERR", "Bs_OWNPV_YERR", "Bs_OWNPV_ZERR", "Bs_OWNPV_CHI2", "Bs_OWNPV_NDOF", "Bs_OWNPV_COV_", "Bs_IP_OWNPV", "Bs_IPCHI2_OWNPV", "Bs_FD_OWNPV", "Bs_FDCHI2_OWNPV", "Bs_DIRA_OWNPV", "Bs_ORIVX_X", "Bs_ORIVX_Y", "Bs_ORIVX_Z", "Bs_ORIVX_XERR", "Bs_ORIVX_YERR", "Bs_ORIVX_ZERR", "Bs_ORIVX_CHI2", "Bs_ORIVX_NDOF", "Bs_ORIVX_COV_", "Bs_FD_ORIVX", "Bs_FDCHI2_ORIVX", "Bs_DIRA_ORIVX", "Bs_P", "Bs_PT", "Bs_PE", "Bs_PX", "Bs_PY", "Bs_PZ", "Bs_REFPX", "Bs_REFPY", "Bs_REFPZ", "Bs_MM", "Bs_MMERR", "Bs_M", "Bs_ID", "Bs_TAU", "Bs_TAUERR", "Bs_TAUCHI2", "Bs_KEY", "Bs_LOKI_DIRA", "Bs_LOKI_FDCHI2", "Bs_LOKI_FDS", "Bs_LV01", "Bs_LV02", "Bs_PHI", "Bs_PV_ETA", "Bs_is_from_Bs_DsPi", "Bs_BsMassFit_nPV", "Bs_BsMassFit_D_splus_M", "Bs_BsMassFit_D_splus_MERR", "Bs_BsMassFit_D_splus_P", "Bs_BsMassFit_D_splus_PERR", "Bs_BsMassFit_D_splus_ctau", "Bs_BsMassFit_D_splus_ctauErr", "Bs_BsMassFit_D_splus_decayLength", "Bs_BsMassFit_D_splus_decayLengthErr", "Bs_BsMassFit_M", "Bs_BsMassFit_MERR", "Bs_BsMassFit_P", "Bs_BsMassFit_PERR", "Bs_BsMassFit_chi2", "Bs_BsMassFit_nDOF", "Bs_BsMassFit_nIter", "Bs_BsMassFit_status", "Bs_BsPVFit_nPV", "Bs_BsPVFit_D_splus_M", "Bs_BsPVFit_D_splus_MERR", "Bs_BsPVFit_D_splus_P", "Bs_BsPVFit_D_splus_PERR", "Bs_BsPVFit_D_splus_ctau", "Bs_BsPVFit_D_splus_ctauErr", "Bs_BsPVFit_D_splus_decayLength", "Bs_BsPVFit_D_splus_decayLengthErr", "Bs_BsPVFit_M", "Bs_BsPVFit_MERR", "Bs_BsPVFit_P", "Bs_BsPVFit_PERR", "Bs_BsPVFit_PV_X", "Bs_BsPVFit_PV_Y", "Bs_BsPVFit_PV_Z", "Bs_BsPVFit_PV_key", "Bs_BsPVFit_chi2", "Bs_BsPVFit_ctau", "Bs_BsPVFit_ctauErr", "Bs_BsPVFit_decayLength", "Bs_BsPVFit_decayLengthErr", "Bs_BsPVFit_nDOF", "Bs_BsPVFit_nIter", "Bs_BsPVFit_status", "Bs_L0Global_Dec", "Bs_L0Global_TIS", "Bs_L0Global_TOS", "Bs_Hlt1Global_Dec", "Bs_Hlt1Global_TIS", "Bs_Hlt1Global_TOS", "Bs_Hlt1Phys_Dec", "Bs_Hlt1Phys_TIS", "Bs_Hlt1Phys_TOS", "Bs_Hlt2Global_Dec", "Bs_Hlt2Global_TIS", "Bs_Hlt2Global_TOS", "Bs_Hlt2Phys_Dec", "Bs_Hlt2Phys_TIS", "Bs_Hlt2Phys_TOS", "Bs_L0MuonDecision_Dec", "Bs_L0MuonDecision_TIS", "Bs_L0MuonDecision_TOS", "Bs_L0DiMuonDecision_Dec", "Bs_L0DiMuonDecision_TIS", "Bs_L0DiMuonDecision_TOS", "Bs_L0HadronDecision_Dec", "Bs_L0HadronDecision_TIS", "Bs_L0HadronDecision_TOS", "Bs_Hlt1SingleMuonNoIPDecision_Dec", "Bs_Hlt1SingleMuonNoIPDecision_TIS", "Bs_Hlt1SingleMuonNoIPDecision_TOS", "Bs_Hlt1TrackMVADecision_Dec", "Bs_Hlt1TrackMVADecision_TIS", "Bs_Hlt1TrackMVADecision_TOS", "Bs_Hlt1TwoTrackMVADecision_Dec", "Bs_Hlt1TwoTrackMVADecision_TIS", "Bs_Hlt1TwoTrackMVADecision_TOS", "Bs_Hlt1TrackMuonDecision_Dec", "Bs_Hlt1TrackMuonDecision_TIS", "Bs_Hlt1TrackMuonDecision_TOS", "Bs_Hlt1TrackAllL0Decision_Dec", "Bs_Hlt1TrackAllL0Decision_TIS", "Bs_Hlt1TrackAllL0Decision_TOS", "Bs_Hlt2SingleMuonDecision_Dec", "Bs_Hlt2SingleMuonDecision_TIS", "Bs_Hlt2SingleMuonDecision_TOS", "Bs_Hlt2TopoMu2BodyDecision_Dec", "Bs_Hlt2TopoMu2BodyDecision_TIS", "Bs_Hlt2TopoMu2BodyDecision_TOS", "Bs_Hlt2TopoMu3BodyDecision_Dec", "Bs_Hlt2TopoMu3BodyDecision_TIS", "Bs_Hlt2TopoMu3BodyDecision_TOS", "Bs_Hlt2TopoMu4BodyDecision_Dec", "Bs_Hlt2TopoMu4BodyDecision_TIS", "Bs_Hlt2TopoMu4BodyDecision_TOS", "Bs_Hlt2Topo2BodyDecision_Dec", "Bs_Hlt2Topo2BodyDecision_TIS", "Bs_Hlt2Topo2BodyDecision_TOS", "Bs_Hlt2Topo3BodyDecision_Dec", "Bs_Hlt2Topo3BodyDecision_TIS", "Bs_Hlt2Topo3BodyDecision_TOS", "Bs_Hlt2Topo4BodyDecision_Dec", "Bs_Hlt2Topo4BodyDecision_TIS", "Bs_Hlt2Topo4BodyDecision_TOS", "Bs_Hlt2PhiIncPhiDecision_Dec", "Bs_Hlt2PhiIncPhiDecision_TIS", "Bs_Hlt2PhiIncPhiDecision_TOS", "Ds_ETA", "Ds_LOKI_IPCHI2", "Ds_Y", "Ds_CosTheta", "Ds_ENDVERTEX_X", "Ds_ENDVERTEX_Y", "Ds_ENDVERTEX_Z", "Ds_ENDVERTEX_XERR", "Ds_ENDVERTEX_YERR", "Ds_ENDVERTEX_ZERR", "Ds_ENDVERTEX_CHI2", "Ds_ENDVERTEX_NDOF", "Ds_ENDVERTEX_COV_", "Ds_OWNPV_X", "Ds_OWNPV_Y", "Ds_OWNPV_Z", "Ds_OWNPV_XERR", "Ds_OWNPV_YERR", "Ds_OWNPV_ZERR", "Ds_OWNPV_CHI2", "Ds_OWNPV_NDOF", "Ds_OWNPV_COV_", "Ds_IP_OWNPV", "Ds_IPCHI2_OWNPV", "Ds_FD_OWNPV", "Ds_FDCHI2_OWNPV", "Ds_DIRA_OWNPV", "Ds_ORIVX_X", "Ds_ORIVX_Y", "Ds_ORIVX_Z", "Ds_ORIVX_XERR", "Ds_ORIVX_YERR", "Ds_ORIVX_ZERR", "Ds_ORIVX_CHI2", "Ds_ORIVX_NDOF", "Ds_ORIVX_COV_", "Ds_FD_ORIVX", "Ds_FDCHI2_ORIVX", "Ds_DIRA_ORIVX", "Ds_P", "Ds_PT", "Ds_PE", "Ds_PX", "Ds_PY", "Ds_PZ", "Ds_REFPX", "Ds_REFPY", "Ds_REFPZ", "Ds_MM", "Ds_MMERR", "Ds_M", "Ds_ID", "Ds_TAU", "Ds_TAUERR", "Ds_TAUCHI2", "Ds_L0Global_Dec", "Ds_L0Global_TIS", "Ds_L0Global_TOS", "Ds_Hlt1Global_Dec", "Ds_Hlt1Global_TIS", "Ds_Hlt1Global_TOS", "Ds_Hlt1Phys_Dec", "Ds_Hlt1Phys_TIS", "Ds_Hlt1Phys_TOS", "Ds_Hlt2Global_Dec", "Ds_Hlt2Global_TIS", "Ds_Hlt2Global_TOS", "Ds_Hlt2Phys_Dec", "Ds_Hlt2Phys_TIS", "Ds_Hlt2Phys_TOS", "Ds_L0MuonDecision_Dec", "Ds_L0MuonDecision_TIS", "Ds_L0MuonDecision_TOS", "Ds_L0DiMuonDecision_Dec", "Ds_L0DiMuonDecision_TIS", "Ds_L0DiMuonDecision_TOS", "Ds_L0HadronDecision_Dec", "Ds_L0HadronDecision_TIS", "Ds_L0HadronDecision_TOS", "Ds_Hlt1SingleMuonNoIPDecision_Dec", "Ds_Hlt1SingleMuonNoIPDecision_TIS", "Ds_Hlt1SingleMuonNoIPDecision_TOS", "Ds_Hlt1TrackMVADecision_Dec", "Ds_Hlt1TrackMVADecision_TIS", "Ds_Hlt1TrackMVADecision_TOS", "Ds_Hlt1TwoTrackMVADecision_Dec", "Ds_Hlt1TwoTrackMVADecision_TIS", "Ds_Hlt1TwoTrackMVADecision_TOS", "Ds_Hlt1TrackMuonDecision_Dec", "Ds_Hlt1TrackMuonDecision_TIS", "Ds_Hlt1TrackMuonDecision_TOS", "Ds_Hlt1TrackAllL0Decision_Dec", "Ds_Hlt1TrackAllL0Decision_TIS", "Ds_Hlt1TrackAllL0Decision_TOS", "Ds_Hlt2SingleMuonDecision_Dec", "Ds_Hlt2SingleMuonDecision_TIS", "Ds_Hlt2SingleMuonDecision_TOS", "Ds_Hlt2TopoMu2BodyDecision_Dec", "Ds_Hlt2TopoMu2BodyDecision_TIS", "Ds_Hlt2TopoMu2BodyDecision_TOS", "Ds_Hlt2TopoMu3BodyDecision_Dec", "Ds_Hlt2TopoMu3BodyDecision_TIS", "Ds_Hlt2TopoMu3BodyDecision_TOS", "Ds_Hlt2TopoMu4BodyDecision_Dec", "Ds_Hlt2TopoMu4BodyDecision_TIS", "Ds_Hlt2TopoMu4BodyDecision_TOS", "Ds_Hlt2Topo2BodyDecision_Dec", "Ds_Hlt2Topo2BodyDecision_TIS", "Ds_Hlt2Topo2BodyDecision_TOS", "Ds_Hlt2Topo3BodyDecision_Dec", "Ds_Hlt2Topo3BodyDecision_TIS", "Ds_Hlt2Topo3BodyDecision_TOS", "Ds_Hlt2Topo4BodyDecision_Dec", "Ds_Hlt2Topo4BodyDecision_TIS", "Ds_Hlt2Topo4BodyDecision_TOS", "Ds_Hlt2PhiIncPhiDecision_Dec", "Ds_Hlt2PhiIncPhiDecision_TIS", "Ds_Hlt2PhiIncPhiDecision_TOS", "H1Ds_ETA", "H1Ds_LOKI_IPCHI2", "H1Ds_Y", "H1Ds_CosTheta", "H1Ds_OWNPV_X", "H1Ds_OWNPV_Y", "H1Ds_OWNPV_Z", "H1Ds_OWNPV_XERR", "H1Ds_OWNPV_YERR", "H1Ds_OWNPV_ZERR", "H1Ds_OWNPV_CHI2", "H1Ds_OWNPV_NDOF", "H1Ds_OWNPV_COV_", "H1Ds_IP_OWNPV", "H1Ds_IPCHI2_OWNPV", "H1Ds_ORIVX_X", "H1Ds_ORIVX_Y", "H1Ds_ORIVX_Z", "H1Ds_ORIVX_XERR", "H1Ds_ORIVX_YERR", "H1Ds_ORIVX_ZERR", "H1Ds_ORIVX_CHI2", "H1Ds_ORIVX_NDOF", "H1Ds_ORIVX_COV_", "H1Ds_P", "H1Ds_PT", "H1Ds_PE", "H1Ds_PX", "H1Ds_PY", "H1Ds_PZ", "H1Ds_REFPX", "H1Ds_REFPY", "H1Ds_REFPZ", "H1Ds_M", "H1Ds_AtVtx_PE", "H1Ds_AtVtx_PX", "H1Ds_AtVtx_PY", "H1Ds_AtVtx_PZ", "H1Ds_ID", "H1Ds_PIDe", "H1Ds_PIDmu", "H1Ds_PIDK", "H1Ds_PIDp", "H1Ds_PIDd", "H1Ds_ProbNNe", "H1Ds_ProbNNk", "H1Ds_ProbNNp", "H1Ds_ProbNNpi", "H1Ds_ProbNNmu", "H1Ds_ProbNNd", "H1Ds_ProbNNghost", "H1Ds_hasMuon", "H1Ds_isMuon", "H1Ds_hasRich", "H1Ds_UsedRichAerogel", "H1Ds_UsedRich1Gas", "H1Ds_UsedRich2Gas", "H1Ds_RichAboveElThres", "H1Ds_RichAboveMuThres", "H1Ds_RichAbovePiThres", "H1Ds_RichAboveKaThres", "H1Ds_RichAbovePrThres", "H1Ds_hasCalo", "H1Ds_TRACK_Type", "H1Ds_TRACK_Key", "H1Ds_TRACK_CHI2NDOF", "H1Ds_TRACK_PCHI2", "H1Ds_TRACK_MatchCHI2", "H1Ds_TRACK_GhostProb", "H1Ds_TRACK_CloneDist", "H1Ds_TRACK_Likelihood", "H1Ds_L0Global_Dec", "H1Ds_L0Global_TIS", "H1Ds_L0Global_TOS", "H1Ds_Hlt1Global_Dec", "H1Ds_Hlt1Global_TIS", "H1Ds_Hlt1Global_TOS", "H1Ds_Hlt1Phys_Dec", "H1Ds_Hlt1Phys_TIS", "H1Ds_Hlt1Phys_TOS", "H1Ds_Hlt2Global_Dec", "H1Ds_Hlt2Global_TIS", "H1Ds_Hlt2Global_TOS", "H1Ds_Hlt2Phys_Dec", "H1Ds_Hlt2Phys_TIS", "H1Ds_Hlt2Phys_TOS", "H1Ds_L0MuonDecision_Dec", "H1Ds_L0MuonDecision_TIS", "H1Ds_L0MuonDecision_TOS", "H1Ds_L0DiMuonDecision_Dec", "H1Ds_L0DiMuonDecision_TIS", "H1Ds_L0DiMuonDecision_TOS", "H1Ds_L0HadronDecision_Dec", "H1Ds_L0HadronDecision_TIS", "H1Ds_L0HadronDecision_TOS", "H1Ds_Hlt1SingleMuonNoIPDecision_Dec", "H1Ds_Hlt1SingleMuonNoIPDecision_TIS", "H1Ds_Hlt1SingleMuonNoIPDecision_TOS", "H1Ds_Hlt1TrackMVADecision_Dec", "H1Ds_Hlt1TrackMVADecision_TIS", "H1Ds_Hlt1TrackMVADecision_TOS", "H1Ds_Hlt1TwoTrackMVADecision_Dec", "H1Ds_Hlt1TwoTrackMVADecision_TIS", "H1Ds_Hlt1TwoTrackMVADecision_TOS", "H1Ds_Hlt1TrackMuonDecision_Dec", "H1Ds_Hlt1TrackMuonDecision_TIS", "H1Ds_Hlt1TrackMuonDecision_TOS", "H1Ds_Hlt1TrackAllL0Decision_Dec", "H1Ds_Hlt1TrackAllL0Decision_TIS", "H1Ds_Hlt1TrackAllL0Decision_TOS", "H1Ds_Hlt2SingleMuonDecision_Dec", "H1Ds_Hlt2SingleMuonDecision_TIS", "H1Ds_Hlt2SingleMuonDecision_TOS", "H1Ds_Hlt2TopoMu2BodyDecision_Dec", "H1Ds_Hlt2TopoMu2BodyDecision_TIS", "H1Ds_Hlt2TopoMu2BodyDecision_TOS", "H1Ds_Hlt2TopoMu3BodyDecision_Dec", "H1Ds_Hlt2TopoMu3BodyDecision_TIS", "H1Ds_Hlt2TopoMu3BodyDecision_TOS", "H1Ds_Hlt2TopoMu4BodyDecision_Dec", "H1Ds_Hlt2TopoMu4BodyDecision_TIS", "H1Ds_Hlt2TopoMu4BodyDecision_TOS", "H1Ds_Hlt2Topo2BodyDecision_Dec", "H1Ds_Hlt2Topo2BodyDecision_TIS", "H1Ds_Hlt2Topo2BodyDecision_TOS", "H1Ds_Hlt2Topo3BodyDecision_Dec", "H1Ds_Hlt2Topo3BodyDecision_TIS", "H1Ds_Hlt2Topo3BodyDecision_TOS", "H1Ds_Hlt2Topo4BodyDecision_Dec", "H1Ds_Hlt2Topo4BodyDecision_TIS", "H1Ds_Hlt2Topo4BodyDecision_TOS", "H1Ds_Hlt2PhiIncPhiDecision_Dec", "H1Ds_Hlt2PhiIncPhiDecision_TIS", "H1Ds_Hlt2PhiIncPhiDecision_TOS", "H2Ds_ETA", "H2Ds_LOKI_IPCHI2", "H2Ds_Y", "H2Ds_CosTheta", "H2Ds_OWNPV_X", "H2Ds_OWNPV_Y", "H2Ds_OWNPV_Z", "H2Ds_OWNPV_XERR", "H2Ds_OWNPV_YERR", "H2Ds_OWNPV_ZERR", "H2Ds_OWNPV_CHI2", "H2Ds_OWNPV_NDOF", "H2Ds_OWNPV_COV_", "H2Ds_IP_OWNPV", "H2Ds_IPCHI2_OWNPV", "H2Ds_ORIVX_X", "H2Ds_ORIVX_Y", "H2Ds_ORIVX_Z", "H2Ds_ORIVX_XERR", "H2Ds_ORIVX_YERR", "H2Ds_ORIVX_ZERR", "H2Ds_ORIVX_CHI2", "H2Ds_ORIVX_NDOF", "H2Ds_ORIVX_COV_", "H2Ds_P", "H2Ds_PT", "H2Ds_PE", "H2Ds_PX", "H2Ds_PY", "H2Ds_PZ", "H2Ds_REFPX", "H2Ds_REFPY", "H2Ds_REFPZ", "H2Ds_M", "H2Ds_AtVtx_PE", "H2Ds_AtVtx_PX", "H2Ds_AtVtx_PY", "H2Ds_AtVtx_PZ", "H2Ds_ID", "H2Ds_PIDe", "H2Ds_PIDmu", "H2Ds_PIDK", "H2Ds_PIDp", "H2Ds_PIDd", "H2Ds_ProbNNe", "H2Ds_ProbNNk", "H2Ds_ProbNNp", "H2Ds_ProbNNpi", "H2Ds_ProbNNmu", "H2Ds_ProbNNd", "H2Ds_ProbNNghost", "H2Ds_hasMuon", "H2Ds_isMuon", "H2Ds_hasRich", "H2Ds_UsedRichAerogel", "H2Ds_UsedRich1Gas", "H2Ds_UsedRich2Gas", "H2Ds_RichAboveElThres", "H2Ds_RichAboveMuThres", "H2Ds_RichAbovePiThres", "H2Ds_RichAboveKaThres", "H2Ds_RichAbovePrThres", "H2Ds_hasCalo", "H2Ds_TRACK_Type", "H2Ds_TRACK_Key", "H2Ds_TRACK_CHI2NDOF", "H2Ds_TRACK_PCHI2", "H2Ds_TRACK_MatchCHI2", "H2Ds_TRACK_GhostProb", "H2Ds_TRACK_CloneDist", "H2Ds_TRACK_Likelihood", "H2Ds_L0Global_Dec", "H2Ds_L0Global_TIS", "H2Ds_L0Global_TOS", "H2Ds_Hlt1Global_Dec", "H2Ds_Hlt1Global_TIS", "H2Ds_Hlt1Global_TOS", "H2Ds_Hlt1Phys_Dec", "H2Ds_Hlt1Phys_TIS", "H2Ds_Hlt1Phys_TOS", "H2Ds_Hlt2Global_Dec", "H2Ds_Hlt2Global_TIS", "H2Ds_Hlt2Global_TOS", "H2Ds_Hlt2Phys_Dec", "H2Ds_Hlt2Phys_TIS", "H2Ds_Hlt2Phys_TOS", "H2Ds_L0MuonDecision_Dec", "H2Ds_L0MuonDecision_TIS", "H2Ds_L0MuonDecision_TOS", "H2Ds_L0DiMuonDecision_Dec", "H2Ds_L0DiMuonDecision_TIS", "H2Ds_L0DiMuonDecision_TOS", "H2Ds_L0HadronDecision_Dec", "H2Ds_L0HadronDecision_TIS", "H2Ds_L0HadronDecision_TOS", "H2Ds_Hlt1SingleMuonNoIPDecision_Dec", "H2Ds_Hlt1SingleMuonNoIPDecision_TIS", "H2Ds_Hlt1SingleMuonNoIPDecision_TOS", "H2Ds_Hlt1TrackMVADecision_Dec", "H2Ds_Hlt1TrackMVADecision_TIS", "H2Ds_Hlt1TrackMVADecision_TOS", "H2Ds_Hlt1TwoTrackMVADecision_Dec", "H2Ds_Hlt1TwoTrackMVADecision_TIS", "H2Ds_Hlt1TwoTrackMVADecision_TOS", "H2Ds_Hlt1TrackMuonDecision_Dec", "H2Ds_Hlt1TrackMuonDecision_TIS", "H2Ds_Hlt1TrackMuonDecision_TOS", "H2Ds_Hlt1TrackAllL0Decision_Dec", "H2Ds_Hlt1TrackAllL0Decision_TIS", "H2Ds_Hlt1TrackAllL0Decision_TOS", "H2Ds_Hlt2SingleMuonDecision_Dec", "H2Ds_Hlt2SingleMuonDecision_TIS", "H2Ds_Hlt2SingleMuonDecision_TOS", "H2Ds_Hlt2TopoMu2BodyDecision_Dec", "H2Ds_Hlt2TopoMu2BodyDecision_TIS", "H2Ds_Hlt2TopoMu2BodyDecision_TOS", "H2Ds_Hlt2TopoMu3BodyDecision_Dec", "H2Ds_Hlt2TopoMu3BodyDecision_TIS", "H2Ds_Hlt2TopoMu3BodyDecision_TOS", "H2Ds_Hlt2TopoMu4BodyDecision_Dec", "H2Ds_Hlt2TopoMu4BodyDecision_TIS", "H2Ds_Hlt2TopoMu4BodyDecision_TOS", "H2Ds_Hlt2Topo2BodyDecision_Dec", "H2Ds_Hlt2Topo2BodyDecision_TIS", "H2Ds_Hlt2Topo2BodyDecision_TOS", "H2Ds_Hlt2Topo3BodyDecision_Dec", "H2Ds_Hlt2Topo3BodyDecision_TIS", "H2Ds_Hlt2Topo3BodyDecision_TOS", "H2Ds_Hlt2Topo4BodyDecision_Dec", "H2Ds_Hlt2Topo4BodyDecision_TIS", "H2Ds_Hlt2Topo4BodyDecision_TOS", "H2Ds_Hlt2PhiIncPhiDecision_Dec", "H2Ds_Hlt2PhiIncPhiDecision_TIS", "H2Ds_Hlt2PhiIncPhiDecision_TOS", "H3Ds_ETA", "H3Ds_LOKI_IPCHI2", "H3Ds_Y", "H3Ds_CosTheta", "H3Ds_OWNPV_X", "H3Ds_OWNPV_Y", "H3Ds_OWNPV_Z", "H3Ds_OWNPV_XERR", "H3Ds_OWNPV_YERR", "H3Ds_OWNPV_ZERR", "H3Ds_OWNPV_CHI2", "H3Ds_OWNPV_NDOF", "H3Ds_OWNPV_COV_", "H3Ds_IP_OWNPV", "H3Ds_IPCHI2_OWNPV", "H3Ds_ORIVX_X", "H3Ds_ORIVX_Y", "H3Ds_ORIVX_Z", "H3Ds_ORIVX_XERR", "H3Ds_ORIVX_YERR", "H3Ds_ORIVX_ZERR", "H3Ds_ORIVX_CHI2", "H3Ds_ORIVX_NDOF", "H3Ds_ORIVX_COV_", "H3Ds_P", "H3Ds_PT", "H3Ds_PE", "H3Ds_PX", "H3Ds_PY", "H3Ds_PZ", "H3Ds_REFPX", "H3Ds_REFPY", "H3Ds_REFPZ", "H3Ds_M", "H3Ds_AtVtx_PE", "H3Ds_AtVtx_PX", "H3Ds_AtVtx_PY", "H3Ds_AtVtx_PZ", "H3Ds_ID", "H3Ds_PIDe", "H3Ds_PIDmu", "H3Ds_PIDK", "H3Ds_PIDp", "H3Ds_PIDd", "H3Ds_ProbNNe", "H3Ds_ProbNNk", "H3Ds_ProbNNp", "H3Ds_ProbNNpi", "H3Ds_ProbNNmu", "H3Ds_ProbNNd", "H3Ds_ProbNNghost", "H3Ds_hasMuon", "H3Ds_isMuon", "H3Ds_hasRich", "H3Ds_UsedRichAerogel", "H3Ds_UsedRich1Gas", "H3Ds_UsedRich2Gas", "H3Ds_RichAboveElThres", "H3Ds_RichAboveMuThres", "H3Ds_RichAbovePiThres", "H3Ds_RichAboveKaThres", "H3Ds_RichAbovePrThres", "H3Ds_hasCalo", "H3Ds_TRACK_Type", "H3Ds_TRACK_Key", "H3Ds_TRACK_CHI2NDOF", "H3Ds_TRACK_PCHI2", "H3Ds_TRACK_MatchCHI2", "H3Ds_TRACK_GhostProb", "H3Ds_TRACK_CloneDist", "H3Ds_TRACK_Likelihood", "H3Ds_L0Global_Dec", "H3Ds_L0Global_TIS", "H3Ds_L0Global_TOS", "H3Ds_Hlt1Global_Dec", "H3Ds_Hlt1Global_TIS", "H3Ds_Hlt1Global_TOS", "H3Ds_Hlt1Phys_Dec", "H3Ds_Hlt1Phys_TIS", "H3Ds_Hlt1Phys_TOS", "H3Ds_Hlt2Global_Dec", "H3Ds_Hlt2Global_TIS", "H3Ds_Hlt2Global_TOS", "H3Ds_Hlt2Phys_Dec", "H3Ds_Hlt2Phys_TIS", "H3Ds_Hlt2Phys_TOS", "H3Ds_L0MuonDecision_Dec", "H3Ds_L0MuonDecision_TIS", "H3Ds_L0MuonDecision_TOS", "H3Ds_L0DiMuonDecision_Dec", "H3Ds_L0DiMuonDecision_TIS", "H3Ds_L0DiMuonDecision_TOS", "H3Ds_L0HadronDecision_Dec", "H3Ds_L0HadronDecision_TIS", "H3Ds_L0HadronDecision_TOS", "H3Ds_Hlt1SingleMuonNoIPDecision_Dec", "H3Ds_Hlt1SingleMuonNoIPDecision_TIS", "H3Ds_Hlt1SingleMuonNoIPDecision_TOS", "H3Ds_Hlt1TrackMVADecision_Dec", "H3Ds_Hlt1TrackMVADecision_TIS", "H3Ds_Hlt1TrackMVADecision_TOS", "H3Ds_Hlt1TwoTrackMVADecision_Dec", "H3Ds_Hlt1TwoTrackMVADecision_TIS", "H3Ds_Hlt1TwoTrackMVADecision_TOS", "H3Ds_Hlt1TrackMuonDecision_Dec", "H3Ds_Hlt1TrackMuonDecision_TIS", "H3Ds_Hlt1TrackMuonDecision_TOS", "H3Ds_Hlt1TrackAllL0Decision_Dec", "H3Ds_Hlt1TrackAllL0Decision_TIS", "H3Ds_Hlt1TrackAllL0Decision_TOS", "H3Ds_Hlt2SingleMuonDecision_Dec", "H3Ds_Hlt2SingleMuonDecision_TIS", "H3Ds_Hlt2SingleMuonDecision_TOS", "H3Ds_Hlt2TopoMu2BodyDecision_Dec", "H3Ds_Hlt2TopoMu2BodyDecision_TIS", "H3Ds_Hlt2TopoMu2BodyDecision_TOS", "H3Ds_Hlt2TopoMu3BodyDecision_Dec", "H3Ds_Hlt2TopoMu3BodyDecision_TIS", "H3Ds_Hlt2TopoMu3BodyDecision_TOS", "H3Ds_Hlt2TopoMu4BodyDecision_Dec", "H3Ds_Hlt2TopoMu4BodyDecision_TIS", "H3Ds_Hlt2TopoMu4BodyDecision_TOS", "H3Ds_Hlt2Topo2BodyDecision_Dec", "H3Ds_Hlt2Topo2BodyDecision_TIS", "H3Ds_Hlt2Topo2BodyDecision_TOS", "H3Ds_Hlt2Topo3BodyDecision_Dec", "H3Ds_Hlt2Topo3BodyDecision_TIS", "H3Ds_Hlt2Topo3BodyDecision_TOS", "H3Ds_Hlt2Topo4BodyDecision_Dec", "H3Ds_Hlt2Topo4BodyDecision_TIS", "H3Ds_Hlt2Topo4BodyDecision_TOS", "H3Ds_Hlt2PhiIncPhiDecision_Dec", "H3Ds_Hlt2PhiIncPhiDecision_TIS", "H3Ds_Hlt2PhiIncPhiDecision_TOS", "PionBs_ETA", "PionBs_LOKI_IPCHI2", "PionBs_Y", "PionBs_CosTheta", "PionBs_OWNPV_X", "PionBs_OWNPV_Y", "PionBs_OWNPV_Z", "PionBs_OWNPV_XERR", "PionBs_OWNPV_YERR", "PionBs_OWNPV_ZERR", "PionBs_OWNPV_CHI2", "PionBs_OWNPV_NDOF", "PionBs_OWNPV_COV_", "PionBs_IP_OWNPV", "PionBs_IPCHI2_OWNPV", "PionBs_ORIVX_X", "PionBs_ORIVX_Y", "PionBs_ORIVX_Z", "PionBs_ORIVX_XERR", "PionBs_ORIVX_YERR", "PionBs_ORIVX_ZERR", "PionBs_ORIVX_CHI2", "PionBs_ORIVX_NDOF", "PionBs_ORIVX_COV_", "PionBs_P", "PionBs_PT", "PionBs_PE", "PionBs_PX", "PionBs_PY", "PionBs_PZ", "PionBs_REFPX", "PionBs_REFPY", "PionBs_REFPZ", "PionBs_M", "PionBs_AtVtx_PE", "PionBs_AtVtx_PX", "PionBs_AtVtx_PY", "PionBs_AtVtx_PZ", "PionBs_ID", "PionBs_PIDe", "PionBs_PIDmu", "PionBs_PIDK", "PionBs_PIDp", "PionBs_PIDd", "PionBs_ProbNNe", "PionBs_ProbNNk", "PionBs_ProbNNp", "PionBs_ProbNNpi", "PionBs_ProbNNmu", "PionBs_ProbNNd", "PionBs_ProbNNghost", "PionBs_hasMuon", "PionBs_isMuon", "PionBs_hasRich", "PionBs_UsedRichAerogel", "PionBs_UsedRich1Gas", "PionBs_UsedRich2Gas", "PionBs_RichAboveElThres", "PionBs_RichAboveMuThres", "PionBs_RichAbovePiThres", "PionBs_RichAboveKaThres", "PionBs_RichAbovePrThres", "PionBs_hasCalo", "PionBs_TRACK_Type", "PionBs_TRACK_Key", "PionBs_TRACK_CHI2NDOF", "PionBs_TRACK_PCHI2", "PionBs_TRACK_MatchCHI2", "PionBs_TRACK_GhostProb", "PionBs_TRACK_CloneDist", "PionBs_TRACK_Likelihood", "PionBs_L0Global_Dec", "PionBs_L0Global_TIS", "PionBs_L0Global_TOS", "PionBs_Hlt1Global_Dec", "PionBs_Hlt1Global_TIS", "PionBs_Hlt1Global_TOS", "PionBs_Hlt1Phys_Dec", "PionBs_Hlt1Phys_TIS", "PionBs_Hlt1Phys_TOS", "PionBs_Hlt2Global_Dec", "PionBs_Hlt2Global_TIS", "PionBs_Hlt2Global_TOS", "PionBs_Hlt2Phys_Dec", "PionBs_Hlt2Phys_TIS", "PionBs_Hlt2Phys_TOS", "PionBs_L0MuonDecision_Dec", "PionBs_L0MuonDecision_TIS", "PionBs_L0MuonDecision_TOS", "PionBs_L0DiMuonDecision_Dec", "PionBs_L0DiMuonDecision_TIS", "PionBs_L0DiMuonDecision_TOS", "PionBs_L0HadronDecision_Dec", "PionBs_L0HadronDecision_TIS", "PionBs_L0HadronDecision_TOS", "PionBs_Hlt1SingleMuonNoIPDecision_Dec", "PionBs_Hlt1SingleMuonNoIPDecision_TIS", "PionBs_Hlt1SingleMuonNoIPDecision_TOS", "PionBs_Hlt1TrackMVADecision_Dec", "PionBs_Hlt1TrackMVADecision_TIS", "PionBs_Hlt1TrackMVADecision_TOS", "PionBs_Hlt1TwoTrackMVADecision_Dec", "PionBs_Hlt1TwoTrackMVADecision_TIS", "PionBs_Hlt1TwoTrackMVADecision_TOS", "PionBs_Hlt1TrackMuonDecision_Dec", "PionBs_Hlt1TrackMuonDecision_TIS", "PionBs_Hlt1TrackMuonDecision_TOS", "PionBs_Hlt1TrackAllL0Decision_Dec", "PionBs_Hlt1TrackAllL0Decision_TIS", "PionBs_Hlt1TrackAllL0Decision_TOS", "PionBs_Hlt2SingleMuonDecision_Dec", "PionBs_Hlt2SingleMuonDecision_TIS", "PionBs_Hlt2SingleMuonDecision_TOS", "PionBs_Hlt2TopoMu2BodyDecision_Dec", "PionBs_Hlt2TopoMu2BodyDecision_TIS", "PionBs_Hlt2TopoMu2BodyDecision_TOS", "PionBs_Hlt2TopoMu3BodyDecision_Dec", "PionBs_Hlt2TopoMu3BodyDecision_TIS", "PionBs_Hlt2TopoMu3BodyDecision_TOS", "PionBs_Hlt2TopoMu4BodyDecision_Dec", "PionBs_Hlt2TopoMu4BodyDecision_TIS", "PionBs_Hlt2TopoMu4BodyDecision_TOS", "PionBs_Hlt2Topo2BodyDecision_Dec", "PionBs_Hlt2Topo2BodyDecision_TIS", "PionBs_Hlt2Topo2BodyDecision_TOS", "PionBs_Hlt2Topo3BodyDecision_Dec", "PionBs_Hlt2Topo3BodyDecision_TIS", "PionBs_Hlt2Topo3BodyDecision_TOS", "PionBs_Hlt2Topo4BodyDecision_Dec", "PionBs_Hlt2Topo4BodyDecision_TIS", "PionBs_Hlt2Topo4BodyDecision_TOS", "PionBs_Hlt2PhiIncPhiDecision_Dec", "PionBs_Hlt2PhiIncPhiDecision_TIS", "PionBs_Hlt2PhiIncPhiDecision_TOS", "Bach_ETA", "Bach_LOKI_IPCHI2", "Bach_Y", "Bach_CosTheta", "Bach_OWNPV_X", "Bach_OWNPV_Y", "Bach_OWNPV_Z", "Bach_OWNPV_XERR", "Bach_OWNPV_YERR", "Bach_OWNPV_ZERR", "Bach_OWNPV_CHI2", "Bach_OWNPV_NDOF", "Bach_OWNPV_COV_", "Bach_IP_OWNPV", "Bach_IPCHI2_OWNPV", "Bach_ORIVX_X", "Bach_ORIVX_Y", "Bach_ORIVX_Z", "Bach_ORIVX_XERR", "Bach_ORIVX_YERR", "Bach_ORIVX_ZERR", "Bach_ORIVX_CHI2", "Bach_ORIVX_NDOF", "Bach_ORIVX_COV_", "Bach_P", "Bach_PT", "Bach_PE", "Bach_PX", "Bach_PY", "Bach_PZ", "Bach_REFPX", "Bach_REFPY", "Bach_REFPZ", "Bach_M", "Bach_AtVtx_PE", "Bach_AtVtx_PX", "Bach_AtVtx_PY", "Bach_AtVtx_PZ", "Bach_ID", "Bach_PIDe", "Bach_PIDmu", "Bach_PIDK", "Bach_PIDp", "Bach_PIDd", "Bach_ProbNNe", "Bach_ProbNNk", "Bach_ProbNNp", "Bach_ProbNNpi", "Bach_ProbNNmu", "Bach_ProbNNd", "Bach_ProbNNghost", "Bach_hasMuon", "Bach_isMuon", "Bach_hasRich", "Bach_UsedRichAerogel", "Bach_UsedRich1Gas", "Bach_UsedRich2Gas", "Bach_RichAboveElThres", "Bach_RichAboveMuThres", "Bach_RichAbovePiThres", "Bach_RichAboveKaThres", "Bach_RichAbovePrThres", "Bach_hasCalo", "Bach_TRACK_Type", "Bach_TRACK_Key", "Bach_TRACK_CHI2NDOF", "Bach_TRACK_PCHI2", "Bach_TRACK_MatchCHI2", "Bach_TRACK_GhostProb", "Bach_TRACK_CloneDist", "Bach_TRACK_Likelihood", "Bach_L0Global_Dec", "Bach_L0Global_TIS", "Bach_L0Global_TOS", "Bach_Hlt1Global_Dec", "Bach_Hlt1Global_TIS", "Bach_Hlt1Global_TOS", "Bach_Hlt1Phys_Dec", "Bach_Hlt1Phys_TIS", "Bach_Hlt1Phys_TOS", "Bach_Hlt2Global_Dec", "Bach_Hlt2Global_TIS", "Bach_Hlt2Global_TOS", "Bach_Hlt2Phys_Dec", "Bach_Hlt2Phys_TIS", "Bach_Hlt2Phys_TOS", "Bach_L0MuonDecision_Dec", "Bach_L0MuonDecision_TIS", "Bach_L0MuonDecision_TOS", "Bach_L0DiMuonDecision_Dec", "Bach_L0DiMuonDecision_TIS", "Bach_L0DiMuonDecision_TOS", "Bach_L0HadronDecision_Dec", "Bach_L0HadronDecision_TIS", "Bach_L0HadronDecision_TOS", "Bach_Hlt1SingleMuonNoIPDecision_Dec", "Bach_Hlt1SingleMuonNoIPDecision_TIS", "Bach_Hlt1SingleMuonNoIPDecision_TOS", "Bach_Hlt1TrackMVADecision_Dec", "Bach_Hlt1TrackMVADecision_TIS", "Bach_Hlt1TrackMVADecision_TOS", "Bach_Hlt1TwoTrackMVADecision_Dec", "Bach_Hlt1TwoTrackMVADecision_TIS", "Bach_Hlt1TwoTrackMVADecision_TOS", "Bach_Hlt1TrackMuonDecision_Dec", "Bach_Hlt1TrackMuonDecision_TIS", "Bach_Hlt1TrackMuonDecision_TOS", "Bach_Hlt1TrackAllL0Decision_Dec", "Bach_Hlt1TrackAllL0Decision_TIS", "Bach_Hlt1TrackAllL0Decision_TOS", "Bach_Hlt2SingleMuonDecision_Dec", "Bach_Hlt2SingleMuonDecision_TIS", "Bach_Hlt2SingleMuonDecision_TOS", "Bach_Hlt2TopoMu2BodyDecision_Dec", "Bach_Hlt2TopoMu2BodyDecision_TIS", "Bach_Hlt2TopoMu2BodyDecision_TOS", "Bach_Hlt2TopoMu3BodyDecision_Dec", "Bach_Hlt2TopoMu3BodyDecision_TIS", "Bach_Hlt2TopoMu3BodyDecision_TOS", "Bach_Hlt2TopoMu4BodyDecision_Dec", "Bach_Hlt2TopoMu4BodyDecision_TIS", "Bach_Hlt2TopoMu4BodyDecision_TOS", "Bach_Hlt2Topo2BodyDecision_Dec", "Bach_Hlt2Topo2BodyDecision_TIS", "Bach_Hlt2Topo2BodyDecision_TOS", "Bach_Hlt2Topo3BodyDecision_Dec", "Bach_Hlt2Topo3BodyDecision_TIS", "Bach_Hlt2Topo3BodyDecision_TOS", "Bach_Hlt2Topo4BodyDecision_Dec", "Bach_Hlt2Topo4BodyDecision_TIS", "Bach_Hlt2Topo4BodyDecision_TOS", "Bach_Hlt2PhiIncPhiDecision_Dec", "Bach_Hlt2PhiIncPhiDecision_TIS", "Bach_Hlt2PhiIncPhiDecision_TOS", "nCandidate", "totCandidates", "EventInSequence", "LoKi_nITClusters", "LoKi_nOThits", "LoKi_nPVs", "LoKi_nSpdMult", "LoKi_nTTClusters", "LoKi_nVeloClusters", "LoKi_nVeloLiteClusters", "runNumber", "eventNumber", "BCID", "BCType", "OdinTCK", "L0DUTCK", "HLT1TCK", "HLT2TCK", "GpsTime", "Polarity", "nPV", "PVX", "PVY", "PVZ", "PVXERR", "PVYERR", "PVZERR", "PVCHI2", "PVNDOF", "PVNTRACKS", "nPVs", "nTracks", "nLongTracks", "nDownstreamTracks", "nUpstreamTracks", "nVeloTracks", "nTTracks", "nBackTracks", "nRich1Hits", "nRich2Hits", "nVeloClusters", "nITClusters", "nTTClusters", "nOTClusters", "nSPDHits", "nMuonCoordsS0", "nMuonCoordsS1", "nMuonCoordsS2", "nMuonCoordsS3", "nMuonCoordsS4", "nMuonTracks", "DecayTree_Bach_PIDmu_corr", "Bach_PIDmu_corr", "DecayTree_Bach_PIDK_corr", "Bach_PIDK_corr", "DecayTree_PionBs_PIDK_corr", "PionBs_PIDK_corr", "DecayTree_H1Ds_PIDK_corr", "H1Ds_PIDK_corr", "DecayTree_H2Ds_PIDK_corr", "H2Ds_PIDK_corr", "DecayTree_H3Ds_PIDK_corr", "H3Ds_PIDK_corr" }Bc_is_from_Bc_BsKstar_Ks2pippim == 1 | Bc_is_from_Bc_BsKstar_Ks2pizpiz == 1: pass=152        all=4737       -- eff=3.21 % cumulative eff=3.21 %
HLT2      : pass=76         all=135        -- eff=56.30 % cumulative eff=1.60 %
5000 < Bs_MM && Bs_MM < 6000: pass=76         all=76         -- eff=100.00 % cumulative eff=1.60 %
Bs_ENDVERTEX_CHI2 / Bs_ENDVERTEX_NDOF < 10: pass=76         all=76         -- eff=100.00 % cumulative eff=1.60 %
Bc_ENDVERTEX_CHI2 / Bc_ENDVERTEX_NDOF < 9: pass=74         all=76         -- eff=97.37 % cumulative eff=1.56 %
B_IPCHI2_OWNPV < 25: pass=66         all=74         -- eff=89.19 % cumulative eff=1.39 %
cuts in 2018 + 2016 but not 2017: pass=66         all=66         -- eff=100.00 % cumulative eff=1.39 %
Bs_TAU > 0.000: pass=60         all=66         -- eff=90.91 % cumulative eff=1.27 %
Ds_PT > 2000: pass=60         all=60         -- eff=100.00 % cumulative eff=1.27 %
1943.49 < Ds_MM && Ds_MM < 1993.49: pass=38         all=60         -- eff=63.33 % cumulative eff=0.80 %
PionBs_PT > 1700: pass=29         all=38         -- eff=76.32 % cumulative eff=0.61 %
H1Ds_PIDK_corr > 5: pass=24         all=29         -- eff=82.76 % cumulative eff=0.51 %
H2Ds_PIDK_corr > 5: pass=24         all=24         -- eff=100.00 % cumulative eff=0.51 %
H3Ds_PIDK_corr < -2: pass=23         all=24         -- eff=95.83 % cumulative eff=0.49 %
PionBs_PIDK_corr < -2: pass=22         all=23         -- eff=95.65 % cumulative eff=0.46 %
Bach_PIDmu_corr > 0 : pass=4          all=22         -- eff=18.18 % cumulative eff=0.08 %
Bach_isMuon == 1: pass=4          all=4          -- eff=100.00 % cumulative eff=0.08 %

Saving output files
Done
