Variable importance Bc BDT:
Bc_DTF_ctau : 0.5824335766368971
Bach_PT : 0.14583692327666453
Bc_DTF_DecayLength : 0.07791712916613558
Bc_DTF_chi2 : 0.05524228864693149
Bc_IPCHI2_OWNPV : 0.030490593636113898
Bach_P : 0.03012381212481087
Bc_DIRA_OWNPV : 0.029074293468682046
Bc_PT : 0.02118201678484305
Bc_ENDVERTEX_CHI2 : 0.01257181306029145
Bc_DTF_ctauErr : 0.006260275246161321
Bc_DTF_DecayLengthErr : 0.0062001407363624856
Bc_DTF_Bs_ctauErr : 0.0016389766994168498
Bc_DTF_Bs_ctau : 0.0008731303792853082
Bc_DTF_Bs_DecayLength : 8.510384978372759e-05
Bc_DTF_Bs_DecayLengthErr : 6.992628762026535e-05

Bc BDT ROC AUC = 0.9674486329084871
BDT cut for Bc sel = 3.2351295252542256