Variable importance Bs BDT:
sqrt_Pi_from_Bs_IPCHI2_OWNPV : 0.5080778685806773
sqrt_Ds_IPCHI2_OWNPV : 0.20635744810487483
Ds_ENDVERTEX_CHI2 : 0.07530106903810929
sqrt_K1_IPCHI2_OWNPV : 0.04765723650458912
Log_Ds_PT : 0.04216032942395765
sqrt_Pi_IPCHI2_OWNPV : 0.04210632578255819
Log_Bs_FD_OWNPV : 0.02270186881073333
Bs_ENDVERTEX_CHI2 : 0.020826774754641005
Log_Pi_from_Bs_PT : 0.008748123800546405
sqrt_K2_IPCHI2_OWNPV : 0.008228633606540097
Log_K1_PT : 0.007932457100474473
Bs_LV02 : 0.003660967022036215
Log_Pi_PT : 0.0033231907021602533
Log_K2_PT : 0.0029177067681018126

Bs BDT ROC AUC = 0.9802586234374766
BDT cut for Bs sel = 2.71273995453076
Variable importance Bc BDT:
Bc_TAU : 0.685973398020837
Bach_PT : 0.1932009306286096
Bc_MDTF_Bs_ctau : 0.030141047845979298
sqrt_Bc_IPCHI2_OWNPV : 0.025100184377259558
sqrt_Bs_IPCHI2_OWNPV : 0.01740806324910474
Bach_CosTheta : 0.013376096379608947
Bs_PT : 0.013053821167252993
sqrt_Pi_IPCHI2_OWNPV : 0.00796249365046511
Bc_MDTF_Bs_ctauS : 0.006858826859025664
Bc_MDTF_chi2nDOF : 0.004011259325218348
Bc_DIRA_OWNPV : 0.0029138784966386074

Bs BDT ROC AUC = 0.9736756223745875
BDT cut for Bc sel = 4.10342360788662