Variable importance Bc BDT:
Bc_DIRA_OWNPV : 0.45177652308778604
Bach_PT : 0.16521894751141813
Bc_MDTF_Bs_ctauErr : 0.11119583331738578
Bach_P : 0.1042523891819498
Bc_PT : 0.08499097168596649
Bc_ENDVERTEX_CHI2 : 0.029381398853448586
Bc_MDTF_Bs_DecayLengthErr : 0.024210902882336263
Bc_MDTF_chi2 : 0.018335474848482834
Bc_IPCHI2_OWNPV : 0.009860980340583735
Bc_MDTF_Bs_DecayLength : 0.0007765782906423172
Bc_MDTF_Bs_ctau : 0.0

Bc BDT ROC AUC = 0.9781983227819996
BDT cut for Bc sel = 2.521706361137937