BDT training for Bc2BsMu, Bs2Bs2DsPi, for year 'All' 

Variable importance Bs BDT even:
sqrt_Pi_from_Bs_IPCHI2_OWNPV : 0.4328507991818754
sqrt_Ds_IPCHI2_OWNPV : 0.24169343426112108
Ds_ENDVERTEX_CHI2 : 0.09784586137023145
Log_Ds_PT : 0.053797985956787656
sqrt_Pi_IPCHI2_OWNPV : 0.03763543529401898
sqrt_K1_IPCHI2_OWNPV : 0.035678748387458666
Log_Bs_FD_OWNPV : 0.02987835904364978
Bs_ENDVERTEX_CHI2 : 0.021103792532468975
Log_Pi_from_Bs_PT : 0.018777008492353985
Log_K1_PT : 0.014707164159720681
sqrt_K2_IPCHI2_OWNPV : 0.005530382018570728
Log_Pi_PT : 0.0036951771984561127
Log_K2_PT : 0.0035537563691853628
Bs_LV02 : 0.003252095734101077

Variable importance Bs BDT odd:
sqrt_Pi_from_Bs_IPCHI2_OWNPV : 0.432146223810142
sqrt_Ds_IPCHI2_OWNPV : 0.2604433385189218
Ds_ENDVERTEX_CHI2 : 0.09067117291892388
Log_Ds_PT : 0.048079635490760594
sqrt_Pi_IPCHI2_OWNPV : 0.04363305485230044
sqrt_K1_IPCHI2_OWNPV : 0.04279439032499066
Bs_ENDVERTEX_CHI2 : 0.025819400807934323
Log_Pi_from_Bs_PT : 0.015850213998665603
Log_Bs_FD_OWNPV : 0.012278263334981549
Log_K1_PT : 0.009984007164147707
sqrt_K2_IPCHI2_OWNPV : 0.00820771827167152
Log_Pi_PT : 0.004178632828374117
Log_K2_PT : 0.003760032995045943
Bs_LV02 : 0.0021539146831395933

Bs BDT even ROC AUC = 0.979033065183642BDT even cut for Bs sel = -0.33891600573857805
Bs BDT odd ROC AUC = 0.9790083453095344BDT odd cut for Bs sel = -0.6096813087611636
Bs BDT ROC AUC = 0.979017226822628BDT cut for Bs sel = -0.5606459686613919
Variable importance Bc BDT even:
Bc_TAU : 0.5435587136409905
Bach_PT : 0.2784131708364624
Bs_PT : 0.05035418621159334
Bc_DIRA_OWNPV : 0.03994825761636179
sqrt_Bach_IPCHI2_OWNPV : 0.025226240832641175
Bc_MDTF_Bs_ctauS : 0.020773451681123423
sqrt_Bs_IPCHI2_OWNPV : 0.015927663889686843
sqrt_Bc_IPCHI2_OWNPV : 0.010390336075850123
Bc_MDTF_Bs_ctau : 0.009313057434088876
Bc_MDTF_chi2nDOF : 0.006094921781201642

Variable importance Bc BDT odd:
Bc_TAU : 0.552764233830842
Bach_PT : 0.2880713293193237
Bs_PT : 0.04113084983405243
sqrt_Bach_IPCHI2_OWNPV : 0.025938151302728963
Bc_DIRA_OWNPV : 0.025403385316470416
Bc_MDTF_Bs_ctauS : 0.02150343015692292
sqrt_Bs_IPCHI2_OWNPV : 0.015994025566997923
sqrt_Bc_IPCHI2_OWNPV : 0.013063084682576626
Bc_MDTF_Bs_ctau : 0.008512190328084675
Bc_MDTF_chi2nDOF : 0.007619319662000362

Bc BDT even ROC AUC = 0.9769162789777271BDT even cut for Bc sel = 3.394740137458018
Bc BDT odd ROC AUC = 0.9787706568044232BDT odd cut for Bc sel = 3.12241041659423
Bc BDT ROC AUC = 0.9778324130798836BDT cut for Bc sel = 3.0652822832923454
