BDT training for Bc2BsMu, Bs2Bs2JpsiPhi, for year 'All' 

Variable importance Bc BDT even:
Bc_TAU : 0.5850030332545081
Bach_PT : 0.18712869141721578
Bc_DIRA_OWNPV : 0.05325527778357249
Bs_PT : 0.045952071444521125
Bc_MDTF_chi2nDOF : 0.038491526986635285
sqrt_Bach_IPCHI2_OWNPV : 0.028774668161913222
Bc_MDTF_Bs_ctauS : 0.017944901761301715
sqrt_Bc_IPCHI2_OWNPV : 0.016697549986426273
sqrt_Bs_IPCHI2_OWNPV : 0.015479862899096714
Bc_MDTF_Bs_ctau : 0.011272416304809416

Variable importance Bc BDT odd:
Bc_TAU : 0.5397467521617546
Bach_PT : 0.20225854443497907
Bc_DIRA_OWNPV : 0.07205572878844006
Bs_PT : 0.04951874999384438
Bc_MDTF_chi2nDOF : 0.04132216112593265
sqrt_Bach_IPCHI2_OWNPV : 0.02631211840915089
sqrt_Bs_IPCHI2_OWNPV : 0.022440888834113593
sqrt_Bc_IPCHI2_OWNPV : 0.01850540795920019
Bc_MDTF_Bs_ctauS : 0.016384111367633437
Bc_MDTF_Bs_ctau : 0.011455536924951186

Bc BDT even ROC AUC = 0.9658584634427232
BDT even cut for Bc sel = 2.714472078597748

Bc BDT odd ROC AUC = 0.9656948754121822
BDT odd cut for Bc sel = 3.194160402322863

Bc BDT ROC AUC = 0.9657374745551585
BDT cut for Bc sel = 3.66232127135653
