Variable importance Bc BDT:
Bc_DIRA_OWNPV : 0.3556218823660998
Bach_PT : 0.2122343230025611
Bc_MDTF_Bs_ctauErr : 0.17270969170680736
Bach_P : 0.10460611183038049
Bc_PT : 0.054246589829115385
Bc_ENDVERTEX_CHI2 : 0.03936932607289632
Bc_MDTF_Bs_DecayLengthErr : 0.028367195231797912
Bc_MDTF_chi2 : 0.01404593118061414
Bc_IPCHI2_OWNPV : 0.01040877745419576
Bc_MDTF_Bs_DecayLength : 0.00672640658014402
Bc_MDTF_Bs_ctau : 0.0016637647453875712

Bc BDT ROC AUC = 0.980660889170718
BDT cut for Bc sel = 3.6947389780470177