root://xrootd-lhcb.cr.cnaf.infn.it:1094//storage/gpfs_lhcb/lhcb/user/t/tmcgrath/2023_11/814359/814359759/Bc2BsstMuNu_Bs2JpsiPhi_2017_MC.root
root://xrootd-lhcb.cr.cnaf.infn.it:1094//storage/gpfs_lhcb/lhcb/user/t/tmcgrath/2023_11/814359/814359831/Bc2BsstMuNu_Bs2JpsiPhi_2017_MC.root
root://xrootd-lhcb.cr.cnaf.infn.it:1094//storage/gpfs_lhcb/lhcb/user/t/tmcgrath/2023_11/814359/814359863/Bc2BsstMuNu_Bs2JpsiPhi_2017_MC.root
root://xrootd.echo.stfc.ac.uk//lhcb:user/lhcb/user/t/tmcgrath/2023_11/814359/814359765/Bc2BsstMuNu_Bs2JpsiPhi_2017_MC.root
root://xrootd.echo.stfc.ac.uk//lhcb:user/lhcb/user/t/tmcgrath/2023_11/814359/814359787/Bc2BsstMuNu_Bs2JpsiPhi_2017_MC.root
root://xrootd.echo.stfc.ac.uk//lhcb:user/lhcb/user/t/tmcgrath/2023_11/814359/814359799/Bc2BsstMuNu_Bs2JpsiPhi_2017_MC.root
root://xrootd.echo.stfc.ac.uk//lhcb:user/lhcb/user/t/tmcgrath/2023_11/814359/814359818/Bc2BsstMuNu_Bs2JpsiPhi_2017_MC.root
root://xrootd.echo.stfc.ac.uk//lhcb:user/lhcb/user/t/tmcgrath/2023_11/814359/814359824/Bc2BsstMuNu_Bs2JpsiPhi_2017_MC.root
root://xrootd.echo.stfc.ac.uk//lhcb:user/lhcb/user/t/tmcgrath/2023_11/814359/814359868/Bc2BsstMuNu_Bs2JpsiPhi_2017_MC.root
root://x509up_u129802@eoslhcb.cern.ch//eos/lhcb/grid/user/lhcb/user/t/tmcgrath/2023_11/814359/814359771/Bc2BsstMuNu_Bs2JpsiPhi_2017_MC.root
root://x509up_u129802@eoslhcb.cern.ch//eos/lhcb/grid/user/lhcb/user/t/tmcgrath/2023_11/814359/814359782/Bc2BsstMuNu_Bs2JpsiPhi_2017_MC.root
root://x509up_u129802@eoslhcb.cern.ch//eos/lhcb/grid/user/lhcb/user/t/tmcgrath/2023_11/814359/814359835/Bc2BsstMuNu_Bs2JpsiPhi_2017_MC.root
root://x509up_u129802@ccxrootdlhcb.in2p3.fr//pnfs/in2p3.fr/data/lhcb/LHCb_USER/lhcb/user/t/tmcgrath/2023_11/814359/814359777/Bc2BsstMuNu_Bs2JpsiPhi_2017_MC.root
root://x509up_u129802@ccxrootdlhcb.in2p3.fr//pnfs/in2p3.fr/data/lhcb/LHCb_USER/lhcb/user/t/tmcgrath/2023_11/814359/814359805/Bc2BsstMuNu_Bs2JpsiPhi_2017_MC.root
root://x509up_u129802@ccxrootdlhcb.in2p3.fr//pnfs/in2p3.fr/data/lhcb/LHCb_USER/lhcb/user/t/tmcgrath/2023_11/814359/814359857/Bc2BsstMuNu_Bs2JpsiPhi_2017_MC.root
root://x509up_u129802@xrootd.grid.surfsara.nl//pnfs/grid.sara.nl/data/lhcb/LHCb_USER/lhcb/user/t/tmcgrath/2023_11/814359/814359792/Bc2BsstMuNu_Bs2JpsiPhi_2017_MC.root
root://x509up_u129802@xrootd.grid.surfsara.nl//pnfs/grid.sara.nl/data/lhcb/LHCb_USER/lhcb/user/t/tmcgrath/2023_11/814359/814359851/Bc2BsstMuNu_Bs2JpsiPhi_2017_MC.root
root://x509up_u129802@xrootd.grid.surfsara.nl//pnfs/grid.sara.nl/data/lhcb/LHCb_USER/lhcb/user/t/tmcgrath/2023_11/814359/814359880/Bc2BsstMuNu_Bs2JpsiPhi_2017_MC.root
root://x509up_u129802@lhcbxrootd-kit.gridka.de//pnfs/gridka.de/lhcb/LHCb_USER/lhcb/user/t/tmcgrath/2023_11/814359/814359812/Bc2BsstMuNu_Bs2JpsiPhi_2017_MC.root
root://x509up_u129802@lhcbxrootd-kit.gridka.de//pnfs/gridka.de/lhcb/LHCb_USER/lhcb/user/t/tmcgrath/2023_11/814359/814359843/Bc2BsstMuNu_Bs2JpsiPhi_2017_MC.root
