root://xrootd-lhcb.cr.cnaf.infn.it:1094//storage/gpfs_lhcb/lhcb/user/t/tmcgrath/2023_11/810869/810869627/Bc2BsstMuNu_Bs2DsPi_2017_MC.root
root://xrootd-lhcb.cr.cnaf.infn.it:1094//storage/gpfs_lhcb/lhcb/user/t/tmcgrath/2023_11/810869/810869640/Bc2BsstMuNu_Bs2DsPi_2017_MC.root
root://xrootd-lhcb.cr.cnaf.infn.it:1094//storage/gpfs_lhcb/lhcb/user/t/tmcgrath/2023_11/810869/810869641/Bc2BsstMuNu_Bs2DsPi_2017_MC.root
root://xrootd-lhcb.cr.cnaf.infn.it:1094//storage/gpfs_lhcb/lhcb/user/t/tmcgrath/2023_11/810869/810869643/Bc2BsstMuNu_Bs2DsPi_2017_MC.root
root://xrootd-lhcb.cr.cnaf.infn.it:1094//storage/gpfs_lhcb/lhcb/user/t/tmcgrath/2023_11/810869/810869651/Bc2BsstMuNu_Bs2DsPi_2017_MC.root
root://xrootd-lhcb.cr.cnaf.infn.it:1094//storage/gpfs_lhcb/lhcb/user/t/tmcgrath/2023_11/810869/810869652/Bc2BsstMuNu_Bs2DsPi_2017_MC.root
root://x509up_u129802@xrootd.grid.surfsara.nl//pnfs/grid.sara.nl/data/lhcb/LHCb_USER/lhcb/user/t/tmcgrath/2023_11/810869/810869628/Bc2BsstMuNu_Bs2DsPi_2017_MC.root
root://x509up_u129802@xrootd.grid.surfsara.nl//pnfs/grid.sara.nl/data/lhcb/LHCb_USER/lhcb/user/t/tmcgrath/2023_11/810869/810869636/Bc2BsstMuNu_Bs2DsPi_2017_MC.root
root://x509up_u129802@xrootd.grid.surfsara.nl//pnfs/grid.sara.nl/data/lhcb/LHCb_USER/lhcb/user/t/tmcgrath/2023_11/810869/810869644/Bc2BsstMuNu_Bs2DsPi_2017_MC.root
root://x509up_u129802@xrootd.grid.surfsara.nl//pnfs/grid.sara.nl/data/lhcb/LHCb_USER/lhcb/user/t/tmcgrath/2023_11/810869/810869649/Bc2BsstMuNu_Bs2DsPi_2017_MC.root
root://x509up_u129802@eoslhcb.cern.ch//eos/lhcb/grid/user/lhcb/user/t/tmcgrath/2023_11/810869/810869629/Bc2BsstMuNu_Bs2DsPi_2017_MC.root
root://x509up_u129802@eoslhcb.cern.ch//eos/lhcb/grid/user/lhcb/user/t/tmcgrath/2023_11/810869/810869633/Bc2BsstMuNu_Bs2DsPi_2017_MC.root
root://x509up_u129802@eoslhcb.cern.ch//eos/lhcb/grid/user/lhcb/user/t/tmcgrath/2023_11/810869/810869635/Bc2BsstMuNu_Bs2DsPi_2017_MC.root
root://x509up_u129802@eoslhcb.cern.ch//eos/lhcb/grid/user/lhcb/user/t/tmcgrath/2023_11/810869/810869647/Bc2BsstMuNu_Bs2DsPi_2017_MC.root
root://x509up_u129802@eoslhcb.cern.ch//eos/lhcb/grid/user/lhcb/user/t/tmcgrath/2023_11/810869/810869650/Bc2BsstMuNu_Bs2DsPi_2017_MC.root
root://xrootd.echo.stfc.ac.uk//lhcb:user/lhcb/user/t/tmcgrath/2023_11/810869/810869630/Bc2BsstMuNu_Bs2DsPi_2017_MC.root
root://xrootd.echo.stfc.ac.uk//lhcb:user/lhcb/user/t/tmcgrath/2023_11/810869/810869631/Bc2BsstMuNu_Bs2DsPi_2017_MC.root
root://xrootd.echo.stfc.ac.uk//lhcb:user/lhcb/user/t/tmcgrath/2023_11/810869/810869632/Bc2BsstMuNu_Bs2DsPi_2017_MC.root
root://xrootd.echo.stfc.ac.uk//lhcb:user/lhcb/user/t/tmcgrath/2023_11/810869/810869634/Bc2BsstMuNu_Bs2DsPi_2017_MC.root
root://xrootd.echo.stfc.ac.uk//lhcb:user/lhcb/user/t/tmcgrath/2023_11/810869/810869637/Bc2BsstMuNu_Bs2DsPi_2017_MC.root
root://xrootd.echo.stfc.ac.uk//lhcb:user/lhcb/user/t/tmcgrath/2023_11/810869/810869638/Bc2BsstMuNu_Bs2DsPi_2017_MC.root
root://xrootd.echo.stfc.ac.uk//lhcb:user/lhcb/user/t/tmcgrath/2023_11/810869/810869642/Bc2BsstMuNu_Bs2DsPi_2017_MC.root
root://xrootd.echo.stfc.ac.uk//lhcb:user/lhcb/user/t/tmcgrath/2023_11/810869/810869645/Bc2BsstMuNu_Bs2DsPi_2017_MC.root
root://x509up_u129802@lhcbxrootd-kit.gridka.de//pnfs/gridka.de/lhcb/LHCb_USER/lhcb/user/t/tmcgrath/2023_11/810869/810869639/Bc2BsstMuNu_Bs2DsPi_2017_MC.root
root://x509up_u129802@lhcbxrootd-kit.gridka.de//pnfs/gridka.de/lhcb/LHCb_USER/lhcb/user/t/tmcgrath/2023_11/810869/810869646/Bc2BsstMuNu_Bs2DsPi_2017_MC.root
root://x509up_u129802@ccxrootdlhcb.in2p3.fr//pnfs/in2p3.fr/data/lhcb/LHCb_USER/lhcb/user/t/tmcgrath/2023_11/810869/810869648/Bc2BsstMuNu_Bs2DsPi_2017_MC.root
